<?xml version="1.0" encoding="utf-8"?>
<!DOCTYPE svg PUBLIC "-//W3C//DTD SVG 1.1//EN" "http://www.w3.org/Graphics/SVG/1.1/DTD/svg11.dtd">
<svg version="1.1" id="Layer_1" xmlns="http://www.w3.org/2000/svg" xmlns:xlink="http://www.w3.org/1999/xlink" x="0px" y="0px"
	 width="285px" height="227.666px" viewBox="0 0 285 227.666" enable-background="new 0 0 285 227.666" xml:space="preserve">
<polygon fill="#4D4D4D" stroke="#4D4D4D" stroke-width="6" stroke-linejoin="round" stroke-miterlimit="10" points="
	281.168,193.832 3.834,193.832 14.131,173.652 3.834,152.832 281.168,152.832 270.871,172.849 "/>
<polygon fill="#686868" points="262.94,164.879 231.181,152.72 223.44,171.036 "/>
<polygon fill="#686868" points="20.942,164.879 52.702,152.72 60.441,171.036 "/>
<g>
	<path fill="#2B2B2B" d="M242.618,88.673c-3.884-4.239-7.898-8.622-10.189-13.918c-2.286-5.291-2.713-11.209-3.125-16.933
		c-0.639-8.844-1.298-17.988-8.595-25.065c-7.293-7.075-16.45-7.461-25.307-7.834c-5.733-0.242-11.663-0.492-17.022-2.621
		c-5.362-2.13-9.864-6.015-14.217-9.771c-6.646-5.735-13.52-11.666-23.494-11.666c-0.123,0-0.246,0-0.37,0.003
		c-10.172,0.154-16.893,6.357-23.394,12.356c-4.214,3.89-8.572,7.912-13.875,10.2c-5.31,2.291-11.247,2.701-16.988,3.097
		c-8.851,0.611-18.003,1.242-25.092,8.543c-7.087,7.3-7.447,16.475-7.794,25.346c-0.225,5.752-0.458,11.699-2.588,17.067
		c-2.135,5.37-6.038,9.856-9.812,14.195c-5.826,6.699-11.851,13.625-11.696,23.813c0.15,10.167,6.379,16.915,12.403,23.441
		c3.903,4.229,7.939,8.602,10.229,13.9c2.29,5.303,2.701,11.241,3.098,16.983c0.613,8.855,1.247,18.013,8.546,25.097
		c7.301,7.086,16.474,7.447,25.345,7.796c5.75,0.226,11.695,0.46,17.062,2.59c5.373,2.131,9.867,6.036,14.212,9.812
		c6.617,5.749,13.458,11.693,23.425,11.693c0.123,0,0.243,0,0.367-0.003c10.185-0.15,16.896-6.395,23.386-12.434
		c4.216-3.923,8.574-7.979,13.888-10.273c5.311-2.296,11.248-2.705,16.992-3.102c8.849-0.611,17.999-1.242,25.088-8.543
		c7.096-7.31,7.452-16.478,7.796-25.343c0.224-5.749,0.454-11.692,2.587-17.073c2.129-5.374,6.039-9.84,9.822-14.16
		c5.819-6.645,11.838-13.517,11.683-23.683C254.838,102.014,248.626,95.231,242.618,88.673z"/>
</g>
<g>
	<g>
		<path fill="#FFFFFF" d="M168.23,83.35l1.969-2.16c-0.03-9.554,1.773-29.267,9.87-42.92l-30.231,23.474
			C158.208,66.026,164.721,73.003,168.23,83.35z"/>
	</g>
	<g>
		<path fill="#FFFFFF" d="M199.913,66.979c0,0-0.887-1.327-3.968-3.714c-3.097-2.371-7.437-1.451-7.437-1.451
			s-6.776,0.985-10.512,11.95c-3.194,9.376-5.994,12.863-8.599,15.755l-37.25,38.769c0,0-6.392,5.925-14.101,8.117
			c-10.59,3.013-31.55,6.403-38.063,7.183c-6.512,0.784-2.068,4.536,4.88,8.674c6.949,4.137,7.983,6.187,21.857-1.319
			c13.881-7.496,27.18-0.608,55.624-8.783c28.455-8.168,34.227-30.938,33.712-47.66c-0.521-16.726,1.591-20.355,3.264-21.774
			c1.675-1.423,7.932-3.359,7.932-3.359L199.913,66.979z"/>
	</g>
	<g>
		<path fill="#FFFFFF" d="M128.89,122.649c0.267,0.355,0.753,1.026,0.753,1.026l34.539-36.847
			c-6.552-22.903-30.563-28.118-51.875-24.779l-36.612,41.447C96.928,99.925,116.06,105.669,128.89,122.649z"/>
	</g>
</g>
<path fill="#FFFFFF" d="M266.001,169.384c0-2.515-2.038-4.553-4.553-4.553H21.554c-2.515,0-4.553,2.038-4.553,4.553v38.895
	c0,2.515,2.038,4.553,4.553,4.553h239.895c2.515,0,4.553-2.038,4.553-4.553V169.384z"/>
<g>
	<path fill="#686868" d="M47.106,174.489c4.576,0,6.266,2.814,6.266,12.08c0,9.437-2.006,12.56-6.653,12.56
		c-4.541,0-6.336-2.573-6.336-12.457C40.382,177.543,42.565,174.489,47.106,174.489z M46.859,196.281
		c2.535,0,3.415-2.643,3.415-9.644c0-6.863-0.704-9.3-3.238-9.3c-2.464,0-3.45,2.608-3.45,10.021
		C43.585,193.741,44.36,196.281,46.859,196.281z"/>
	<path fill="#686868" d="M56.857,182.691c1.443-0.893,3.239-1.373,5.14-1.373c3.485,0,5.738,1.51,5.738,7.139
		c0,9.23-2.851,10.706-5.245,10.706c-1.302,0-2.253-0.445-2.781-0.961v7.139c-0.458,0.171-1.021,0.24-1.479,0.24
		c-0.986,0-1.373-0.274-1.373-1.201V182.691z M59.709,195.525c0.493,0.79,1.197,1.133,1.901,1.133c1.091,0,2.957-0.755,2.957-7.893
		c0-4.084-0.916-5.011-2.71-5.011c-0.845,0-1.549,0.24-2.147,0.652V195.525z"/>
	<path fill="#686868" d="M81.746,186.843c0,1.51-0.105,3.226-0.387,4.461c-2.429,0.446-5.667,0.549-7.357,0.549
		c0.141,3.638,1.126,4.599,3.274,4.599c1.408,0,2.816-0.411,4.013-1.063c0.176,0.515,0.247,1.338,0.247,1.888
		c0,1.063-2.218,1.887-4.858,1.887c-3.274,0-5.632-1.338-5.632-8.03c0-8.579,3.133-9.814,6.231-9.814
		C80.232,181.318,81.746,183.137,81.746,186.843z M74.037,189.588c1.337,0.034,3.52-0.034,4.752-0.377
		c0.141-0.618,0.176-1.407,0.176-2.06c-0.035-2.471-0.493-3.397-2.006-3.397C75.515,183.754,74.248,184.956,74.037,189.588z"/>
	<path fill="#686868" d="M85.478,182.485c1.373-0.583,3.696-1.167,5.562-1.167c3.696,0,4.963,1.27,4.963,4.599v12.354
		c0,0.549-0.07,0.549-2.957,0.549v-12.08c0-2.161-0.352-2.985-2.112-2.985c-0.739,0-1.831,0.206-2.605,0.618v13.898
		c0,0.549-0.07,0.549-2.852,0.549V182.485z"/>
	<path fill="#686868" d="M106.776,182.245c0.598-0.377,2.675-0.927,5.351-0.927c3.027,0,4.365,1.099,4.365,4.187v1.819
		c0,3.946-0.035,8.064-0.211,10.673c-0.95,0.549-2.605,1.166-4.893,1.166c-2.57,0.035-5.034-0.515-5.034-5.216
		c0-4.771,2.323-5.628,4.682-5.628c0.774,0,1.866,0.103,2.57,0.446v-2.711c0-1.613-0.774-2.025-2.183-2.025
		c-1.76,0-3.625,0.344-4.646,0.755c-0.317-0.549-0.387-1.166-0.387-1.578C106.389,182.828,106.494,182.451,106.776,182.245z
		 M111.951,190.413c-1.408,0-2.605,0.48-2.605,3.466c0,2.505,0.915,2.951,2.288,2.951c0.774,0,1.549-0.274,1.866-0.584
		c0.105-1.132,0.105-3.672,0.105-5.524C113.147,190.515,112.443,190.413,111.951,190.413z"/>
	<path fill="#686868" d="M130.291,183.24c0,0.446-0.247,0.995-0.634,1.407c-1.056-0.618-2.112-0.893-3.45-0.893
		c-1.654,0-2.781,0.584-2.781,1.647c0,0.618,0.211,1.167,1.408,2.128l3.274,2.573c1.514,1.441,2.077,2.574,2.077,4.29
		c0,3.054-2.218,4.77-5.809,4.77c-2.499,0-4.294-0.549-4.294-1.75c0-0.411,0.105-0.995,0.493-1.612
		c1.021,0.583,2.147,0.857,3.521,0.857c1.795,0,2.851-0.755,2.851-2.128c0-0.926-0.352-1.75-1.408-2.677l-3.415-2.848
		c-1.584-1.27-2.006-2.505-2.006-3.638c0-2.402,1.795-4.05,5.738-4.05C129.481,181.318,130.291,182.553,130.291,183.24z"/>
	<path fill="#686868" d="M150.427,183.24c0,0.446-0.246,0.995-0.633,1.407c-1.057-0.618-2.112-0.893-3.45-0.893
		c-1.654,0-2.781,0.584-2.781,1.647c0,0.618,0.212,1.167,1.408,2.128l3.274,2.573c1.514,1.441,2.076,2.574,2.076,4.29
		c0,3.054-2.218,4.77-5.808,4.77c-2.5,0-4.295-0.549-4.295-1.75c0-0.411,0.105-0.995,0.493-1.612
		c1.021,0.583,2.147,0.857,3.52,0.857c1.796,0,2.852-0.755,2.852-2.128c0-0.926-0.352-1.75-1.408-2.677l-3.415-2.848
		c-1.584-1.27-2.006-2.505-2.006-3.638c0-2.402,1.795-4.05,5.738-4.05C149.617,181.318,150.427,182.553,150.427,183.24z"/>
	<path fill="#686868" d="M155.567,184.064h-2.394c0-2.128,0.035-2.402,0.634-2.402h1.76v-5.217c0-0.961,0.528-0.961,2.887-0.961
		v6.178h3.591c0,2.162,0,2.402-0.563,2.402h-3.027v9.985c0,1.476,0,2.712,1.268,2.712c0.81,0,1.337-0.172,2.041-0.516
		c0.105,0.378,0.212,0.824,0.212,1.373c0,1.27-1.655,1.544-3.027,1.544c-2.992,0-3.38-2.024-3.38-5.113V184.064z"/>
	<path fill="#686868" d="M165.459,182.245c0.599-0.377,2.675-0.927,5.351-0.927c3.027,0,4.365,1.099,4.365,4.187v1.819
		c0,3.946-0.035,8.064-0.211,10.673c-0.951,0.549-2.605,1.166-4.894,1.166c-2.569,0.035-5.034-0.515-5.034-5.216
		c0-4.771,2.323-5.628,4.683-5.628c0.774,0,1.865,0.103,2.569,0.446v-2.711c0-1.613-0.774-2.025-2.183-2.025
		c-1.76,0-3.626,0.344-4.646,0.755c-0.317-0.549-0.388-1.166-0.388-1.578C165.071,182.828,165.178,182.451,165.459,182.245z
		 M170.634,190.413c-1.408,0-2.605,0.48-2.605,3.466c0,2.505,0.916,2.951,2.288,2.951c0.774,0,1.549-0.274,1.866-0.584
		c0.105-1.132,0.105-3.672,0.105-5.524C171.83,190.515,171.126,190.413,170.634,190.413z"/>
	<path fill="#686868" d="M179.294,182.485c1.373-0.583,3.696-1.167,5.562-1.167c3.695,0,4.963,1.27,4.963,4.599v12.354
		c0,0.549-0.07,0.549-2.957,0.549v-12.08c0-2.161-0.352-2.985-2.112-2.985c-0.739,0-1.83,0.206-2.604,0.618v13.898
		c0,0.549-0.07,0.549-2.852,0.549V182.485z"/>
	<path fill="#686868" d="M201.437,174.867c0-1.27,0.528-1.27,2.852-1.27v24.536c-1.162,0.549-2.852,1.029-5.034,1.029
		c-3.062,0-5.737-0.857-5.737-8.305c0-6.794,2.394-9.54,5.421-9.54c1.091,0,1.9,0.24,2.499,0.687V174.867z M201.437,184.201
		c-0.458-0.343-0.88-0.446-1.619-0.446c-1.549,0-3.098,1.167-3.098,6.795c0,5.147,0.985,6.108,2.64,6.108
		c0.774,0,1.514-0.137,2.077-0.515V184.201z"/>
	<path fill="#686868" d="M208.653,182.245c0.599-0.377,2.675-0.927,5.351-0.927c3.027,0,4.365,1.099,4.365,4.187v1.819
		c0,3.946-0.035,8.064-0.211,10.673c-0.951,0.549-2.605,1.166-4.894,1.166c-2.569,0.035-5.034-0.515-5.034-5.216
		c0-4.771,2.323-5.628,4.683-5.628c0.774,0,1.865,0.103,2.569,0.446v-2.711c0-1.613-0.774-2.025-2.183-2.025
		c-1.76,0-3.626,0.344-4.646,0.755c-0.316-0.549-0.388-1.166-0.388-1.578C208.266,182.828,208.372,182.451,208.653,182.245z
		 M213.828,190.413c-1.408,0-2.605,0.48-2.605,3.466c0,2.505,0.916,2.951,2.288,2.951c0.774,0,1.549-0.274,1.866-0.584
		c0.105-1.132,0.105-3.672,0.105-5.524C215.024,190.515,214.32,190.413,213.828,190.413z"/>
	<path fill="#686868" d="M222.487,182.863c1.373-0.927,3.062-1.545,4.787-1.545c1.796,0,2.465,0.515,2.465,1.441
		c0,0.378-0.07,1.064-0.317,1.647c-0.527-0.274-1.091-0.412-1.689-0.412c-0.774,0-1.654,0.24-2.323,0.789l-0.035,13.487
		c0,0.549-0.035,0.549-2.887,0.549V182.863z"/>
	<path fill="#686868" d="M239.596,174.867c0-1.27,0.528-1.27,2.852-1.27v24.536c-1.162,0.549-2.852,1.029-5.034,1.029
		c-3.062,0-5.738-0.857-5.738-8.305c0-6.794,2.395-9.54,5.422-9.54c1.091,0,1.9,0.24,2.499,0.687V174.867z M239.596,184.201
		c-0.458-0.343-0.88-0.446-1.619-0.446c-1.549,0-3.098,1.167-3.098,6.795c0,5.147,0.985,6.108,2.64,6.108
		c0.774,0,1.514-0.137,2.077-0.515V184.201z"/>
</g>
</svg>
