<?xml version="1.0" encoding="UTF-8" standalone="no"?>
<!-- Created with Inkscape (http://www.inkscape.org/) -->

<svg
   xmlns:dc="http://purl.org/dc/elements/1.1/"
   xmlns:cc="http://creativecommons.org/ns#"
   xmlns:rdf="http://www.w3.org/1999/02/22-rdf-syntax-ns#"
   xmlns:svg="http://www.w3.org/2000/svg"
   xmlns="http://www.w3.org/2000/svg"
   xmlns:xlink="http://www.w3.org/1999/xlink"
   xmlns:sodipodi="http://sodipodi.sourceforge.net/DTD/sodipodi-0.dtd"
   xmlns:inkscape="http://www.inkscape.org/namespaces/inkscape"
   version="1.0"
   width="765"
   height="990"
   id="svg2"
   inkscape:version="0.48.4 r9939"
   sodipodi:docname="dove-defined-us.en.svg"
   inkscape:export-filename="/home/samtuke/fsfe/svn/dfd/artwork/2014/posters/dove-defined/dove-defined-us.en.png"
   inkscape:export-xdpi="90"
   inkscape:export-ydpi="90">
  <metadata
     id="metadata20">
    <rdf:RDF>
      <cc:Work
         rdf:about="">
        <dc:format>image/svg+xml</dc:format>
        <dc:type
           rdf:resource="http://purl.org/dc/dcmitype/StillImage" />
        <dc:title></dc:title>
      </cc:Work>
    </rdf:RDF>
  </metadata>
  <sodipodi:namedview
     pagecolor="#ffffff"
     bordercolor="#666666"
     borderopacity="1"
     objecttolerance="10"
     gridtolerance="10"
     guidetolerance="10"
     inkscape:pageopacity="1"
     inkscape:pageshadow="2"
     inkscape:window-width="1920"
     inkscape:window-height="1014"
     id="namedview18"
     showgrid="false"
     inkscape:zoom="1.1131313"
     inkscape:cx="235.72944"
     inkscape:cy="630.86683"
     inkscape:window-x="0"
     inkscape:window-y="27"
     inkscape:window-maximized="1"
     inkscape:current-layer="svg2"
     units="mm" />
  <defs
     id="defs3021">
    <linearGradient
       id="linearGradient3833">
      <stop
         id="stop3835"
         offset="0"
         style="stop-color:#84c823;stop-opacity:1;" />
      <stop
         id="stop3837"
         offset="1"
         style="stop-color:#68c219;stop-opacity:0;" />
    </linearGradient>
    <linearGradient
       id="linearGradient3898">
      <stop
         style="stop-color:#c7e25a;stop-opacity:1"
         offset="0"
         id="stop3900" />
      <stop
         id="stop3843"
         offset="0.30973855"
         style="stop-color:#97d239;stop-opacity:1;" />
      <stop
         style="stop-color:#75b726;stop-opacity:1;"
         offset="0.80005145"
         id="stop3847" />
      <stop
         style="stop-color:#549c14;stop-opacity:1;"
         offset="1"
         id="stop3902" />
    </linearGradient>
    <path
       inkscape:connector-curvature="0"
       style="fill:none;stroke:#000000;stroke-opacity:0"
       id="path4271-8"
       d="m 666.65152,296.16362 c 0,0 -4.268,-6.38733 -19.1384,-17.83989 -14.8704,-11.4583 -35.8097,-7.00183 -35.8097,-7.00183 0,0 -32.6086,4.73535 -50.5968,57.50321 -15.4064,45.16665 -28.8715,61.97478 -41.4621,75.86709 l -179.3711,186.66631 c 0,0 -30.7922,28.54633 -67.9291,39.0894 -50.9871,14.48127 -151.9621,30.83466 -183.3215,34.57569"
       sodipodi:nodetypes="cccccccc" />
    <radialGradient
       inkscape:collect="always"
       xlink:href="#linearGradient3898"
       id="radialGradient3904"
       cx="74.780403"
       cy="75.906113"
       fx="74.780403"
       fy="75.906113"
       r="385"
       gradientTransform="matrix(-2.3869592,-0.01909287,0.02119179,-2.6493628,229.06075,198.99571)"
       gradientUnits="userSpaceOnUse" />
    <linearGradient
       inkscape:collect="always"
       xlink:href="#linearGradient3833"
       id="linearGradient3831"
       x1="372"
       y1="2"
       x2="372"
       y2="282"
       gradientUnits="userSpaceOnUse" />
    <radialGradient
       inkscape:collect="always"
       xlink:href="#linearGradient3833"
       id="radialGradient3839"
       cx="383"
       cy="496"
       fx="383"
       fy="496"
       r="385"
       gradientTransform="matrix(1,0,0,1.2883117,0,-143.0026)"
       gradientUnits="userSpaceOnUse" />
  </defs>
  <rect
     style="opacity:1;fill:url(#radialGradient3904);stroke:none;stroke-width:2;stroke-miterlimit:4;stroke-opacity:1;stroke-dasharray:none;stroke-dashoffset:0;fill-opacity:1"
     id="rect3120"
     width="770"
     height="992"
     x="-2"
     y="-4.5474735e-13" />
  <path
     inkscape:connector-curvature="0"
     style="fill:none;stroke:none"
     id="path3900"
     d="m 493.49729,752.94226 c 30.88368,-2.46144 66.58593,-7.67847 109.42474,-19.98435 137.0136,-39.34798 164.8494,-148.97441 162.3562,-229.48008 -2.5035,-80.51137 7.6408,-98.03596 15.6979,-104.85516"
     sodipodi:nodetypes="cccc" />
  <path
     sodipodi:nodetypes="cccc"
     d="m 442.09542,736.11983 c 30.88368,-2.46144 66.58593,-7.67847 109.42474,-19.98435 137.0136,-39.34798 164.8494,-148.97441 162.3562,-229.48008 -2.5035,-80.51137 7.6408,-98.03596 15.6979,-104.85516"
     id="path3902"
     style="fill:none;stroke:none"
     inkscape:connector-curvature="0" />
  <path
     sodipodi:nodetypes="ccsc"
     d="m -177.26746,1133.6217 c 6.7239,4.4248 13.7955,8.2715 18.1419,10.8682 33.47788,19.9175 38.46937,29.7774 105.321031,-6.3374 66.85168,-36.1148 130.861453,-2.9501 267.885509,-42.3117"
     id="path3956"
     style="fill:none;stroke:none"
     inkscape:connector-curvature="0" />
  <g
     transform="translate(-0.72344959,-29.751839)"
     id="g3182"
     style="stroke:none">
    <text
       transform="matrix(0.92940492,-0.36906163,0.36906163,0.92940492,0,0)"
       sodipodi:linespacing="125%"
       id="text3051"
       y="548.26385"
       x="499.71591"
       style="font-size:9.45402145px;font-style:normal;font-variant:normal;font-weight:normal;font-stretch:normal;line-height:125%;letter-spacing:0px;word-spacing:0px;color:#000000;fill:#ffffff;fill-opacity:1;fill-rule:evenodd;stroke:none;stroke-width:1px;marker:none;visibility:visible;display:inline;overflow:visible;enable-background:accumulate;font-family:Vegur;-inkscape-font-specification:Vegur"
       xml:space="preserve"><tspan
         id="tspan3806"
         y="548.26385"
         x="499.71591"
         sodipodi:role="line"
         style="font-size:9px;font-style:normal;font-variant:normal;font-weight:500;font-stretch:normal;text-align:start;line-height:125%;writing-mode:lr-tb;text-anchor:start;font-family:Roboto;-inkscape-font-specification:Roboto Medium">SPEECH</tspan></text>
    <text
       transform="matrix(0.7911558,-0.61161466,0.61161466,0.7911558,0,0)"
       xml:space="preserve"
       style="font-size:12px;font-style:normal;font-variant:normal;font-weight:normal;font-stretch:normal;line-height:125%;letter-spacing:0px;word-spacing:0px;color:#000000;fill:#ffffff;fill-opacity:1;fill-rule:evenodd;stroke:none;stroke-width:1px;marker:none;visibility:visible;display:inline;overflow:visible;enable-background:accumulate;font-family:Vegur;-inkscape-font-specification:Vegur"
       x="172.22318"
       y="491.09222"
       id="text3055"
       sodipodi:linespacing="125%"><tspan
         style="font-size:20px;font-style:normal;font-variant:normal;font-weight:normal;font-stretch:normal;text-align:start;line-height:125%;writing-mode:lr-tb;text-anchor:start;fill:#ffffff;fill-opacity:1;stroke:none;font-family:Roboto;-inkscape-font-specification:Roboto"
         sodipodi:role="line"
         id="tspan3057"
         x="172.22318"
         y="491.09222">ANY <tspan
   style="font-size:20px;font-style:normal;font-variant:normal;font-weight:300;font-stretch:normal;text-align:start;line-height:125%;writing-mode:lr-tb;text-anchor:start;font-family:Roboto;-inkscape-font-specification:Roboto Light"
   id="tspan3065">APPLICATION</tspan></tspan><tspan
         id="tspan4343"
         style="font-size:16px;font-style:normal;font-variant:normal;font-weight:normal;font-stretch:normal;text-align:start;line-height:125%;writing-mode:lr-tb;text-anchor:start;fill:#ffffff;fill-opacity:1;stroke:none;font-family:Roboto;-inkscape-font-specification:Roboto"
         sodipodi:role="line"
         x="172.22318"
         y="512.13391">  ANY <tspan
   style="font-size:16px;font-style:normal;font-variant:normal;font-weight:300;font-stretch:normal;text-align:start;line-height:125%;writing-mode:lr-tb;text-anchor:start;font-family:Roboto;-inkscape-font-specification:Roboto Light"
   id="tspan3069">COMPUTER</tspan></tspan><tspan
         id="tspan4349"
         style="font-size:12px;font-style:normal;font-variant:normal;font-weight:normal;font-stretch:normal;text-align:start;line-height:125%;writing-mode:lr-tb;text-anchor:start;fill:#ffffff;fill-opacity:1;stroke:none;font-family:Roboto;-inkscape-font-specification:Roboto"
         sodipodi:role="line"
         x="172.22318"
         y="528.17554">     ANY <tspan
   style="font-size:12px;font-style:normal;font-variant:normal;font-weight:300;font-stretch:normal;text-align:start;line-height:125%;writing-mode:lr-tb;text-anchor:start;font-family:Roboto;-inkscape-font-specification:Roboto Light"
   id="tspan3073">PLATFORM</tspan></tspan><tspan
         id="tspan4357"
         style="font-size:12px;font-style:normal;font-variant:normal;font-weight:normal;font-stretch:normal;text-align:start;line-height:125%;writing-mode:lr-tb;text-anchor:start;fill:#ffffff;fill-opacity:1;stroke:none;font-family:Roboto;-inkscape-font-specification:Roboto"
         sodipodi:role="line"
         x="172.22318"
         y="543.17554">      NO <tspan
   style="font-size:12px;font-style:normal;font-variant:normal;font-weight:300;font-stretch:normal;text-align:start;line-height:125%;writing-mode:lr-tb;text-anchor:start;font-family:Roboto;-inkscape-font-specification:Roboto Light"
   id="tspan3075">PATENTS</tspan></tspan><tspan
         id="tspan4361"
         style="font-size:12px;font-style:normal;font-variant:normal;font-weight:normal;font-stretch:normal;text-align:start;line-height:125%;writing-mode:lr-tb;text-anchor:start;fill:#ffffff;fill-opacity:1;stroke:none;font-family:Roboto;-inkscape-font-specification:Roboto"
         sodipodi:role="line"
         x="172.22318"
         y="558.17554">       NO <tspan
   style="font-size:12px;font-style:normal;font-variant:normal;font-weight:300;font-stretch:normal;text-align:start;line-height:125%;writing-mode:lr-tb;text-anchor:start;font-family:Roboto;-inkscape-font-specification:Roboto Light"
   id="tspan3077">LOCK-IN</tspan></tspan><tspan
         id="tspan4375"
         style="font-size:10px;font-style:normal;font-variant:normal;font-weight:normal;font-stretch:normal;text-align:start;line-height:125%;writing-mode:lr-tb;text-anchor:start;fill:#ffffff;fill-opacity:1;stroke:none;font-family:Roboto;-inkscape-font-specification:Roboto"
         sodipodi:role="line"
         x="172.22318"
         y="571.19641">       FREEDOM</tspan></text>
    <text
       transform="matrix(0.65681227,-0.75405414,0.75405414,0.65681227,0,0)"
       sodipodi:linespacing="120%"
       id="text4022"
       y="373.85406"
       x="-310.35889"
       style="font-size:12px;font-style:normal;font-variant:normal;font-weight:normal;font-stretch:normal;line-height:120.00000477%;letter-spacing:0px;word-spacing:0px;color:#000000;fill:#ffffff;fill-opacity:1;fill-rule:evenodd;stroke:none;stroke-width:1px;marker:none;visibility:visible;display:inline;overflow:visible;enable-background:accumulate;font-family:Vegur;-inkscape-font-specification:Vegur"
       xml:space="preserve"><tspan
         style="font-size:14px;font-style:normal;font-variant:normal;font-weight:300;font-stretch:normal;text-align:start;line-height:120.00000477%;writing-mode:lr-tb;text-anchor:start;fill:#ffffff;fill-opacity:1;stroke:none;font-family:Roboto;-inkscape-font-specification:Roboto Light"
         y="373.85406"
         x="-310.35889"
         id="tspan4024"
         sodipodi:role="line">&quot;<tspan
   style="font-size:14px;font-style:normal;font-variant:normal;font-weight:500;font-stretch:normal;text-align:start;line-height:120.00000477%;writing-mode:lr-tb;text-anchor:start;font-family:Roboto;-inkscape-font-specification:Roboto Medium"
   id="tspan3091">Open standards</tspan> are the strong foundation for</tspan><tspan
         id="tspan4032"
         style="font-size:14px;font-style:normal;font-variant:normal;font-weight:300;font-stretch:normal;text-align:start;line-height:120.00000477%;writing-mode:lr-tb;text-anchor:start;fill:#ffffff;fill-opacity:1;stroke:none;font-family:Roboto;-inkscape-font-specification:Roboto Light"
         y="390.65405"
         x="-310.35889"
         sodipodi:role="line">        interoperability, competition and choice. Three</tspan><tspan
         style="font-size:14px;font-style:normal;font-variant:normal;font-weight:300;font-stretch:normal;text-align:start;line-height:120.00000477%;writing-mode:lr-tb;text-anchor:start;fill:#ffffff;fill-opacity:1;stroke:none;font-family:Roboto;-inkscape-font-specification:Roboto Light"
         id="tspan4028"
         y="407.45407"
         x="-310.35889"
         sodipodi:role="line">             crucial things for an <tspan
   style="font-size:14px;font-style:normal;font-variant:normal;font-weight:500;font-stretch:normal;text-align:start;line-height:120.00000477%;writing-mode:lr-tb;text-anchor:start;font-family:Roboto;-inkscape-font-specification:Roboto Medium"
   id="tspan3087">OPEN, INNOVATIVE</tspan>, and</tspan><tspan
         id="tspan4044"
         style="font-size:14px;font-style:normal;font-variant:normal;font-weight:300;font-stretch:normal;text-align:start;line-height:120.00000477%;writing-mode:lr-tb;text-anchor:start;fill:#ffffff;fill-opacity:1;stroke:none;font-family:Roboto;-inkscape-font-specification:Roboto Light"
         y="424.25406"
         x="-310.35889"
         sodipodi:role="line">                 successful society.&quot; -- Peter H. Ganten,</tspan><tspan
         id="tspan4040"
         style="font-size:14px;font-style:normal;font-variant:normal;font-weight:300;font-stretch:normal;text-align:start;line-height:120.00000477%;writing-mode:lr-tb;text-anchor:start;fill:#ffffff;fill-opacity:1;stroke:none;font-family:Roboto;-inkscape-font-specification:Roboto Light"
         y="441.05408"
         x="-310.35889"
         sodipodi:role="line">                     Chairman of the board, OSB Alliance</tspan></text>
    <path
       sodipodi:nodetypes="cccccccc"
       d="m 666.65152,300.16362 c 0,0 -4.268,-6.38733 -19.1384,-17.83989 -14.8704,-11.4583 -35.8097,-7.00183 -35.8097,-7.00183 0,0 -32.6086,4.73535 -50.5968,57.50321 -15.4064,45.16665 -28.8715,61.97478 -41.4621,75.86709 l -179.3711,186.66631 c 0,0 -30.7922,28.54633 -67.9291,39.0894 -50.9871,14.48127 -151.9621,30.83466 -183.3215,34.57569"
       id="path4271"
       style="fill:none;stroke:none"
       inkscape:connector-curvature="0" />
    <path
       sodipodi:nodetypes="cc"
       d="m 237.40146,169.19854 c 73.39921,7.65331 139.39241,42.93156 162.06194,122.10883"
       id="path4276"
       style="fill:none;stroke:none"
       inkscape:connector-curvature="0" />
    <path
       inkscape:connector-curvature="0"
       style="fill:none;stroke:none"
       id="path4332"
       d="m 257.96221,149.10508 c 73.39921,7.65331 139.39241,42.93156 162.06194,122.10883"
       sodipodi:nodetypes="cc" />
    <text
       transform="translate(4,-4)"
       xml:space="preserve"
       style="font-size:12px;font-style:normal;font-variant:normal;font-weight:normal;font-stretch:normal;line-height:125%;letter-spacing:0px;word-spacing:0px;color:#000000;fill:#ffffff;fill-opacity:1;fill-rule:evenodd;stroke:none;stroke-width:1px;marker:none;visibility:visible;display:inline;overflow:visible;enable-background:accumulate;font-family:Vegur;-inkscape-font-specification:Vegur"
       id="text3020"
       sodipodi:linespacing="125%"><textPath
         style="font-size:28px;font-style:normal;font-variant:normal;font-weight:500;font-stretch:normal;text-align:start;line-height:125%;letter-spacing:-0.84613198;writing-mode:lr-tb;text-anchor:start;fill:#ffffff;fill-opacity:1;stroke:none;font-family:Roboto;-inkscape-font-specification:Roboto Medium"
         id="textPath4047"
         xlink:href="#path4045">OPEN DOCUMENT FORMAT ALLIANCE</textPath></text>
    <path
       sodipodi:nodetypes="cccscc"
       d="M 378.82948,554.71976 339.57766,595.568 c 0,0 -30.79216,28.54633 -67.92907,39.0894 -32.97903,9.36664 -86.87117,19.51651 -129.31148,26.53007 -23.17442,3.82974 -42.934269,6.72433 -54.0101,8.04562 -31.364702,3.74625 -9.972571,21.84787 23.49489,41.77577"
       id="path3030"
       style="fill:none;stroke:none"
       inkscape:connector-curvature="0" />
    <text
       transform="matrix(0.94210422,0.3353202,-0.3353202,0.94210422,0,0)"
       xml:space="preserve"
       style="font-size:8.48016644px;font-style:normal;font-variant:normal;font-weight:normal;font-stretch:normal;line-height:125%;letter-spacing:0px;word-spacing:0px;color:#000000;fill:#ffffff;fill-opacity:1;fill-rule:evenodd;stroke:none;stroke-width:1px;marker:none;visibility:visible;display:inline;overflow:visible;enable-background:accumulate;font-family:Vegur;-inkscape-font-specification:Vegur"
       x="728.93561"
       y="61.17765"
       id="text3808"
       sodipodi:linespacing="125%"><tspan
         sodipodi:role="line"
         x="728.93561"
         y="61.17765"
         id="tspan3812"
         style="font-size:9px;font-style:normal;font-variant:normal;font-weight:500;font-stretch:normal;text-align:start;line-height:125%;writing-mode:lr-tb;text-anchor:start;font-family:Roboto;-inkscape-font-specification:Roboto Medium">FREE</tspan></text>
    <text
       transform="translate(-74.766355,-72.467289)"
       sodipodi:linespacing="125%"
       id="text3818"
       style="font-size:12px;font-style:normal;font-variant:normal;font-weight:normal;font-stretch:normal;line-height:125%;letter-spacing:0px;word-spacing:0px;color:#000000;fill:#ffffff;fill-opacity:1;fill-rule:evenodd;stroke:none;stroke-width:1px;marker:none;visibility:visible;display:inline;overflow:visible;enable-background:accumulate;font-family:Vegur;-inkscape-font-specification:Vegur"
       xml:space="preserve"><textPath
         id="textPath3904"
         xlink:href="#path3902"
         style="font-size:14px;font-style:normal;font-variant:normal;font-weight:300;font-stretch:normal;text-align:start;line-height:125%;letter-spacing:-0.465817;writing-mode:lr-tb;text-anchor:start;fill:#ffffff;fill-opacity:1;stroke:none;font-family:Roboto;-inkscape-font-specification:Roboto Light">      CONTINUOUS DEVELOPMENT</textPath></text>
    <text
       transform="translate(-118.03738,-75.663551)"
       xml:space="preserve"
       style="font-size:16.16161537px;font-style:normal;font-variant:normal;font-weight:normal;font-stretch:normal;line-height:125%;letter-spacing:0px;word-spacing:0px;color:#000000;fill:#ffffff;fill-opacity:1;fill-rule:evenodd;stroke:none;stroke-width:1px;marker:none;visibility:visible;display:inline;overflow:visible;enable-background:accumulate;font-family:Vegur;-inkscape-font-specification:Vegur"
       id="text3824"
       sodipodi:linespacing="125%"><textPath
         id="textPath3907"
         xlink:href="#path3900"
         style="font-size:18px;font-style:normal;font-variant:normal;font-weight:normal;font-stretch:normal;text-align:start;line-height:125%;letter-spacing:1.89715695;writing-mode:lr-tb;text-anchor:start;fill:#ffffff;fill-opacity:1;stroke:none;font-family:Roboto;-inkscape-font-specification:Roboto">COMMUNITY EFFORT</textPath></text>
    <text
       transform="translate(266.30407,-440.15932)"
       sodipodi:linespacing="125%"
       id="text3843"
       style="font-style:normal;font-variant:normal;font-weight:normal;font-stretch:normal;line-height:125%;letter-spacing:0px;word-spacing:0px;color:#000000;fill:#ffffff;fill-opacity:1;fill-rule:evenodd;stroke:none;stroke-width:1px;marker:none;visibility:visible;display:inline;overflow:visible;enable-background:accumulate;font-family:Vegur;-inkscape-font-specification:Vegur"
       xml:space="preserve"><textPath
         style="font-size:10px;font-style:normal;font-variant:normal;font-weight:500;font-stretch:normal;text-align:start;line-height:125%;letter-spacing:0.323378;writing-mode:lr-tb;text-anchor:start;fill:#ffffff;fill-opacity:1;stroke:none;font-family:Roboto;-inkscape-font-specification:Roboto Medium"
         id="textPath3958"
         xlink:href="#path3956">LIBREOFFICE, OPENOFFICE.ORG, CALLIGRA SUITE, WEBODF, ...</textPath></text>
    <text
       transform="translate(-4.542056,-7.6074766)"
       sodipodi:linespacing="125%"
       id="text3922"
       style="font-style:normal;font-variant:normal;font-weight:normal;font-stretch:normal;line-height:125%;letter-spacing:0px;word-spacing:0px;color:#000000;fill:#ffffff;fill-opacity:1;fill-rule:evenodd;stroke:none;stroke-width:1px;marker:none;visibility:visible;display:inline;overflow:visible;enable-background:accumulate;font-family:Vegur;-inkscape-font-specification:Vegur"
       xml:space="preserve"><textPath
         style="font-size:28px;font-style:normal;font-variant:normal;font-weight:500;font-stretch:normal;text-align:start;line-height:125%;letter-spacing:0.247026;writing-mode:lr-tb;text-anchor:start;fill:#ffffff;fill-opacity:1;stroke:none;font-family:Roboto;-inkscape-font-specification:Roboto Medium"
         id="textPath3937"
         xlink:href="#path3926">NEVERENDING SUPPORT</textPath></text>
    <path
       sodipodi:nodetypes="ccc"
       d="m 575.86608,622.89439 c 67.34661,-51.19598 82.89128,-128.97555 81.00094,-190.01469 -2.5035,-80.51137 7.6408,-98.03596 15.6979,-104.85516"
       id="path3926"
       style="fill:none;stroke:none"
       inkscape:connector-curvature="0" />
    <text
       transform="matrix(0.68084156,-0.73243073,0.73243073,0.68084156,0,0)"
       sodipodi:linespacing="100%"
       id="text3962"
       y="727.50146"
       x="-31.090025"
       style="font-size:12px;font-style:normal;font-variant:normal;font-weight:normal;font-stretch:normal;text-align:center;line-height:125%;letter-spacing:0px;word-spacing:0px;text-anchor:middle;color:#000000;fill:#000000;fill-opacity:1;fill-rule:evenodd;stroke:none;stroke-width:1px;marker:none;visibility:visible;display:inline;overflow:visible;enable-background:accumulate;font-family:Vegur;-inkscape-font-specification:Vegur"
       xml:space="preserve"><tspan
         style="font-size:39.99999992px;font-style:normal;font-variant:normal;font-weight:normal;font-stretch:normal;text-align:center;line-height:100%;writing-mode:lr;text-anchor:middle;fill:#000000;fill-opacity:1;stroke:none;font-family:Roboto;-inkscape-font-specification:Roboto"
         y="727.50146"
         x="-31.090025"
         sodipodi:role="line"
         id="tspan3063">DOCUMENT</tspan><tspan
         style="font-size:39.99999992px;font-style:normal;font-variant:normal;font-weight:normal;font-stretch:normal;text-align:center;line-height:100%;writing-mode:lr;text-anchor:middle;fill:#000000;fill-opacity:1;stroke:none;font-family:Roboto;-inkscape-font-specification:Roboto"
         y="767.50146"
         x="-31.090025"
         sodipodi:role="line"
         id="tspan3103">FREEDOM</tspan></text>
    <path
       sodipodi:nodetypes="csccsccc"
       d="m 325.20425,567.25381 c -13.73487,-18.18212 -39.26828,-46.64089 -62.31224,-61.19397 -37.35862,-23.5933 -81.69275,-30.78675 -81.69275,-30.78675 L 367.4381,270.54363 c 0,0 43.50201,18.44502 73.5713,41.44408 26.51709,20.28209 45.7584,52.36616 54.37925,82.47596 L 328.81642,572.1723 c 0,0 -2.33701,-3.22175 -3.61217,-4.91849 z"
       id="path3998"
       style="fill:none;stroke:none"
       inkscape:connector-curvature="0" />
    <flowRoot
       id="flowRoot4022"
       style="font-style:normal;font-variant:normal;font-weight:normal;font-stretch:normal;line-height:125%;letter-spacing:0px;word-spacing:0px;color:#000000;fill:#ffffff;fill-opacity:1;fill-rule:evenodd;stroke:none;stroke-width:1px;marker:none;visibility:visible;display:inline;overflow:visible;enable-background:accumulate;font-family:Vegur;-inkscape-font-specification:Vegur"
       xml:space="preserve"><flowRegion
         id="flowRegion4024"><use
           height="990"
           width="765"
           id="use4026"
           xlink:href="#path3998"
           y="0"
           x="0" /></flowRegion><flowPara
         style="font-size:13px;font-style:normal;font-variant:normal;font-weight:300;font-stretch:normal;text-align:start;line-height:121.00000381%;writing-mode:lr-tb;text-anchor:start;fill:#ffffff;fill-opacity:1;stroke:none;font-family:Roboto;-inkscape-font-specification:Roboto Light"
         id="flowPara4028">“Open Standards lie at the heart of the Internet and much of what has emerged to function on this global and growing platform. The essence of open standards is <flowSpan
   style="font-size:13px;font-style:normal;font-variant:normal;font-weight:500;font-stretch:normal;text-align:start;line-height:121.00000381%;writing-mode:lr-tb;text-anchor:start;font-family:Roboto;-inkscape-font-specification:Roboto Medium"
   id="flowSpan3099">INTEROPERABILITY</flowSpan>. Adoption of open standards leads to the interworking of competitive products. By any metric, open standards lower barriers to entry into existing markets and increase consumer choice.” -- Vint Cerf, Chief Internet Evangelist, Google</flowPara></flowRoot>    <text
       transform="matrix(0.97611891,-0.21723691,0.21723691,0.97611891,0,0)"
       sodipodi:linespacing="110%"
       id="text4036"
       y="704.59814"
       x="-36.837635"
       style="font-size:12px;font-style:normal;font-variant:normal;font-weight:normal;font-stretch:normal;line-height:110.00000238%;letter-spacing:0px;word-spacing:0px;color:#000000;fill:#ffffff;fill-opacity:1;fill-rule:evenodd;stroke:none;stroke-width:1px;marker:none;visibility:visible;display:inline;overflow:visible;enable-background:accumulate;font-family:Vegur;-inkscape-font-specification:Vegur"
       xml:space="preserve"><tspan
         style="font-size:11px;font-style:normal;font-variant:normal;font-weight:300;font-stretch:normal;text-align:start;line-height:110.00000238%;writing-mode:lr-tb;text-anchor:start;fill:#ffffff;fill-opacity:1;stroke:none;font-family:Roboto;-inkscape-font-specification:Roboto Light"
         y="704.59814"
         x="-36.837635"
         id="tspan4038"
         sodipodi:role="line">COME SUPPORT CHOICE AND PLATFORM</tspan><tspan
         style="font-size:11px;font-style:normal;font-variant:normal;font-weight:300;font-stretch:normal;text-align:start;line-height:110.00000238%;writing-mode:lr-tb;text-anchor:start;fill:#ffffff;fill-opacity:1;stroke:none;font-family:Roboto;-inkscape-font-specification:Roboto Light"
         id="tspan4043"
         y="716.69812"
         x="-36.837635"
         sodipodi:role="line">    INDEPENDENCE</tspan></text>
    <path
       sodipodi:nodetypes="czc"
       inkscape:connector-curvature="0"
       id="path4045"
       d="m 84.852814,686.40855 c 0,0 170.273426,-22.55125 220.617316,-47.37616 50.34388,-24.82491 84.85281,-72.83199 84.85281,-72.83199"
       style="color:#000000;fill:none;stroke:none;stroke-width:1px;marker:none;visibility:visible;display:inline;overflow:visible;enable-background:accumulate" />
    <path
       transform="matrix(0.88388349,0,0,0.88388349,72.253959,39.147561)"
       d="m 633.56768,297.03534 c 0,3.12419 -2.53266,5.65685 -5.65685,5.65685 -3.1242,0 -5.65686,-2.53266 -5.65686,-5.65685 0,-3.12419 2.53266,-5.65685 5.65686,-5.65685 3.12419,0 5.65685,2.53266 5.65685,5.65685 z"
       sodipodi:ry="5.6568542"
       sodipodi:rx="5.6568542"
       sodipodi:cy="297.03534"
       sodipodi:cx="627.91083"
       id="path3045"
       style="color:#000000;fill:#000000;fill-opacity:1;fill-rule:evenodd;stroke:none;stroke-width:1px;marker:none;visibility:visible;display:inline;overflow:visible;enable-background:accumulate"
       sodipodi:type="arc" />
  </g>
  <text
     sodipodi:linespacing="125%"
     id="text3113"
     y="895.73077"
     x="383.18439"
     style="font-style:normal;font-variant:normal;font-weight:normal;font-stretch:normal;text-align:center;line-height:125%;letter-spacing:0px;word-spacing:0px;text-anchor:middle;color:#000000;fill:#000000;fill-opacity:1;fill-rule:evenodd;stroke:none;stroke-width:1px;marker:none;visibility:visible;display:inline;overflow:visible;enable-background:accumulate;font-family:Vegur;-inkscape-font-specification:Vegur"
     xml:space="preserve"><tspan
       style="font-size:36px;font-style:normal;font-variant:normal;font-weight:300;font-stretch:normal;text-align:center;line-height:125%;writing-mode:lr-tb;text-anchor:middle;fill:#000000;fill-opacity:1;font-family:Roboto;-inkscape-font-specification:Roboto Light"
       y="895.73077"
       x="383.18439"
       id="tspan3115"
       sodipodi:role="line"><tspan
         style="fill:#ffffff"
         id="tspan3128">document</tspan><tspan
         style="-inkscape-font-specification:Roboto Medium;font-family:Roboto;font-weight:500;font-style:normal;font-stretch:normal;font-variant:normal;font-size:36px;text-anchor:middle;text-align:center;writing-mode:lr;line-height:125%"
         id="tspan3132">freedom</tspan><tspan
         style="fill:#ffffff"
         id="tspan3130">.org</tspan></tspan></text>
  <text
     xml:space="preserve"
     style="font-style:normal;font-variant:normal;font-weight:normal;font-stretch:normal;line-height:125%;letter-spacing:0px;word-spacing:0px;writing-mode:lr-tb;color:#000000;fill:#ffffff;fill-opacity:1;fill-rule:evenodd;stroke:none;stroke-width:1px;marker:none;visibility:visible;display:inline;overflow:visible;enable-background:accumulate;font-family:Vegur;-inkscape-font-specification:Vegur"
     id="text3043"
     sodipodi:linespacing="125%"><textPath
       xlink:href="#path3145"
       id="textPath4102"
       style="font-size:13px;font-style:normal;font-variant:normal;font-weight:500;font-stretch:normal;text-align:start;line-height:125%;letter-spacing:-0.199349;writing-mode:lr-tb;text-anchor:start;font-family:Roboto;-inkscape-font-specification:Roboto Medium"><tspan
   style="font-size:13px;font-style:normal;font-variant:normal;font-weight:500;font-stretch:normal;text-align:start;line-height:125%;letter-spacing:-0.199349;writing-mode:lr-tb;text-anchor:start;fill:#ffffff;fill-opacity:1;font-family:Roboto;-inkscape-font-specification:Roboto Medium"
   id="tspan3045"
   dx="6.0700002 -0.64999998 -2.2 -6.1700015 2.9499993">ONE FORMAT, MULITPLE CONTRIBUTORS, MULTIPLE IMPLEMENTATIONS</tspan></textPath></text>
  <path
     style="fill:none;stroke:none"
     d="m 384.2952,528.9988 c 0,0 143.09035,-148.15975 149.22797,-154.64552 6.13763,-6.48575 25.07727,-29.74746 34.27085,-62.84677 9.19358,-33.09931 21.45144,-46.70199 37.63557,-55.35975 16.18412,-8.65777 31.43663,-5.28851 42.37538,1.98962 10.93876,7.27812 14.89983,13.48539 14.89983,13.48539"
     id="path3145"
     inkscape:connector-curvature="0"
     sodipodi:nodetypes="cszzsc" />
</svg>
