<?xml version="1.0" encoding="UTF-8" standalone="no"?>
<!-- Created with Inkscape (http://www.inkscape.org/) -->

<svg
   xmlns:dc="http://purl.org/dc/elements/1.1/"
   xmlns:cc="http://creativecommons.org/ns#"
   xmlns:rdf="http://www.w3.org/1999/02/22-rdf-syntax-ns#"
   xmlns:svg="http://www.w3.org/2000/svg"
   xmlns="http://www.w3.org/2000/svg"
   xmlns:xlink="http://www.w3.org/1999/xlink"
   xmlns:sodipodi="http://sodipodi.sourceforge.net/DTD/sodipodi-0.dtd"
   xmlns:inkscape="http://www.inkscape.org/namespaces/inkscape"
   width="628.18103"
   height="116.96416"
   id="svg3346"
   version="1.1"
   inkscape:version="0.48.4 r9939"
   sodipodi:docname="dfd-logo-2013.svg">
  <defs
     id="defs3348">
    <linearGradient
       inkscape:collect="always"
       xlink:href="#linearGradient3696"
       id="linearGradient4192"
       gradientUnits="userSpaceOnUse"
       gradientTransform="matrix(1.2457191,0,0,1.2457191,152.15294,-1045.8374)"
       x1="357.92072"
       y1="589.32819"
       x2="357.92072"
       y2="657.38831" />
    <linearGradient
       id="linearGradient3696">
      <stop
         style="stop-color:#b6e235;stop-opacity:1;"
         offset="0"
         id="stop3698" />
      <stop
         style="stop-color:#36890a;stop-opacity:1;"
         offset="1"
         id="stop3700" />
    </linearGradient>
    <linearGradient
       inkscape:collect="always"
       xlink:href="#linearGradient3696"
       id="linearGradient3332"
       gradientUnits="userSpaceOnUse"
       gradientTransform="matrix(1.2457191,0,0,1.2457191,152.15294,-1045.8374)"
       x1="357.92072"
       y1="589.32819"
       x2="357.92072"
       y2="657.38831" />
    <linearGradient
       id="linearGradient3334">
      <stop
         style="stop-color:#b6e235;stop-opacity:1;"
         offset="0"
         id="stop3336" />
      <stop
         style="stop-color:#36890a;stop-opacity:1;"
         offset="1"
         id="stop3338" />
    </linearGradient>
    <linearGradient
       y2="657.38831"
       x2="357.92072"
       y1="589.32819"
       x1="357.92072"
       gradientTransform="matrix(1.2457191,0,0,1.2457191,-0.65425464,-207.89932)"
       gradientUnits="userSpaceOnUse"
       id="linearGradient3344"
       xlink:href="#linearGradient3696"
       inkscape:collect="always" />
  </defs>
  <sodipodi:namedview
     id="base"
     pagecolor="#ffffff"
     bordercolor="#666666"
     borderopacity="1.0"
     inkscape:pageopacity="0.0"
     inkscape:pageshadow="2"
     inkscape:zoom="1.4"
     inkscape:cx="339.56187"
     inkscape:cy="-12.683932"
     inkscape:document-units="px"
     inkscape:current-layer="layer1"
     showgrid="false"
     fit-margin-top="0"
     fit-margin-left="0"
     fit-margin-right="0"
     fit-margin-bottom="0"
     inkscape:window-width="1680"
     inkscape:window-height="998"
     inkscape:window-x="0"
     inkscape:window-y="0"
     inkscape:window-maximized="1" />
  <metadata
     id="metadata3351">
    <rdf:RDF>
      <cc:Work
         rdf:about="">
        <dc:format>image/svg+xml</dc:format>
        <dc:type
           rdf:resource="http://purl.org/dc/dcmitype/StillImage" />
        <dc:title></dc:title>
      </cc:Work>
    </rdf:RDF>
  </metadata>
  <g
     inkscape:label="Layer 1"
     inkscape:groupmode="layer"
     id="layer1"
     transform="translate(-60.909492,-476.63927)">
    <text
       xml:space="preserve"
       style="font-size:85.98732758px;font-style:normal;font-variant:normal;font-weight:bold;font-stretch:normal;text-align:start;line-height:100%;writing-mode:lr-tb;text-anchor:start;fill:url(#linearGradient3344);fill-opacity:1;stroke:#36890a;stroke-width:1.24571908;stroke-opacity:1;font-family:Yanone Kaffeesatz;-inkscape-font-specification:Yanone Kaffeesatz Bold"
       x="53.153198"
       y="590.12653"
       id="text3708-1"
       sodipodi:linespacing="100%"
       transform="scale(1.1040596,0.9057482)"
       inkscape:export-filename="/home/samtuke/fsfe/dfd/dfd-logo-2012.png"
       inkscape:export-xdpi="89.97406"
       inkscape:export-ydpi="89.97406"><tspan
         sodipodi:role="line"
         x="53.153198"
         y="590.12653"
         style="font-size:85.98732758px;font-style:normal;font-variant:normal;font-weight:bold;font-stretch:normal;text-align:start;line-height:100%;writing-mode:lr-tb;text-anchor:start;fill:url(#linearGradient3344);fill-opacity:1;stroke:#36890a;stroke-width:1.24571908;stroke-opacity:1;font-family:Yanone Kaffeesatz;-inkscape-font-specification:Yanone Kaffeesatz Bold"
         id="tspan3714-0">Document Freedom Day</tspan></text>
    <text
       xml:space="preserve"
       style="font-size:67.69554138px;font-style:normal;font-variant:normal;font-weight:bold;font-stretch:normal;text-align:start;line-height:100%;writing-mode:lr-tb;text-anchor:start;fill:#cbcbcb;fill-opacity:1;stroke:#5d5d5d;stroke-width:0.98072153;stroke-opacity:1;font-family:Yanone Kaffeesatz;-inkscape-font-specification:Yanone Kaffeesatz Bold"
       x="53.58194"
       y="648.06262"
       id="text3708-1-6"
       sodipodi:linespacing="100%"
       transform="scale(1.1040596,0.90574821)"
       inkscape:export-filename="/home/samtuke/fsfe/dfd/dfd-logo-2012.png"
       inkscape:export-xdpi="89.97406"
       inkscape:export-ydpi="89.97406"><tspan
         sodipodi:role="line"
         x="53.58194"
         y="648.06262"
         style="font-size:67.69554138px;font-style:normal;font-variant:normal;font-weight:bold;font-stretch:normal;text-align:start;line-height:100%;writing-mode:lr-tb;text-anchor:start;fill:#cbcbcb;fill-opacity:1;stroke:#5d5d5d;stroke-width:0.98072153;stroke-opacity:1;font-family:Yanone Kaffeesatz;-inkscape-font-specification:Yanone Kaffeesatz Bold"
         id="tspan3714-0-4">March 26th 2014</tspan></text>
  </g>
</svg>
