<?xml version="1.0" encoding="UTF-8" standalone="no"?>
<!-- Created with Inkscape (http://www.inkscape.org/) -->

<svg
   xmlns:dc="http://purl.org/dc/elements/1.1/"
   xmlns:cc="http://creativecommons.org/ns#"
   xmlns:rdf="http://www.w3.org/1999/02/22-rdf-syntax-ns#"
   xmlns:svg="http://www.w3.org/2000/svg"
   xmlns="http://www.w3.org/2000/svg"
   xmlns:xlink="http://www.w3.org/1999/xlink"
   xmlns:sodipodi="http://sodipodi.sourceforge.net/DTD/sodipodi-0.dtd"
   xmlns:inkscape="http://www.inkscape.org/namespaces/inkscape"
   width="728"
   height="90"
   id="svg5942"
   version="1.1"
   inkscape:version="0.48.3.1 r9886"
   sodipodi:docname="dfd2014-800x800.svg"
   inkscape:export-filename="/home/mim/Documents/fsfe/dfd2014/dfd2014-800x800.png"
   inkscape:export-xdpi="90"
   inkscape:export-ydpi="90">
  <defs
     id="defs5944">
    <linearGradient
       id="linearGradient6529">
      <stop
         id="stop6531"
         offset="0"
         style="stop-color:#b6e235;stop-opacity:1;" />
      <stop
         id="stop6533"
         offset="1"
         style="stop-color:#36890a;stop-opacity:1" />
    </linearGradient>
    <inkscape:perspective
       sodipodi:type="inkscape:persp3d"
       inkscape:vp_x="0 : 526.18109 : 1"
       inkscape:vp_y="0 : 1000 : 0"
       inkscape:vp_z="744.09448 : 526.18109 : 1"
       inkscape:persp3d-origin="372.04724 : 350.78739 : 1"
       id="perspective5950" />
    <inkscape:perspective
       id="perspective5960"
       inkscape:persp3d-origin="0.5 : 0.33333333 : 1"
       inkscape:vp_z="1 : 0.5 : 1"
       inkscape:vp_y="0 : 1000 : 0"
       inkscape:vp_x="0 : 0.5 : 1"
       sodipodi:type="inkscape:persp3d" />
    <linearGradient
       inkscape:collect="always"
       xlink:href="#linearGradient6529"
       id="linearGradient3777"
       gradientUnits="userSpaceOnUse"
       gradientTransform="matrix(0.96795146,0,0,0.96795143,234.44878,343.01893)"
       x1="357.92072"
       y1="589.32819"
       x2="354.89005"
       y2="988.33618" />
    <linearGradient
       id="linearGradient3696">
      <stop
         style="stop-color:#b6e235;stop-opacity:1;"
         offset="0"
         id="stop3698" />
      <stop
         style="stop-color:#36890a;stop-opacity:1;"
         offset="1"
         id="stop3700" />
    </linearGradient>
    <linearGradient
       inkscape:collect="always"
       xlink:href="#linearGradient3696"
       id="linearGradient5968"
       gradientUnits="userSpaceOnUse"
       gradientTransform="translate(6.4720239,-19.284364)"
       x1="357.92072"
       y1="589.32819"
       x2="357.92072"
       y2="657.38831" />
    <linearGradient
       id="linearGradient5970">
      <stop
         style="stop-color:#b6e235;stop-opacity:1;"
         offset="0"
         id="stop5972" />
      <stop
         style="stop-color:#36890a;stop-opacity:1;"
         offset="1"
         id="stop5974" />
    </linearGradient>
    <linearGradient
       inkscape:collect="always"
       xlink:href="#linearGradient3696-8"
       id="linearGradient3773"
       gradientUnits="userSpaceOnUse"
       gradientTransform="matrix(0.64186016,0,0,0.64186015,259.81394,258.39622)"
       x1="279.49557"
       y1="722.70312"
       x2="279.49557"
       y2="586.22162" />
    <linearGradient
       id="linearGradient3696-8">
      <stop
         style="stop-color:#000000;stop-opacity:1;"
         offset="0"
         id="stop3698-2" />
      <stop
         style="stop-color:#36890a;stop-opacity:1;"
         offset="1"
         id="stop3700-0" />
    </linearGradient>
    <linearGradient
       inkscape:collect="always"
       xlink:href="#linearGradient3696-8"
       id="linearGradient5980"
       gradientUnits="userSpaceOnUse"
       gradientTransform="matrix(0.64186016,0,0,0.64186015,259.81394,258.39622)"
       x1="279.49557"
       y1="722.70312"
       x2="279.49557"
       y2="586.22162" />
    <linearGradient
       id="linearGradient5982">
      <stop
         style="stop-color:#000000;stop-opacity:1;"
         offset="0"
         id="stop5984" />
      <stop
         style="stop-color:#36890a;stop-opacity:1;"
         offset="1"
         id="stop5986" />
    </linearGradient>
    <linearGradient
       y2="586.22162"
       x2="279.49557"
       y1="722.70312"
       x1="279.49557"
       gradientTransform="matrix(1.625485,0,0,1.6254849,18.939755,722.11733)"
       gradientUnits="userSpaceOnUse"
       id="linearGradient5993"
       xlink:href="#linearGradient3696-8"
       inkscape:collect="always" />
    <inkscape:perspective
       id="perspective6094"
       inkscape:persp3d-origin="0.5 : 0.33333333 : 1"
       inkscape:vp_z="1 : 0.5 : 1"
       inkscape:vp_y="0 : 1000 : 0"
       inkscape:vp_x="0 : 0.5 : 1"
       sodipodi:type="inkscape:persp3d" />
    <linearGradient
       id="linearGradient4364">
      <stop
         style="stop-color:#ffffff;stop-opacity:1;"
         offset="0"
         id="stop4366" />
      <stop
         style="stop-color:#42b30b;stop-opacity:0;"
         offset="1"
         id="stop4368" />
    </linearGradient>
    <filter
       id="filter3677"
       inkscape:label="Fuzzy Glow"
       inkscape:menu="Shadows and Glows"
       inkscape:menu-tooltip="Overlays a semi-transparent shifted copy to a blurred one"
       color-interpolation-filters="sRGB">
      <feOffset
         id="feOffset3679"
         dx="4"
         dy="4"
         result="result11"
         in="SourceGraphic" />
      <feGaussianBlur
         id="feGaussianBlur3681"
         stdDeviation="4"
         result="result8" />
      <feComposite
         id="feComposite3683"
         in2="result8"
         result="result9"
         in="SourceGraphic"
         operator="in" />
      <feBlend
         id="feBlend3685"
         in2="result8"
         in="result9"
         mode="darken" />
    </filter>
    <linearGradient
       id="linearGradient4352">
      <stop
         style="stop-color:#ffff4f;stop-opacity:0.82745099;"
         offset="0"
         id="stop4354" />
      <stop
         style="stop-color:#42b30b;stop-opacity:0;"
         offset="1"
         id="stop4356" />
    </linearGradient>
    <inkscape:perspective
       id="perspective6257"
       inkscape:persp3d-origin="0.5 : 0.33333333 : 1"
       inkscape:vp_z="1 : 0.5 : 1"
       inkscape:vp_y="0 : 1000 : 0"
       inkscape:vp_x="0 : 0.5 : 1"
       sodipodi:type="inkscape:persp3d" />
    <linearGradient
       id="linearGradient4352-6">
      <stop
         style="stop-color:#ffff4f;stop-opacity:0.82745099;"
         offset="0"
         id="stop4354-6" />
      <stop
         style="stop-color:#42b30b;stop-opacity:0;"
         offset="1"
         id="stop4356-7" />
    </linearGradient>
    <filter
       id="filter3677-2"
       inkscape:label="Fuzzy Glow"
       inkscape:menu="Shadows and Glows"
       inkscape:menu-tooltip="Overlays a semi-transparent shifted copy to a blurred one"
       color-interpolation-filters="sRGB">
      <feOffset
         id="feOffset3679-7"
         dx="4"
         dy="4"
         result="result11"
         in="SourceGraphic" />
      <feGaussianBlur
         id="feGaussianBlur3681-4"
         stdDeviation="4"
         result="result8" />
      <feComposite
         id="feComposite3683-1"
         in2="result8"
         result="result9"
         in="SourceGraphic"
         operator="in" />
      <feBlend
         id="feBlend3685-0"
         in2="result8"
         in="result9"
         mode="darken" />
    </filter>
    <linearGradient
       id="linearGradient4364-6">
      <stop
         style="stop-color:#ffffff;stop-opacity:1;"
         offset="0"
         id="stop4366-4" />
      <stop
         style="stop-color:#42b30b;stop-opacity:0;"
         offset="1"
         id="stop4368-4" />
    </linearGradient>
    <inkscape:perspective
       id="perspective6421"
       inkscape:persp3d-origin="0.5 : 0.33333333 : 1"
       inkscape:vp_z="1 : 0.5 : 1"
       inkscape:vp_y="0 : 1000 : 0"
       inkscape:vp_x="0 : 0.5 : 1"
       sodipodi:type="inkscape:persp3d" />
    <inkscape:perspective
       id="perspective6455"
       inkscape:persp3d-origin="0.5 : 0.33333333 : 1"
       inkscape:vp_z="1 : 0.5 : 1"
       inkscape:vp_y="0 : 1000 : 0"
       inkscape:vp_x="0 : 0.5 : 1"
       sodipodi:type="inkscape:persp3d" />
    <radialGradient
       inkscape:collect="always"
       xlink:href="#linearGradient4352-6-0"
       id="radialGradient6355-1"
       gradientUnits="userSpaceOnUse"
       gradientTransform="matrix(0.21881884,-0.29786409,0.27140068,0.31445673,-98.345913,895.67225)"
       cx="313.43893"
       cy="663.65607"
       fx="313.43893"
       fy="663.65607"
       r="132.9715" />
    <linearGradient
       id="linearGradient4352-6-0">
      <stop
         style="stop-color:#6cc41a;stop-opacity:1;"
         offset="0"
         id="stop4354-6-5" />
      <stop
         style="stop-color:#c6e83a;stop-opacity:1;"
         offset="1"
         id="stop4356-7-3" />
    </linearGradient>
    <linearGradient
       inkscape:collect="always"
       xlink:href="#linearGradient6529"
       id="linearGradient2912"
       gradientUnits="userSpaceOnUse"
       gradientTransform="matrix(0.29221816,0,0,0.29221815,59.586978,686.05405)"
       x1="357.92072"
       y1="589.32819"
       x2="354.89005"
       y2="988.33618" />
    <radialGradient
       inkscape:collect="always"
       xlink:href="#linearGradient4352"
       id="radialGradient3686"
       gradientUnits="userSpaceOnUse"
       gradientTransform="matrix(0.73237103,-0.99692987,0.9083587,1.0524642,-752.39138,615.20924)"
       cx="313.43893"
       cy="663.65607"
       fx="313.43893"
       fy="663.65607"
       r="132.9715" />
    <inkscape:perspective
       id="perspective3698"
       inkscape:persp3d-origin="0.5 : 0.33333333 : 1"
       inkscape:vp_z="1 : 0.5 : 1"
       inkscape:vp_y="0 : 1000 : 0"
       inkscape:vp_x="0 : 0.5 : 1"
       sodipodi:type="inkscape:persp3d" />
    <linearGradient
       inkscape:collect="always"
       xlink:href="#linearGradient6529"
       id="linearGradient3712"
       x1="436.28223"
       y1="762.14709"
       x2="426.39246"
       y2="879.44629"
       gradientUnits="userSpaceOnUse"
       gradientTransform="matrix(1.0380952,0,0,1.0405406,-3.0000001,176.4987)" />
    <inkscape:perspective
       id="perspective3722"
       inkscape:persp3d-origin="0.5 : 0.33333333 : 1"
       inkscape:vp_z="1 : 0.5 : 1"
       inkscape:vp_y="0 : 1000 : 0"
       inkscape:vp_x="0 : 0.5 : 1"
       sodipodi:type="inkscape:persp3d" />
    <inkscape:perspective
       id="perspective3753"
       inkscape:persp3d-origin="0.5 : 0.33333333 : 1"
       inkscape:vp_z="1 : 0.5 : 1"
       inkscape:vp_y="0 : 1000 : 0"
       inkscape:vp_x="0 : 0.5 : 1"
       sodipodi:type="inkscape:persp3d" />
    <inkscape:perspective
       id="perspective3804"
       inkscape:persp3d-origin="0.5 : 0.33333333 : 1"
       inkscape:vp_z="1 : 0.5 : 1"
       inkscape:vp_y="0 : 1000 : 0"
       inkscape:vp_x="0 : 0.5 : 1"
       sodipodi:type="inkscape:persp3d" />
    <inkscape:perspective
       id="perspective2907"
       inkscape:persp3d-origin="0.5 : 0.33333333 : 1"
       inkscape:vp_z="1 : 0.5 : 1"
       inkscape:vp_y="0 : 1000 : 0"
       inkscape:vp_x="0 : 0.5 : 1"
       sodipodi:type="inkscape:persp3d" />
    <inkscape:perspective
       id="perspective2904"
       inkscape:persp3d-origin="0.5 : 0.33333333 : 1"
       inkscape:vp_z="1 : 0.5 : 1"
       inkscape:vp_y="0 : 1000 : 0"
       inkscape:vp_x="0 : 0.5 : 1"
       sodipodi:type="inkscape:persp3d" />
    <inkscape:perspective
       id="perspective2929"
       inkscape:persp3d-origin="0.5 : 0.33333333 : 1"
       inkscape:vp_z="1 : 0.5 : 1"
       inkscape:vp_y="0 : 1000 : 0"
       inkscape:vp_x="0 : 0.5 : 1"
       sodipodi:type="inkscape:persp3d" />
    <inkscape:perspective
       id="perspective2924"
       inkscape:persp3d-origin="0.5 : 0.33333333 : 1"
       inkscape:vp_z="1 : 0.5 : 1"
       inkscape:vp_y="0 : 1000 : 0"
       inkscape:vp_x="0 : 0.5 : 1"
       sodipodi:type="inkscape:persp3d" />
    <filter
       inkscape:collect="always"
       id="filter3754"
       x="-0.02211245"
       width="1.0442249"
       y="-0.16098654"
       height="1.3219731"
       color-interpolation-filters="sRGB">
      <feGaussianBlur
         inkscape:collect="always"
         stdDeviation="1.7429477"
         id="feGaussianBlur3756" />
    </filter>
    <inkscape:perspective
       id="perspective3748"
       inkscape:persp3d-origin="0.5 : 0.33333333 : 1"
       inkscape:vp_z="1 : 0.5 : 1"
       inkscape:vp_y="0 : 1000 : 0"
       inkscape:vp_x="0 : 0.5 : 1"
       sodipodi:type="inkscape:persp3d" />
    <filter
       inkscape:collect="always"
       id="filter3785"
       color-interpolation-filters="sRGB">
      <feGaussianBlur
         inkscape:collect="always"
         stdDeviation="2.9747937"
         id="feGaussianBlur3787" />
    </filter>
    <inkscape:perspective
       id="perspective4490"
       inkscape:persp3d-origin="0.5 : 0.33333333 : 1"
       inkscape:vp_z="1 : 0.5 : 1"
       inkscape:vp_y="0 : 1000 : 0"
       inkscape:vp_x="0 : 0.5 : 1"
       sodipodi:type="inkscape:persp3d" />
    <inkscape:perspective
       id="perspective4490-4"
       inkscape:persp3d-origin="0.5 : 0.33333333 : 1"
       inkscape:vp_z="1 : 0.5 : 1"
       inkscape:vp_y="0 : 1000 : 0"
       inkscape:vp_x="0 : 0.5 : 1"
       sodipodi:type="inkscape:persp3d" />
    <inkscape:perspective
       id="perspective4536"
       inkscape:persp3d-origin="0.5 : 0.33333333 : 1"
       inkscape:vp_z="1 : 0.5 : 1"
       inkscape:vp_y="0 : 1000 : 0"
       inkscape:vp_x="0 : 0.5 : 1"
       sodipodi:type="inkscape:persp3d" />
    <inkscape:perspective
       id="perspective4558"
       inkscape:persp3d-origin="0.5 : 0.33333333 : 1"
       inkscape:vp_z="1 : 0.5 : 1"
       inkscape:vp_y="0 : 1000 : 0"
       inkscape:vp_x="0 : 0.5 : 1"
       sodipodi:type="inkscape:persp3d" />
    <filter
       inkscape:collect="always"
       id="filter4607"
       color-interpolation-filters="sRGB">
      <feGaussianBlur
         inkscape:collect="always"
         stdDeviation="4.2961991"
         id="feGaussianBlur4609" />
    </filter>
  </defs>
  <sodipodi:namedview
     id="base"
     pagecolor="#ffffff"
     bordercolor="#666666"
     borderopacity="1.0"
     inkscape:pageopacity="0.0"
     inkscape:pageshadow="2"
     inkscape:zoom="1.0961538"
     inkscape:cx="364"
     inkscape:cy="45"
     inkscape:document-units="mm"
     inkscape:current-layer="layer1"
     showgrid="false"
     inkscape:window-width="1280"
     inkscape:window-height="772"
     inkscape:window-x="0"
     inkscape:window-y="0"
     inkscape:window-maximized="1"
     units="px" />
  <metadata
     id="metadata5947">
    <rdf:RDF>
      <cc:Work
         rdf:about="">
        <dc:format>image/svg+xml</dc:format>
        <dc:type
           rdf:resource="http://purl.org/dc/dcmitype/StillImage" />
        <dc:title></dc:title>
      </cc:Work>
    </rdf:RDF>
  </metadata>
  <g
     inkscape:label="Livello 1"
     inkscape:groupmode="layer"
     id="layer1"
     transform="translate(0,-962.36214)">
    <rect
       style="fill:url(#linearGradient3712);fill-opacity:1;stroke:none;opacity:1"
       id="rect4302-5-3-2"
       width="734"
       height="96"
       x="-3"
       y="959.36212" />
    <text
       xml:space="preserve"
       style="font-size:20.17072487px;font-style:normal;font-variant:normal;font-weight:bold;font-stretch:normal;text-align:center;line-height:110.00000238%;writing-mode:lr-tb;text-anchor:middle;fill:#5eab17;fill-opacity:1;stroke:none;filter:url(#filter3754);font-family:Yanone Kaffeesatz;-inkscape-font-specification:Yanone Kaffeesatz Bold"
       x="26.528658"
       y="791.55292"
       id="text3708-1-2"
       sodipodi:linespacing="110%"
       transform="matrix(1.4387474,0,0,1.1803193,123.5729,69.379283)"><tspan
         sodipodi:role="line"
         x="26.528658"
         y="791.55292"
         style="font-size:28px;font-style:normal;font-variant:normal;font-weight:bold;font-stretch:normal;text-align:start;line-height:110.00000238%;writing-mode:lr-tb;text-anchor:start;fill:#5eab17;fill-opacity:1;stroke:none;font-family:Yanone Kaffeesatz;-inkscape-font-specification:Yanone Kaffeesatz Bold"
         id="tspan2904">Document Freedom Day</tspan></text>
    <text
       xml:space="preserve"
       style="font-size:83.47421265px;font-style:normal;font-weight:normal;fill:#ffffff;fill-opacity:1;stroke:none;font-family:Bitstream Vera Sans"
       x="626.98566"
       y="1032.2253"
       id="text3792"><tspan
         sodipodi:role="line"
         id="tspan3794"
         x="627.63214"
         y="1032.2253"
         style="font-size:20px;font-style:normal;font-variant:normal;font-weight:300;font-stretch:normal;text-align:center;line-height:125%;letter-spacing:1.2929697;writing-mode:lr-tb;text-anchor:middle;fill:#ffffff;fill-opacity:1;font-family:Yanone Kaffeesatz;-inkscape-font-specification:Yanone Kaffeesatz Light">document<tspan
   style="font-size:20px;font-style:normal;font-variant:normal;font-weight:bold;font-stretch:normal;text-align:center;line-height:125%;writing-mode:lr-tb;text-anchor:middle;fill:#ffffff;font-family:Yanone Kaffeesatz;-inkscape-font-specification:Yanone Kaffeesatz Bold"
   id="tspan3902">freedom</tspan>.org</tspan></text>
    <g
       id="g3890"
       transform="matrix(0.22007412,0,0,0.22007412,14.56763,872.15871)">
      <g
         style="opacity:0.5;filter:url(#filter4607)"
         transform="matrix(1.5353986,0,0,1.5353986,53.950732,-635.82329)"
         id="g4572">
        <path
           sodipodi:type="arc"
           style="color:#000000;fill:none;stroke:#36890a;stroke-width:11.71597385;stroke-linecap:round;stroke-linejoin:round;stroke-miterlimit:4;stroke-opacity:1;stroke-dasharray:none;stroke-dashoffset:0;marker:none;visibility:visible;display:inline;overflow:visible;enable-background:accumulate"
           id="path4480"
           sodipodi:cx="81.5"
           sodipodi:cy="303.63385"
           sodipodi:rx="156.5"
           sodipodi:ry="156.5"
           d="m 238,303.63385 c 0,86.43256 -70.06744,156.5 -156.5,156.5 -86.4325633,0 -156.5,-70.06744 -156.5,-156.5 0,-86.43256 70.0674367,-156.5 156.5,-156.5 86.43256,0 156.5,70.06744 156.5,156.5 z"
           transform="matrix(0.90730153,0,0,0.90730153,60.700586,667.30776)" />
        <path
           sodipodi:type="arc"
           style="color:#000000;fill:none;stroke:#36890a;stroke-width:14.29032707;stroke-linecap:round;stroke-linejoin:round;stroke-miterlimit:4;stroke-opacity:1;stroke-dasharray:none;stroke-dashoffset:0;marker:none;visibility:visible;display:inline;overflow:visible;enable-background:accumulate"
           id="path4480-6"
           sodipodi:cx="81.5"
           sodipodi:cy="303.63385"
           sodipodi:rx="156.5"
           sodipodi:ry="156.5"
           d="m 238,303.63385 c 0,86.43256 -70.06744,156.5 -156.5,156.5 -86.4325633,0 -156.5,-70.06744 -156.5,-156.5 0,-86.43256 70.0674367,-156.5 156.5,-156.5 86.43256,0 156.5,70.06744 156.5,156.5 z"
           transform="matrix(0.60614316,0,0,0.91285243,85.244993,667.62232)" />
        <path
           sodipodi:type="arc"
           style="color:#000000;fill:none;stroke:#36890a;stroke-width:23.5950985;stroke-linecap:round;stroke-linejoin:round;stroke-miterlimit:4;stroke-opacity:1;stroke-dasharray:none;stroke-dashoffset:0;marker:none;visibility:visible;display:inline;overflow:visible;enable-background:accumulate"
           id="path4480-3"
           sodipodi:cx="81.5"
           sodipodi:cy="303.63385"
           sodipodi:rx="156.5"
           sodipodi:ry="156.5"
           d="m 238,303.63385 c 0,86.43256 -70.06744,156.5 -156.5,156.5 -86.4325633,0 -156.5,-70.06744 -156.5,-156.5 0,-86.43256 70.0674367,-156.5 156.5,-156.5 86.43256,0 156.5,70.06744 156.5,156.5 z"
           transform="matrix(0.21993874,0,0,0.92281522,116.72065,664.59728)" />
        <path
           inkscape:connector-curvature="0"
           style="fill:#36890a;fill-opacity:1;stroke:#36890a;stroke-width:10.62992096;stroke-linecap:butt;stroke-linejoin:miter;stroke-miterlimit:4;stroke-opacity:1;stroke-dasharray:none"
           d="m -6,942.79522 281,0"
           id="path4513"
           sodipodi:nodetypes="cc" />
        <path
           inkscape:connector-curvature="0"
           style="fill:#36890a;fill-opacity:1;stroke:#36890a;stroke-width:10.10674572;stroke-linecap:butt;stroke-linejoin:miter;stroke-miterlimit:4;stroke-opacity:1;stroke-dasharray:none"
           d="m 7.4897,888.79522 254.0206,0"
           id="path4513-9"
           sodipodi:nodetypes="cc" />
        <path
           inkscape:connector-curvature="0"
           style="fill:#36890a;fill-opacity:1;stroke:#36890a;stroke-width:8.48082256;stroke-linecap:butt;stroke-linejoin:miter;stroke-miterlimit:4;stroke-opacity:1;stroke-dasharray:none"
           d="m 45.068149,836.79522 178.863701,0"
           id="path4513-9-3"
           sodipodi:nodetypes="cc" />
      </g>
      <g
         transform="matrix(2.0868553,0,0,2.0868553,-27.403068,-1169.3581)"
         id="g3789">
        <path
           inkscape:connector-curvature="0"
           id="path4190"
           style="fill:#599117;fill-opacity:1;stroke:#599117;stroke-width:1.99070072;stroke-linecap:round;stroke-linejoin:round;stroke-miterlimit:4;stroke-opacity:1;stroke-dasharray:none;filter:url(#filter3785)"
           d="m 126.97744,909.42425 c 0,0 -1.88167,2.06241 -1.88167,2.06241 -3.35129,-9.87991 -9.57018,-16.53647 -17.56063,-20.62402 0,0 28.86844,-22.41568 28.86844,-22.41568 -7.73675,13.03671 -9.4611,31.85781 -9.42614,40.97729 z m 17.47772,-18.4973 c 0,0 -6.46371,0.93643 -10.03005,11.40527 -3.05286,8.9536 -5.72351,12.28754 -8.21823,15.04267 0,0 -35.55739,37.01604 -35.55739,37.01604 0,0 -6.10394,5.66032 -13.4662,7.75092 -10.10814,2.8725 -30.1236,6.11389 -36.34037,6.85624 -6.21564,0.74464 -1.97711,4.33019 4.65869,8.28236 6.63556,3.95215 7.62491,5.90625 20.87663,-1.25458 13.25127,-7.16204 25.9417,-0.58672 53.10323,-8.38953 27.16091,-7.80282 32.68007,-29.54266 32.18479,-45.5071 -0.49532,-15.96559 1.51399,-19.43939 3.11185,-20.79216 1.59783,-1.35162 7.57393,-3.20528 7.57393,-3.20528 0,0 -7.0037,-2.27791 -7.0037,-2.27791 0,0 -0.84842,-1.26583 -3.79435,-3.5381 -2.94671,-2.27111 -7.09883,-1.38884 -7.09883,-1.38884 z M 87.53625,949.00927 C 75.28978,932.79326 57.02184,927.31683 36.74621,930.72182 c 0,0 34.9584,-39.5715 34.9584,-39.5715 20.34276,-3.18948 43.2677,1.79162 49.527,23.66124 0,0 -32.97837,35.17363 -32.97837,35.17363 0,0 -0.46259,-0.6318 -0.71755,-0.98152 z"
           inkscape:export-filename="/home/ivan/Desktop/wiki.png"
           inkscape:export-xdpi="72.031548"
           inkscape:export-ydpi="72.031548"
           transform="matrix(1.2459507,0,0,1.2459507,16.015824,-302.28807)" />
        <path
           inkscape:connector-curvature="0"
           id="path4190-8"
           style="fill:#ffffff;fill-opacity:1"
           d="m 174.22345,830.8097 c 0,0 -2.34447,2.56966 -2.34447,2.56966 -4.17554,-12.30988 -11.92397,-20.60363 -21.87967,-25.69651 0,0 35.96865,-27.92883 35.96865,-27.92883 -9.63961,16.24309 -11.78807,39.69326 -11.74451,51.05568 z m 21.77638,-23.04673 c 0,0 -8.05346,1.16675 -12.49695,14.21041 -3.80371,11.15574 -7.13121,15.30967 -10.23951,18.74242 0,0 -44.30275,46.12016 -44.30275,46.12016 0,0 -7.60521,7.05248 -16.77822,9.65727 -12.59425,3.57899 -37.53252,7.6176 -45.27831,8.54254 -7.74438,0.92778 -2.46338,5.3952 5.8045,10.31941 8.26758,4.92418 9.50026,7.35889 26.01125,-1.56315 16.51043,-8.92355 32.32208,-0.73102 66.164,-10.45294 33.84116,-9.72193 40.71776,-36.8087 40.10067,-56.6996 -0.61715,-19.89234 1.88635,-24.22052 3.87721,-25.90601 1.99081,-1.68405 9.43674,-3.99362 9.43674,-3.99362 0,0 -8.72626,-2.83816 -8.72626,-2.83816 0,0 -1.05709,-1.57716 -4.72758,-4.4083 -3.67145,-2.82969 -8.84479,-1.73043 -8.84479,-1.73043 z m -70.91815,72.36771 c -15.2585,-20.20435 -38.01945,-27.02771 -63.28189,-22.78526 0,0 43.55644,-49.30414 43.55644,-49.30414 25.34608,-3.97393 53.90942,2.23227 61.7082,29.48074 0,0 -41.08942,43.82461 -41.08942,43.82461 0,0 -0.57637,-0.78719 -0.89403,-1.22293 z"
           inkscape:export-filename="/home/ivan/Desktop/wiki.png"
           inkscape:export-xdpi="72.031548"
           inkscape:export-ydpi="72.031548" />
      </g>
    </g>
    <g
       id="g2960"
       transform="matrix(1.3031429,0,0,1.3031429,-209.05356,-150.76479)">
      <g
         id="g3769"
         transform="translate(7.6008265,-4)">
        <text
           xml:space="preserve"
           style="font-size:27.20152092px;font-style:normal;font-variant:normal;font-weight:bold;font-stretch:normal;text-align:start;line-height:100%;writing-mode:lr-tb;text-anchor:start;fill:#000000;fill-opacity:1;stroke:none;font-family:Yanone Kaffeesatz;-inkscape-font-specification:Yanone Kaffeesatz Bold"
           x="280.71423"
           y="1007.4242"
           id="text3708-1-6"
           sodipodi:linespacing="100%"
           transform="scale(1.1040596,0.9057482)"><tspan
             id="tspan2914"
             sodipodi:role="line"
             x="280.71423"
             y="1007.4242"
             style="font-size:22px;font-style:normal;font-variant:normal;font-weight:normal;font-stretch:normal;text-align:center;line-height:100%;writing-mode:lr-tb;text-anchor:middle;fill:#000000;fill-opacity:1;stroke:none;font-family:Yanone Kaffeesatz;-inkscape-font-specification:Yanone Kaffeesatz">March 26</tspan></text>
        <text
           xml:space="preserve"
           style="font-size:27.20152092px;font-style:normal;font-variant:normal;font-weight:bold;font-stretch:normal;text-align:start;line-height:100%;writing-mode:lr-tb;text-anchor:start;fill:#000000;fill-opacity:1;stroke:none;font-family:Yanone Kaffeesatz;-inkscape-font-specification:Yanone Kaffeesatz Bold"
           x="316.32812"
           y="1000.2056"
           id="text3708-1-6-6-8"
           sodipodi:linespacing="100%"
           transform="scale(1.1040596,0.9057482)"><tspan
             id="tspan6527-5-7"
             sodipodi:role="line"
             x="316.32812"
             y="1000.2056"
             style="font-size:12px;font-style:normal;font-variant:normal;font-weight:normal;font-stretch:normal;text-align:center;line-height:100%;writing-mode:lr-tb;text-anchor:middle;fill:#000000;fill-opacity:1;stroke:none;font-family:Yanone Kaffeesatz;-inkscape-font-specification:Yanone Kaffeesatz">th</tspan></text>
        <text
           transform="scale(1.1040596,0.9057482)"
           sodipodi:linespacing="100%"
           id="text3708-1-6-8"
           y="1007.4241"
           x="344.11661"
           style="font-size:27.20152092px;font-style:normal;font-variant:normal;font-weight:bold;font-stretch:normal;text-align:start;line-height:100%;writing-mode:lr-tb;text-anchor:start;fill:#000000;fill-opacity:1;stroke:none;font-family:Yanone Kaffeesatz;-inkscape-font-specification:Yanone Kaffeesatz Bold"
           xml:space="preserve"><tspan
             style="font-size:22px;font-style:normal;font-variant:normal;font-weight:normal;font-stretch:normal;text-align:center;line-height:100%;writing-mode:lr-tb;text-anchor:middle;fill:#000000;fill-opacity:1;stroke:none;font-family:Yanone Kaffeesatz;-inkscape-font-specification:Yanone Kaffeesatz"
             y="1007.4241"
             x="344.11661"
             sodipodi:role="line"
             id="tspan2914-2">2014</tspan></text>
      </g>
    </g>
    <text
       xml:space="preserve"
       style="font-size:26.28533554px;font-style:normal;font-variant:normal;font-weight:bold;font-stretch:normal;text-align:center;line-height:110.00000238%;writing-mode:lr-tb;text-anchor:middle;fill:#ffffff;fill-opacity:1;stroke:none;font-family:Yanone Kaffeesatz;-inkscape-font-specification:Yanone Kaffeesatz Bold"
       x="146.49661"
       y="1108.1055"
       id="text3708-1-2-9"
       sodipodi:linespacing="110%"
       transform="scale(1.1040596,0.9057482)"><tspan
         sodipodi:role="line"
         x="146.49661"
         y="1108.1055"
         style="font-size:36.48799896px;font-style:normal;font-variant:normal;font-weight:bold;font-stretch:normal;text-align:start;line-height:110.00000238%;writing-mode:lr-tb;text-anchor:start;fill:#ffffff;fill-opacity:1;stroke:none;font-family:Yanone Kaffeesatz;-inkscape-font-specification:Yanone Kaffeesatz Bold"
         id="tspan2904-3">Document Freedom Day</tspan></text>
    <text
       xml:space="preserve"
       style="font-size:35.4474678px;font-style:normal;font-variant:normal;font-weight:bold;font-stretch:normal;text-align:start;line-height:100%;writing-mode:lr-tb;text-anchor:start;fill:#000000;fill-opacity:1;stroke:none;font-family:Yanone Kaffeesatz;-inkscape-font-specification:Yanone Kaffeesatz Bold"
       x="640.24994"
       y="1107.4875"
       id="text3708-1-6-7"
       sodipodi:linespacing="100%"
       transform="scale(1.1040596,0.9057482)"><tspan
         id="tspan2914-6"
         sodipodi:role="line"
         x="640.24994"
         y="1107.4875"
         style="font-size:20px;font-style:normal;font-variant:normal;font-weight:300;font-stretch:normal;text-align:end;line-height:100%;writing-mode:lr-tb;text-anchor:end;fill:#000000;fill-opacity:1;stroke:none;font-family:Yanone Kaffeesatz;-inkscape-font-specification:Yanone Kaffeesatz Light">Celebrating open standards</tspan></text>
  </g>
</svg>
