<?xml version="1.0" encoding="UTF-8" standalone="no"?>
<!-- Created with Inkscape (http://www.inkscape.org/) -->

<svg
   xmlns:dc="http://purl.org/dc/elements/1.1/"
   xmlns:cc="http://creativecommons.org/ns#"
   xmlns:rdf="http://www.w3.org/1999/02/22-rdf-syntax-ns#"
   xmlns:svg="http://www.w3.org/2000/svg"
   xmlns="http://www.w3.org/2000/svg"
   xmlns:xlink="http://www.w3.org/1999/xlink"
   xmlns:sodipodi="http://sodipodi.sourceforge.net/DTD/sodipodi-0.dtd"
   xmlns:inkscape="http://www.inkscape.org/namespaces/inkscape"
   width="160"
   height="300"
   id="svg5942"
   version="1.1"
   inkscape:version="0.48.0 r9654"
   sodipodi:docname="banner-160x300-dfd2011.svg"
   inkscape:export-filename="/home/deneb/eventi/dfd2011/svg-2011/banner-160x300-dfd2011.png"
   inkscape:export-xdpi="90"
   inkscape:export-ydpi="90">
  <defs
     id="defs5944">
    <linearGradient
       id="linearGradient6529">
      <stop
         id="stop6531"
         offset="0"
         style="stop-color:#b6e235;stop-opacity:1;" />
      <stop
         id="stop6533"
         offset="1"
         style="stop-color:#36890a;stop-opacity:1" />
    </linearGradient>
    <inkscape:perspective
       sodipodi:type="inkscape:persp3d"
       inkscape:vp_x="0 : 526.18109 : 1"
       inkscape:vp_y="0 : 1000 : 0"
       inkscape:vp_z="744.09448 : 526.18109 : 1"
       inkscape:persp3d-origin="372.04724 : 350.78739 : 1"
       id="perspective5950" />
    <inkscape:perspective
       id="perspective5960"
       inkscape:persp3d-origin="0.5 : 0.33333333 : 1"
       inkscape:vp_z="1 : 0.5 : 1"
       inkscape:vp_y="0 : 1000 : 0"
       inkscape:vp_x="0 : 0.5 : 1"
       sodipodi:type="inkscape:persp3d" />
    <linearGradient
       inkscape:collect="always"
       xlink:href="#linearGradient6529"
       id="linearGradient3777"
       gradientUnits="userSpaceOnUse"
       gradientTransform="matrix(0.96795146,0,0,0.96795143,234.44878,343.01893)"
       x1="357.92072"
       y1="589.32819"
       x2="354.89005"
       y2="988.33618" />
    <linearGradient
       id="linearGradient3696">
      <stop
         style="stop-color:#b6e235;stop-opacity:1;"
         offset="0"
         id="stop3698" />
      <stop
         style="stop-color:#36890a;stop-opacity:1;"
         offset="1"
         id="stop3700" />
    </linearGradient>
    <linearGradient
       inkscape:collect="always"
       xlink:href="#linearGradient3696"
       id="linearGradient5968"
       gradientUnits="userSpaceOnUse"
       gradientTransform="translate(6.4720239,-19.284364)"
       x1="357.92072"
       y1="589.32819"
       x2="357.92072"
       y2="657.38831" />
    <linearGradient
       id="linearGradient5970">
      <stop
         style="stop-color:#b6e235;stop-opacity:1;"
         offset="0"
         id="stop5972" />
      <stop
         style="stop-color:#36890a;stop-opacity:1;"
         offset="1"
         id="stop5974" />
    </linearGradient>
    <linearGradient
       inkscape:collect="always"
       xlink:href="#linearGradient3696-8"
       id="linearGradient3773"
       gradientUnits="userSpaceOnUse"
       gradientTransform="matrix(0.64186016,0,0,0.64186015,259.81394,258.39622)"
       x1="279.49557"
       y1="722.70312"
       x2="279.49557"
       y2="586.22162" />
    <linearGradient
       id="linearGradient3696-8">
      <stop
         style="stop-color:#000000;stop-opacity:1;"
         offset="0"
         id="stop3698-2" />
      <stop
         style="stop-color:#36890a;stop-opacity:1;"
         offset="1"
         id="stop3700-0" />
    </linearGradient>
    <linearGradient
       inkscape:collect="always"
       xlink:href="#linearGradient3696-8"
       id="linearGradient5980"
       gradientUnits="userSpaceOnUse"
       gradientTransform="matrix(0.64186016,0,0,0.64186015,259.81394,258.39622)"
       x1="279.49557"
       y1="722.70312"
       x2="279.49557"
       y2="586.22162" />
    <linearGradient
       id="linearGradient5982">
      <stop
         style="stop-color:#000000;stop-opacity:1;"
         offset="0"
         id="stop5984" />
      <stop
         style="stop-color:#36890a;stop-opacity:1;"
         offset="1"
         id="stop5986" />
    </linearGradient>
    <linearGradient
       y2="586.22162"
       x2="279.49557"
       y1="722.70312"
       x1="279.49557"
       gradientTransform="matrix(1.625485,0,0,1.6254849,18.939755,722.11733)"
       gradientUnits="userSpaceOnUse"
       id="linearGradient5993"
       xlink:href="#linearGradient3696-8"
       inkscape:collect="always" />
    <inkscape:perspective
       id="perspective6094"
       inkscape:persp3d-origin="0.5 : 0.33333333 : 1"
       inkscape:vp_z="1 : 0.5 : 1"
       inkscape:vp_y="0 : 1000 : 0"
       inkscape:vp_x="0 : 0.5 : 1"
       sodipodi:type="inkscape:persp3d" />
    <linearGradient
       id="linearGradient4364">
      <stop
         style="stop-color:#ffffff;stop-opacity:1;"
         offset="0"
         id="stop4366" />
      <stop
         style="stop-color:#42b30b;stop-opacity:0;"
         offset="1"
         id="stop4368" />
    </linearGradient>
    <filter
       id="filter3677"
       inkscape:label="Fuzzy Glow"
       inkscape:menu="Shadows and Glows"
       inkscape:menu-tooltip="Overlays a semi-transparent shifted copy to a blurred one"
       color-interpolation-filters="sRGB">
      <feOffset
         id="feOffset3679"
         dx="4"
         dy="4"
         result="result11"
         in="SourceGraphic" />
      <feGaussianBlur
         id="feGaussianBlur3681"
         stdDeviation="4"
         result="result8" />
      <feComposite
         id="feComposite3683"
         in2="result8"
         result="result9"
         in="SourceGraphic"
         operator="in" />
      <feBlend
         id="feBlend3685"
         in2="result8"
         in="result9"
         mode="darken" />
    </filter>
    <linearGradient
       id="linearGradient4352">
      <stop
         style="stop-color:#ffff4f;stop-opacity:0.82745099;"
         offset="0"
         id="stop4354" />
      <stop
         style="stop-color:#42b30b;stop-opacity:0;"
         offset="1"
         id="stop4356" />
    </linearGradient>
    <radialGradient
       inkscape:collect="always"
       xlink:href="#linearGradient4352"
       id="radialGradient6190"
       gradientUnits="userSpaceOnUse"
       gradientTransform="matrix(0.30052449,-0.40908478,0.37274008,0.43187301,-181.38873,891.38439)"
       cx="313.43893"
       cy="663.65607"
       fx="313.43893"
       fy="663.65607"
       r="132.9715" />
    <linearGradient
       inkscape:collect="always"
       xlink:href="#linearGradient4364"
       id="linearGradient6192"
       gradientUnits="userSpaceOnUse"
       gradientTransform="matrix(0.11373156,0,0,0.11084188,123.61615,966.31747)"
       x1="248.9016"
       y1="319.79956"
       x2="287.28848"
       y2="526.40344" />
    <inkscape:perspective
       id="perspective6257"
       inkscape:persp3d-origin="0.5 : 0.33333333 : 1"
       inkscape:vp_z="1 : 0.5 : 1"
       inkscape:vp_y="0 : 1000 : 0"
       inkscape:vp_x="0 : 0.5 : 1"
       sodipodi:type="inkscape:persp3d" />
    <linearGradient
       id="linearGradient4352-6">
      <stop
         style="stop-color:#ffff4f;stop-opacity:0.82745099;"
         offset="0"
         id="stop4354-6" />
      <stop
         style="stop-color:#42b30b;stop-opacity:0;"
         offset="1"
         id="stop4356-7" />
    </linearGradient>
    <filter
       id="filter3677-2"
       inkscape:label="Fuzzy Glow"
       inkscape:menu="Shadows and Glows"
       inkscape:menu-tooltip="Overlays a semi-transparent shifted copy to a blurred one"
       color-interpolation-filters="sRGB">
      <feOffset
         id="feOffset3679-7"
         dx="4"
         dy="4"
         result="result11"
         in="SourceGraphic" />
      <feGaussianBlur
         id="feGaussianBlur3681-4"
         stdDeviation="4"
         result="result8" />
      <feComposite
         id="feComposite3683-1"
         in2="result8"
         result="result9"
         in="SourceGraphic"
         operator="in" />
      <feBlend
         id="feBlend3685-0"
         in2="result8"
         in="result9"
         mode="darken" />
    </filter>
    <linearGradient
       id="linearGradient4364-6">
      <stop
         style="stop-color:#ffffff;stop-opacity:1;"
         offset="0"
         id="stop4366-4" />
      <stop
         style="stop-color:#42b30b;stop-opacity:0;"
         offset="1"
         id="stop4368-4" />
    </linearGradient>
    <inkscape:perspective
       id="perspective6421"
       inkscape:persp3d-origin="0.5 : 0.33333333 : 1"
       inkscape:vp_z="1 : 0.5 : 1"
       inkscape:vp_y="0 : 1000 : 0"
       inkscape:vp_x="0 : 0.5 : 1"
       sodipodi:type="inkscape:persp3d" />
    <inkscape:perspective
       id="perspective6455"
       inkscape:persp3d-origin="0.5 : 0.33333333 : 1"
       inkscape:vp_z="1 : 0.5 : 1"
       inkscape:vp_y="0 : 1000 : 0"
       inkscape:vp_x="0 : 0.5 : 1"
       sodipodi:type="inkscape:persp3d" />
    <radialGradient
       inkscape:collect="always"
       xlink:href="#linearGradient4352-6-0"
       id="radialGradient6355-1"
       gradientUnits="userSpaceOnUse"
       gradientTransform="matrix(0.21881884,-0.29786409,0.27140068,0.31445673,-98.345913,895.67225)"
       cx="313.43893"
       cy="663.65607"
       fx="313.43893"
       fy="663.65607"
       r="132.9715" />
    <linearGradient
       id="linearGradient4352-6-0">
      <stop
         style="stop-color:#ffff4f;stop-opacity:0.82745099;"
         offset="0"
         id="stop4354-6-5" />
      <stop
         style="stop-color:#42b30b;stop-opacity:0;"
         offset="1"
         id="stop4356-7-3" />
    </linearGradient>
    <radialGradient
       r="132.9715"
       fy="663.65607"
       fx="313.43893"
       cy="663.65607"
       cx="313.43893"
       gradientTransform="matrix(1.639866,-3.579473,2.0339233,3.778869,-1783.0298,-285.20575)"
       gradientUnits="userSpaceOnUse"
       id="radialGradient6464"
       xlink:href="#linearGradient4352-6-0"
       inkscape:collect="always" />
  </defs>
  <sodipodi:namedview
     id="base"
     pagecolor="#ffffff"
     bordercolor="#666666"
     borderopacity="1.0"
     inkscape:pageopacity="0.0"
     inkscape:pageshadow="2"
     inkscape:zoom="0.98994949"
     inkscape:cx="88.329635"
     inkscape:cy="148.26376"
     inkscape:document-units="px"
     inkscape:current-layer="g3779"
     showgrid="false"
     inkscape:window-width="1024"
     inkscape:window-height="527"
     inkscape:window-x="0"
     inkscape:window-y="24"
     inkscape:window-maximized="1" />
  <metadata
     id="metadata5947">
    <rdf:RDF>
      <cc:Work
         rdf:about="">
        <dc:format>image/svg+xml</dc:format>
        <dc:type
           rdf:resource="http://purl.org/dc/dcmitype/StillImage" />
        <dc:title></dc:title>
      </cc:Work>
    </rdf:RDF>
  </metadata>
  <g
     inkscape:label="Livello 1"
     inkscape:groupmode="layer"
     id="layer1"
     transform="translate(0,-752.36218)">
    <rect
       style="fill:#ffffff;fill-opacity:1;fill-rule:evenodd;stroke:none"
       id="rect3773"
       width="159.6041"
       height="297.995"
       x="0.8680172"
       y="753.31641" />
    <rect
       style="fill:url(#radialGradient6464);fill-opacity:1;stroke:#000000;stroke-width:2.29291487;stroke-miterlimit:4;stroke-opacity:0.40528636;stroke-dasharray:none"
       id="rect4302-5-3-2"
       width="159.03923"
       height="297.73892"
       x="1.2739292"
       y="753.61121" />
    <g
       transform="matrix(0.3018934,0,0,0.3018934,-12.356149,527.59733)"
       id="g3779"
       inkscape:export-xdpi="117.06"
       inkscape:export-ydpi="117.06"
       inkscape:export-filename="/home/stian/Dokument/DFD/2010-big.png">
      <text
         transform="scale(1.1040596,0.9057482)"
         sodipodi:linespacing="100%"
         id="text3708-1"
         y="963.1026"
         x="276.25842"
         style="font-size:66.81406403px;font-style:normal;font-variant:normal;font-weight:bold;font-stretch:normal;text-align:center;line-height:100%;writing-mode:lr-tb;text-anchor:middle;fill:url(#linearGradient3777);fill-opacity:1;stroke:#36890a;stroke-width:0.96795142;stroke-opacity:1;font-family:Yanone Kaffeesatz;-inkscape-font-specification:Yanone Kaffeesatz Bold"
         xml:space="preserve"><tspan
           id="tspan3714-0"
           style="font-size:153.90090942px;font-style:normal;font-variant:normal;font-weight:bold;font-stretch:normal;text-align:center;line-height:100%;writing-mode:lr-tb;text-anchor:middle;fill:url(#linearGradient3777);fill-opacity:1;stroke:#36890a;stroke-width:0.96795142;stroke-opacity:1;font-family:Yanone Kaffeesatz;-inkscape-font-specification:Yanone Kaffeesatz Bold"
           y="963.1026"
           x="276.25842"
           sodipodi:role="line">Document</tspan><tspan
           style="font-size:153.90090942px;font-style:normal;font-variant:normal;font-weight:bold;font-stretch:normal;text-align:center;line-height:100%;writing-mode:lr-tb;text-anchor:middle;fill:url(#linearGradient3777);fill-opacity:1;stroke:#36890a;stroke-width:0.96795142;stroke-opacity:1;font-family:Yanone Kaffeesatz;-inkscape-font-specification:Yanone Kaffeesatz Bold"
           y="1117.0035"
           x="287.07959"
           sodipodi:role="line"
           id="tspan6082">Freedom </tspan><tspan
           style="font-size:153.90090942px;font-style:normal;font-variant:normal;font-weight:bold;font-stretch:normal;text-align:center;line-height:100%;writing-mode:lr-tb;text-anchor:middle;fill:url(#linearGradient3777);fill-opacity:1;stroke:#36890a;stroke-width:0.96795142;stroke-opacity:1;font-family:Yanone Kaffeesatz;-inkscape-font-specification:Yanone Kaffeesatz Bold"
           y="1270.9044"
           x="276.25842"
           sodipodi:role="line"
           id="tspan6084">Day '11</tspan></text>
      <text
         transform="scale(1.1040596,0.9057482)"
         sodipodi:linespacing="100%"
         id="text3708-1-6"
         y="1763.4265"
         x="89.150566"
         style="font-size:112.20114899px;font-style:normal;font-variant:normal;font-weight:bold;font-stretch:normal;text-align:start;line-height:100%;writing-mode:lr-tb;text-anchor:start;fill:url(#linearGradient5993);fill-opacity:1;stroke:#36890a;stroke-width:1.62548494;stroke-opacity:1;font-family:Yanone Kaffeesatz;-inkscape-font-specification:Yanone Kaffeesatz Bold"
         xml:space="preserve"><tspan
           id="tspan3714-0-4"
           style="font-size:112.20114899px;font-style:italic;font-variant:normal;font-weight:bold;font-stretch:normal;text-align:start;line-height:100%;writing-mode:lr-tb;text-anchor:start;fill:url(#linearGradient5993);fill-opacity:1;stroke:#36890a;stroke-width:1.62548494;stroke-opacity:1;font-family:Yanone Kaffeesatz;-inkscape-font-specification:Yanone Kaffeesatz Bold Italic"
           y="1763.4265"
           x="89.150566"
           sodipodi:role="line" /><tspan
           style="font-size:112.20114899px;font-style:italic;font-variant:normal;font-weight:bold;font-stretch:normal;text-align:start;line-height:100%;writing-mode:lr-tb;text-anchor:start;fill:url(#linearGradient5993);fill-opacity:1;stroke:#36890a;stroke-width:1.62548494;stroke-opacity:1;font-family:Yanone Kaffeesatz;-inkscape-font-specification:Yanone Kaffeesatz Bold Italic"
           y="1875.6277"
           x="89.150566"
           sodipodi:role="line"
           id="tspan6527">March 30th</tspan></text>
    </g>
    <g
       id="g6177"
       transform="matrix(2.4369762,0,0,2.4369762,-310.35136,-1557.0733)">
      <rect
         y="1009.5586"
         x="145.05725"
         height="35.124313"
         width="30.24264"
         id="rect4302"
         style="fill:#42b30b;fill-opacity:1;stroke:#000000;stroke-width:0.34342489;stroke-miterlimit:4;stroke-opacity:1;stroke-dasharray:none" />
      <rect
         y="1010.1071"
         x="145.60567"
         height="34.027485"
         width="29.14579"
         id="rect4302-5"
         style="fill:url(#radialGradient6190);fill-opacity:1;stroke:#000000;stroke-width:0.33183396;stroke-miterlimit:4;stroke-opacity:0.40528636;stroke-dasharray:none" />
      <text
         transform="matrix(0.11581472,0,0,0.09454697,126.4177,973.71973)"
         sodipodi:linespacing="125%"
         id="text2864"
         y="721.34418"
         x="181.00058"
         style="font-size:189.40989685px;font-style:italic;font-variant:normal;font-weight:bold;font-stretch:normal;text-align:start;line-height:125%;writing-mode:lr-tb;text-anchor:start;fill:#000000;fill-opacity:1;stroke:#ffffff;stroke-width:2;stroke-miterlimit:4;stroke-opacity:1;stroke-dasharray:none;filter:url(#filter3677);font-family:Yanone Kaffeesatz;-inkscape-font-specification:Yanone Kaffeesatz Bold Italic"
         xml:space="preserve"><tspan
           style="font-size:189.40989685px;font-style:italic;font-variant:normal;font-weight:bold;font-stretch:normal;text-align:start;line-height:125%;writing-mode:lr-tb;text-anchor:start;fill:#000000;fill-opacity:1;stroke:#ffffff;stroke-width:2;stroke-miterlimit:4;stroke-opacity:1;stroke-dasharray:none;font-family:Yanone Kaffeesatz;-inkscape-font-specification:Yanone Kaffeesatz Bold Italic"
           y="721.34418"
           x="181.00058"
           id="tspan2866"
           sodipodi:role="line">DFD</tspan></text>
      <path
         sodipodi:nodetypes="ccscc"
         id="path4362"
         d="m 146.29469,1022.7697 c 0,-5.0519 0.16085,-7.7685 0.16085,-12.07 8.54534,0 20.53386,0 26.37787,0 5.9009,0 -12.20996,3.2667 -16.72743,5.1729 -5.89434,0.4736 -7.38501,0.8001 -9.81129,6.8971 z"
         style="fill:url(#linearGradient6192);fill-opacity:1;stroke:none" />
      <path
         inkscape:export-ydpi="72.031548"
         inkscape:export-xdpi="72.031548"
         inkscape:export-filename="/home/ivan/Desktop/wiki.png"
         d="m 170.10984,1017.389 c 0,0 -0.16678,0.1828 -0.16678,0.1828 -0.29704,-0.8757 -0.84825,-1.4657 -1.55648,-1.828 0,0 2.55874,-1.9868 2.55874,-1.9868 -0.68574,1.1555 -0.83858,2.8237 -0.83548,3.632 z m 1.54913,-1.6395 c 0,0 -0.57291,0.083 -0.88901,1.0109 -0.27059,0.7936 -0.5073,1.0891 -0.72842,1.3333 0,0 -3.15161,3.2809 -3.15161,3.2809 0,0 -0.54102,0.5017 -1.19357,0.687 -0.89593,0.2546 -2.66999,0.5419 -3.22101,0.6077 -0.55092,0.066 -0.17524,0.3838 0.41292,0.7341 0.58814,0.3503 0.67583,0.5235 1.85039,-0.1112 1.17452,-0.6348 2.29933,-0.052 4.70678,-0.7436 2.40739,-0.6916 2.89658,-2.6185 2.85268,-4.0335 -0.0439,-1.4151 0.13419,-1.723 0.27582,-1.8429 0.14162,-0.1198 0.67131,-0.2841 0.67131,-0.2841 0,0 -0.62077,-0.2019 -0.62077,-0.2019 0,0 -0.0752,-0.1122 -0.33631,-0.3136 -0.26118,-0.2013 -0.6292,-0.1231 -0.6292,-0.1231 z m -5.04498,5.1481 c -1.08546,-1.4373 -2.70463,-1.9227 -4.50175,-1.6209 0,0 3.09852,-3.5074 3.09852,-3.5074 1.80307,-0.2827 3.83501,0.1588 4.3898,2.0972 0,0 -2.92302,3.1176 -2.92302,3.1176 0,0 -0.041,-0.056 -0.0636,-0.087 z"
         style="fill:#ffffff;fill-opacity:1"
         id="path4190" />
      <path
         inkscape:export-ydpi="72.031548"
         inkscape:export-xdpi="72.031548"
         inkscape:export-filename="/home/ivan/Desktop/wiki.png"
         d="m 159.06048,1022.4505 c 0,0 -0.13141,0.144 -0.13141,0.144 -0.23405,-0.69 -0.66839,-1.1549 -1.22643,-1.4404 0,0 2.01618,-1.5656 2.01618,-1.5656 -0.54034,0.9106 -0.66078,2.2251 -0.65834,2.862 z m 1.22066,-1.2919 c 0,0 -0.45143,0.065 -0.70051,0.7964 -0.21321,0.6255 -0.39973,0.8583 -0.57396,1.0507 0,0 -2.48335,2.5852 -2.48335,2.5852 0,0 -0.42629,0.3953 -0.94048,0.5413 -0.70595,0.2007 -2.10383,0.4271 -2.53802,0.4789 -0.4341,0.052 -0.13808,0.3025 0.32538,0.5785 0.46341,0.276 0.53252,0.4125 1.45802,-0.088 0.92548,-0.5003 1.81177,-0.041 3.70875,-0.586 1.89693,-0.545 2.28239,-2.0632 2.24779,-3.1782 -0.0346,-1.1151 0.10574,-1.3577 0.21733,-1.4522 0.1116,-0.094 0.52897,-0.2239 0.52897,-0.2239 0,0 -0.48914,-0.159 -0.48914,-0.159 0,0 -0.0592,-0.088 -0.26499,-0.2471 -0.2058,-0.1586 -0.49579,-0.097 -0.49579,-0.097 z m -3.97523,4.0565 c -0.8553,-1.1325 -2.13115,-1.5151 -3.5472,-1.2773 0,0 2.44151,-2.7636 2.44151,-2.7636 1.42074,-0.2228 3.02183,0.125 3.45898,1.6525 0,0 -2.30322,2.4566 -2.30322,2.4566 0,0 -0.0323,-0.045 -0.05,-0.069 z"
         style="fill:#ffffff;fill-opacity:1"
         id="path4190-1" />
      <path
         inkscape:export-ydpi="72.031548"
         inkscape:export-xdpi="72.031548"
         inkscape:export-filename="/home/ivan/Desktop/wiki.png"
         d="m 160.33813,1015.3296 c 0,0 -0.11963,0.131 -0.11963,0.131 -0.21306,-0.628 -0.60844,-1.0512 -1.11642,-1.3111 0,0 1.83532,-1.4251 1.83532,-1.4251 -0.49186,0.8289 -0.6015,2.0254 -0.59927,2.6052 z m 1.11115,-1.1761 c 0,0 -0.41093,0.06 -0.63767,0.7251 -0.19409,0.5693 -0.36387,0.7812 -0.52247,0.9564 0,0 -2.26058,2.3533 -2.26058,2.3533 0,0 -0.38807,0.3598 -0.85612,0.4928 -0.64263,0.1826 -1.91513,0.3887 -2.31037,0.436 -0.39516,0.047 -0.12569,0.2752 0.29619,0.5265 0.42185,0.2512 0.48475,0.3754 1.32724,-0.08 0.84246,-0.4552 1.64925,-0.037 3.37606,-0.5334 1.72678,-0.496 2.07766,-1.8781 2.04617,-2.893 -0.0315,-1.0151 0.0963,-1.2359 0.19784,-1.3219 0.10158,-0.086 0.48151,-0.2038 0.48151,-0.2038 0,0 -0.44527,-0.1448 -0.44527,-0.1448 0,0 -0.0539,-0.081 -0.24121,-0.2249 -0.18734,-0.1444 -0.45132,-0.088 -0.45132,-0.088 z m -3.61864,3.6928 c -0.77858,-1.031 -1.93997,-1.3792 -3.22902,-1.1628 0,0 2.2225,-2.5157 2.2225,-2.5157 1.29331,-0.2028 2.75077,0.1138 3.14871,1.5043 0,0 -2.09661,2.2362 -2.09661,2.2362 0,0 -0.0295,-0.041 -0.0455,-0.062 z"
         style="fill:#ffffff;fill-opacity:1"
         id="path4190-3" />
      <path
         inkscape:export-ydpi="72.031548"
         inkscape:export-xdpi="72.031548"
         inkscape:export-filename="/home/ivan/Desktop/wiki.png"
         d="m 151.46627,1018.3329 c 0,0 -0.0959,0.1051 -0.0959,0.1051 -0.17079,-0.5036 -0.48774,-0.8427 -0.89496,-1.0511 0,0 1.47126,-1.1424 1.47126,-1.1424 -0.3943,0.6644 -0.48218,1.6236 -0.4804,2.0884 z m 0.89074,-0.9428 c 0,0 -0.32943,0.048 -0.51118,0.5813 -0.15558,0.4564 -0.2917,0.6262 -0.41883,0.7667 0,0 -1.81217,1.8864 -1.81217,1.8864 0,0 -0.31108,0.2885 -0.68629,0.3951 -0.51515,0.1464 -1.53523,0.3116 -1.85206,0.3494 -0.31678,0.038 -0.10077,0.2207 0.23742,0.4221 0.33818,0.2015 0.3886,0.301 1.06397,-0.064 0.67534,-0.365 1.3221,-0.03 2.70638,-0.4276 1.38423,-0.3977 1.66552,-1.5056 1.64027,-2.3193 -0.0252,-0.8136 0.0772,-0.9907 0.15859,-1.0597 0.0814,-0.069 0.386,-0.1633 0.386,-0.1633 0,0 -0.35694,-0.1161 -0.35694,-0.1161 0,0 -0.0433,-0.065 -0.19337,-0.1803 -0.15018,-0.1157 -0.36179,-0.071 -0.36179,-0.071 z m -2.90083,2.9603 c -0.62414,-0.8266 -1.55515,-1.1057 -2.58849,-0.9322 0,0 1.78163,-2.0167 1.78163,-2.0167 1.03676,-0.1624 2.20511,0.091 2.52412,1.2059 0,0 -1.68072,1.7926 -1.68072,1.7926 0,0 -0.0237,-0.032 -0.0366,-0.05 z"
         style="fill:#ffffff;fill-opacity:1"
         id="path4190-3-4" />
      <text
         transform="scale(1.1067717,0.9035287)"
         sodipodi:linespacing="125%"
         id="text2864-5"
         y="1153.1682"
         x="133.16226"
         style="font-size:19.82021332px;font-style:italic;font-variant:normal;font-weight:bold;font-stretch:normal;text-align:start;line-height:125%;writing-mode:lr-tb;text-anchor:start;fill:#ffffff;fill-opacity:1;stroke:none;font-family:Yanone Kaffeesatz;-inkscape-font-specification:Yanone Kaffeesatz Bold Italic"
         xml:space="preserve"><tspan
           style="font-size:19.82021332px;font-style:italic;font-variant:normal;font-weight:bold;font-stretch:normal;text-align:start;line-height:125%;writing-mode:lr-tb;text-anchor:start;fill:#ffffff;fill-opacity:1;stroke:none;font-family:Yanone Kaffeesatz;-inkscape-font-specification:Yanone Kaffeesatz Bold Italic"
           y="1153.1682"
           x="133.16226"
           id="tspan2866-5"
           sodipodi:role="line">DFD</tspan></text>
    </g>
  </g>
</svg>
