<?xml version="1.0" encoding="UTF-8" standalone="no"?>
<!-- Created with Inkscape (http://www.inkscape.org/) -->

<svg
   xmlns:dc="http://purl.org/dc/elements/1.1/"
   xmlns:cc="http://creativecommons.org/ns#"
   xmlns:rdf="http://www.w3.org/1999/02/22-rdf-syntax-ns#"
   xmlns:svg="http://www.w3.org/2000/svg"
   xmlns="http://www.w3.org/2000/svg"
   xmlns:sodipodi="http://sodipodi.sourceforge.net/DTD/sodipodi-0.dtd"
   xmlns:inkscape="http://www.inkscape.org/namespaces/inkscape"
   width="318.89764"
   height="177.16534"
   id="svg4801"
   sodipodi:version="0.32"
   inkscape:version="0.48.0 r9654"
   version="1.0"
   sodipodi:docname="DFD11_sticker_bw.svg"
   inkscape:output_extension="org.inkscape.output.svg.inkscape"
   inkscape:export-filename="/home/deneb/eventi/dfd2011/svg-2011/DFD11_sticker_bw.png"
   inkscape:export-xdpi="72.031548"
   inkscape:export-ydpi="72.031548">
  <defs
     id="defs4803">
    <inkscape:perspective
       sodipodi:type="inkscape:persp3d"
       inkscape:vp_x="0 : 88.582672 : 1"
       inkscape:vp_y="0 : 1000 : 0"
       inkscape:vp_z="318.89764 : 88.582672 : 1"
       inkscape:persp3d-origin="159.44882 : 59.055115 : 1"
       id="perspective24" />
    <inkscape:perspective
       id="perspective2942"
       inkscape:persp3d-origin="0.5 : 0.33333333 : 1"
       inkscape:vp_z="1 : 0.5 : 1"
       inkscape:vp_y="0 : 1000 : 0"
       inkscape:vp_x="0 : 0.5 : 1"
       sodipodi:type="inkscape:persp3d" />
  </defs>
  <sodipodi:namedview
     id="base"
     pagecolor="#ffffff"
     bordercolor="#666666"
     borderopacity="1.0"
     gridtolerance="10000"
     guidetolerance="10"
     objecttolerance="10"
     inkscape:pageopacity="1"
     inkscape:pageshadow="2"
     inkscape:zoom="1.1300436"
     inkscape:cx="149.01634"
     inkscape:cy="108.72952"
     inkscape:document-units="px"
     inkscape:current-layer="layer1"
     width="90.000004mm"
     height="50mm"
     units="mm"
     inkscape:window-width="1024"
     inkscape:window-height="527"
     inkscape:window-x="0"
     inkscape:window-y="24"
     showguides="true"
     inkscape:guide-bbox="true"
     showgrid="false"
     inkscape:window-maximized="1" />
  <metadata
     id="metadata4806">
    <rdf:RDF>
      <cc:Work
         rdf:about="">
        <dc:format>image/svg+xml</dc:format>
        <dc:type
           rdf:resource="http://purl.org/dc/dcmitype/StillImage" />
        <dc:title></dc:title>
      </cc:Work>
    </rdf:RDF>
  </metadata>
  <g
     inkscape:label="Layer 1"
     inkscape:groupmode="layer"
     id="layer1">
    <text
       xml:space="preserve"
       style="font-size:27.92658614999999855px;font-style:normal;font-weight:normal;fill:#000000;fill-opacity:1;stroke:none;stroke-width:1px;stroke-linecap:butt;stroke-linejoin:miter;stroke-opacity:1;font-family:Bitstream Vera Sans"
       x="40.346073"
       y="165.40016"
       id="text5799"><tspan
         sodipodi:role="line"
         id="tspan5801"
         x="40.346073"
         y="165.40016"
         style="font-weight:normal;font-family:Yanone Kaffeesatz;fill:#000000">www.documentfreedom.org</tspan></text>
    <text
       xml:space="preserve"
       style="font-size:29.50200652999999917px;font-style:normal;font-weight:normal;fill:#000000;fill-opacity:1;stroke:none;stroke-width:1px;stroke-linecap:butt;stroke-linejoin:miter;stroke-opacity:1;font-family:Bitstream Vera Sans"
       x="44.004246"
       y="29.737358"
       id="text2527"><tspan
         sodipodi:role="line"
         id="tspan2529"
         x="44.004246"
         y="29.737358"
         style="fill:#000000;fill-opacity:1;font-family:Yanone Kaffeesatz">Liberate your documents!</tspan></text>
    <g
       id="g3811"
       transform="matrix(0.26241357,0,0,0.26241357,-55.55991,-54.232694)">
      <rect
         y="385.7944"
         x="682.92822"
         height="316.88666"
         width="272.84488"
         id="rect4302-7"
         style="fill:#000000;fill-opacity:1;stroke:#000000;stroke-width:3.09833145;stroke-miterlimit:4;stroke-opacity:1;stroke-dasharray:none" />
      <rect
         y="390.74219"
         x="687.87604"
         height="306.99124"
         width="262.94925"
         id="rect4302-5-3"
         style="fill:#000000;fill-opacity:1;stroke:#ffffff;stroke-width:2.99375963;stroke-miterlimit:4;stroke-opacity:1;stroke-dasharray:none" />
      <path
         inkscape:export-ydpi="72.031548"
         inkscape:export-xdpi="72.031548"
         inkscape:export-filename="/home/ivan/Desktop/wiki.png"
         d="m 908.94922,456.43904 c 0,0 -1.5047,1.64926 -1.5047,1.64926 -2.67979,-7.9003 -7.65278,-13.22321 -14.04229,-16.49157 0,0 23.08459,-17.92524 23.08459,-17.92524 -6.18663,10.42546 -7.56556,25.47536 -7.5376,32.76755 z m 13.97597,-14.79149 c 0,0 -5.16867,0.75168 -8.02052,9.11984 -2.44119,7.16087 -4.57681,9.82633 -6.57167,12.02908 0,0 -28.43344,29.60004 -28.43344,29.60004 0,0 -4.88091,4.52572 -10.76815,6.19818 -8.08294,2.29708 -24.08828,4.88912 -29.05954,5.48291 -4.97036,0.59427 -1.58101,3.46298 3.72539,6.62279 5.30597,3.1603 6.09717,4.72286 16.69395,-1.00346 10.59635,-5.72682 20.74413,-0.46896 42.4639,-6.70907 21.71917,-6.23962 26.13258,-23.62284 25.7364,-36.38925 -0.39617,-12.76712 1.21073,-15.54502 2.48842,-16.62667 1.27771,-1.0811 6.05647,-2.56327 6.05647,-2.56327 0,0 -5.60053,-1.8211 -5.60053,-1.8211 0,0 -0.67811,-1.01286 -3.03401,-2.82922 -2.35635,-1.81631 -5.67667,-1.1108 -5.67667,-1.1108 z m -45.515,46.44633 c -9.79293,-12.96781 -24.40085,-17.34721 -40.61425,-14.62484 0,0 27.95445,-31.64263 27.95445,-31.64263 16.26705,-2.55012 34.5989,1.43228 39.60419,18.92118 0,0 -26.3711,28.12613 -26.3711,28.12613 0,0 -0.37044,-0.51138 -0.57329,-0.77984 z"
         style="fill:#ffffff;fill-opacity:1"
         id="path4190-4" />
      <path
         inkscape:export-ydpi="72.031548"
         inkscape:export-xdpi="72.031548"
         inkscape:export-filename="/home/ivan/Desktop/wiki.png"
         d="m 809.2635,502.1027 c 0,0 -1.18565,1.29955 -1.18565,1.29955 -2.11156,-6.22511 -6.03007,-10.41934 -11.06474,-12.99467 0,0 18.1897,-14.12435 18.1897,-14.12435 -4.87481,8.21483 -5.96135,20.07353 -5.93931,25.81947 z m 11.01248,-11.65508 c 0,0 -4.0727,0.59229 -6.31984,7.18606 -1.92355,5.64246 -3.60633,7.74274 -5.1782,9.47841 0,0 -22.40437,23.32361 -22.40437,23.32361 0,0 -3.84596,3.56608 -8.48486,4.8839 -6.36902,1.81001 -18.98056,3.85243 -22.89771,4.32031 -3.91644,0.46826 -1.24577,2.72869 2.93545,5.21848 4.18089,2.49019 4.80432,3.72142 13.15414,-0.79068 8.34949,-4.5125 16.34552,-0.36952 33.45979,-5.28647 17.11381,-4.91656 20.59139,-18.61382 20.27922,-28.67322 -0.31216,-10.05996 0.95401,-12.24883 1.96077,-13.10113 1.00679,-0.85186 4.77225,-2.01975 4.77225,-2.01975 0,0 -4.41299,-1.43495 -4.41299,-1.43495 0,0 -0.53432,-0.79809 -2.39067,-2.22931 -1.85671,-1.43117 -4.47298,-0.87526 -4.47298,-0.87526 z m -35.86393,36.59778 c -7.71643,-10.21809 -19.22686,-13.66888 -32.00235,-11.52377 0,0 22.02695,-24.93308 22.02695,-24.93308 12.81776,-2.00938 27.2625,1.12858 31.20646,14.90911 0,0 -20.77933,22.16222 -20.77933,22.16222 0,0 -0.2919,-0.40294 -0.45173,-0.61448 z"
         style="fill:#ffffff;fill-opacity:1"
         id="path4190-1-9" />
      <path
         inkscape:export-ydpi="72.031548"
         inkscape:export-xdpi="72.031548"
         inkscape:export-filename="/home/ivan/Desktop/wiki.png"
         d="m 820.79019,437.859 c 0,0 -1.07929,1.18297 -1.07929,1.18297 -1.92216,-5.66671 -5.48917,-9.48471 -10.07223,-11.82904 0,0 16.55807,-12.85738 16.55807,-12.85738 -4.43753,7.47796 -5.42661,18.27292 -5.40655,23.50345 z m 10.02465,-10.60961 c 0,0 -3.70737,0.53916 -5.75294,6.54146 -1.75101,5.13633 -3.28285,7.04821 -4.71371,8.62819 0,0 -20.39469,21.23146 -20.39469,21.23146 0,0 -3.50097,3.2462 -7.72375,4.44582 -5.79772,1.64764 -17.278,3.50686 -20.84377,3.93277 -3.56513,0.42626 -1.13403,2.48392 2.67214,4.75038 3.80585,2.26682 4.37336,3.38761 11.9742,-0.71976 7.60053,-4.10772 14.87931,-0.33637 30.45842,-4.81227 15.57869,-4.47554 18.74433,-16.94414 18.46016,-26.10121 -0.28417,-9.15757 0.86843,-11.1501 1.78489,-11.92594 0.91647,-0.77545 4.34417,-1.83858 4.34417,-1.83858 0,0 -4.01714,-1.30623 -4.01714,-1.30623 0,0 -0.48639,-0.72651 -2.17623,-2.02934 -1.69015,-1.3028 -4.07175,-0.79675 -4.07175,-0.79675 z m -32.64691,33.31493 c -7.02425,-9.30153 -17.50219,-12.44277 -29.13171,-10.49008 0,0 20.05112,-22.69656 20.05112,-22.69656 11.66799,-1.82915 24.81703,1.02734 28.40721,13.57175 0,0 -18.91541,20.17425 -18.91541,20.17425 0,0 -0.26571,-0.3668 -0.41121,-0.55936 z"
         style="fill:#ffffff;fill-opacity:1"
         id="path4190-3-3" />
      <path
         inkscape:export-ydpi="72.031548"
         inkscape:export-xdpi="72.031548"
         inkscape:export-filename="/home/ivan/Desktop/wiki.png"
         d="m 740.74951,464.9545 c 0,0 -0.86519,0.94831 -0.86519,0.94831 -1.54087,-4.54263 -4.40031,-7.60327 -8.07425,-9.48256 0,0 13.27352,-10.30692 13.27352,-10.30692 -3.55728,5.99459 -4.35016,14.6482 -4.33408,18.84117 z m 8.03611,-8.50502 c 0,0 -2.97196,0.4322 -4.61176,5.24385 -1.40367,4.11746 -2.63164,5.65009 -3.77867,6.91666 0,0 -16.34908,17.01987 -16.34908,17.01987 0,0 -2.8065,2.60226 -6.19163,3.56392 -4.64765,1.3208 -13.85064,2.81122 -16.70908,3.15264 -2.85793,0.34171 -0.90908,1.9912 2.14208,3.80807 3.0509,1.81716 3.50583,2.71563 9.59893,-0.57698 6.09284,-3.29289 11.92777,-0.26965 24.41652,-3.85768 12.48841,-3.58775 15.0261,-13.58301 14.79829,-20.92363 -0.2278,-7.34102 0.69617,-8.93831 1.43083,-9.56025 0.73468,-0.62162 3.48244,-1.47386 3.48244,-1.47386 0,0 -3.22028,-1.04712 -3.22028,-1.04712 0,0 -0.3899,-0.5824 -1.74454,-1.62679 -1.35488,-1.04437 -3.26405,-0.6387 -3.26405,-0.6387 z m -26.17089,26.70639 c -5.63088,-7.45643 -14.03036,-9.97455 -23.35298,-8.40921 0,0 16.07367,-18.19434 16.07367,-18.19434 9.35346,-1.46631 19.89418,0.82355 22.77219,10.87958 0,0 -15.16324,16.17237 -15.16324,16.17237 0,0 -0.213,-0.29404 -0.32964,-0.4484 z"
         style="fill:#ffffff;fill-opacity:1"
         id="path4190-3-4-3" />
      <text
         transform="scale(1.1067717,0.9035287)"
         sodipodi:linespacing="125%"
         id="text2864-5-8"
         y="750.12573"
         x="635.98108"
         style="font-size:178.81521606px;font-style:italic;font-variant:normal;font-weight:bold;font-stretch:normal;text-align:start;line-height:125%;writing-mode:lr-tb;text-anchor:start;fill:#ffffff;fill-opacity:1;stroke:none;font-family:Yanone Kaffeesatz;-inkscape-font-specification:Yanone Kaffeesatz Bold Italic"
         xml:space="preserve"><tspan
           style="font-size:178.81521606px;font-style:italic;font-variant:normal;font-weight:bold;font-stretch:normal;text-align:start;line-height:125%;writing-mode:lr-tb;text-anchor:start;fill:#ffffff;fill-opacity:1;stroke:none;font-family:Yanone Kaffeesatz;-inkscape-font-specification:Yanone Kaffeesatz Bold Italic"
           y="750.12573"
           x="635.98108"
           id="tspan2866-5-0"
           sodipodi:role="line">DFD</tspan></text>
    </g>
  </g>
</svg>
