<?xml version="1.0" encoding="UTF-8" standalone="no"?>
<!-- Created with Inkscape (http://www.inkscape.org/) -->

<svg
   xmlns:dc="http://purl.org/dc/elements/1.1/"
   xmlns:cc="http://creativecommons.org/ns#"
   xmlns:rdf="http://www.w3.org/1999/02/22-rdf-syntax-ns#"
   xmlns:svg="http://www.w3.org/2000/svg"
   xmlns="http://www.w3.org/2000/svg"
   xmlns:xlink="http://www.w3.org/1999/xlink"
   xmlns:sodipodi="http://sodipodi.sourceforge.net/DTD/sodipodi-0.dtd"
   xmlns:inkscape="http://www.inkscape.org/namespaces/inkscape"
   width="269.29132"
   height="379.13385"
   id="svg5942"
   version="1.1"
   inkscape:version="0.48.3.1 r9886"
   sodipodi:docname="dfd-2014-a7-back-en.svg"
   inkscape:export-filename="/home/samtuke/fsfe/svn/dfd/trunk/artwork/sources/dfd-2013-a7-flier/dfd-2014-a7-back-en.png"
   inkscape:export-xdpi="300"
   inkscape:export-ydpi="300">
  <defs
     id="defs5944">
    <linearGradient
       id="linearGradient6529">
      <stop
         id="stop6531"
         offset="0"
         style="stop-color:#b6e235;stop-opacity:1;" />
      <stop
         id="stop6533"
         offset="1"
         style="stop-color:#36890a;stop-opacity:1" />
    </linearGradient>
    <inkscape:perspective
       sodipodi:type="inkscape:persp3d"
       inkscape:vp_x="0 : 526.18109 : 1"
       inkscape:vp_y="0 : 1000 : 0"
       inkscape:vp_z="744.09448 : 526.18109 : 1"
       inkscape:persp3d-origin="372.04724 : 350.78739 : 1"
       id="perspective5950" />
    <inkscape:perspective
       id="perspective5960"
       inkscape:persp3d-origin="0.5 : 0.33333333 : 1"
       inkscape:vp_z="1 : 0.5 : 1"
       inkscape:vp_y="0 : 1000 : 0"
       inkscape:vp_x="0 : 0.5 : 1"
       sodipodi:type="inkscape:persp3d" />
    <linearGradient
       inkscape:collect="always"
       xlink:href="#linearGradient6529"
       id="linearGradient3777"
       gradientUnits="userSpaceOnUse"
       gradientTransform="matrix(0.96795146,0,0,0.96795143,234.44878,343.01893)"
       x1="357.92072"
       y1="589.32819"
       x2="354.89005"
       y2="988.33618" />
    <linearGradient
       id="linearGradient3696">
      <stop
         style="stop-color:#b6e235;stop-opacity:1;"
         offset="0"
         id="stop3698" />
      <stop
         style="stop-color:#36890a;stop-opacity:1;"
         offset="1"
         id="stop3700" />
    </linearGradient>
    <linearGradient
       inkscape:collect="always"
       xlink:href="#linearGradient3696"
       id="linearGradient5968"
       gradientUnits="userSpaceOnUse"
       gradientTransform="translate(6.4720239,-19.284364)"
       x1="357.92072"
       y1="589.32819"
       x2="357.92072"
       y2="657.38831" />
    <linearGradient
       id="linearGradient5970">
      <stop
         style="stop-color:#b6e235;stop-opacity:1;"
         offset="0"
         id="stop5972" />
      <stop
         style="stop-color:#36890a;stop-opacity:1;"
         offset="1"
         id="stop5974" />
    </linearGradient>
    <linearGradient
       inkscape:collect="always"
       xlink:href="#linearGradient3696-8"
       id="linearGradient3773"
       gradientUnits="userSpaceOnUse"
       gradientTransform="matrix(0.64186016,0,0,0.64186015,259.81394,258.39622)"
       x1="279.49557"
       y1="722.70312"
       x2="279.49557"
       y2="586.22162" />
    <linearGradient
       id="linearGradient3696-8">
      <stop
         style="stop-color:#000000;stop-opacity:1;"
         offset="0"
         id="stop3698-2" />
      <stop
         style="stop-color:#36890a;stop-opacity:1;"
         offset="1"
         id="stop3700-0" />
    </linearGradient>
    <linearGradient
       inkscape:collect="always"
       xlink:href="#linearGradient3696-8"
       id="linearGradient5980"
       gradientUnits="userSpaceOnUse"
       gradientTransform="matrix(0.64186016,0,0,0.64186015,259.81394,258.39622)"
       x1="279.49557"
       y1="722.70312"
       x2="279.49557"
       y2="586.22162" />
    <linearGradient
       id="linearGradient5982">
      <stop
         style="stop-color:#000000;stop-opacity:1;"
         offset="0"
         id="stop5984" />
      <stop
         style="stop-color:#36890a;stop-opacity:1;"
         offset="1"
         id="stop5986" />
    </linearGradient>
    <linearGradient
       y2="586.22162"
       x2="279.49557"
       y1="722.70312"
       x1="279.49557"
       gradientTransform="matrix(1.625485,0,0,1.6254849,18.939755,722.11733)"
       gradientUnits="userSpaceOnUse"
       id="linearGradient5993"
       xlink:href="#linearGradient3696-8"
       inkscape:collect="always" />
    <inkscape:perspective
       id="perspective6094"
       inkscape:persp3d-origin="0.5 : 0.33333333 : 1"
       inkscape:vp_z="1 : 0.5 : 1"
       inkscape:vp_y="0 : 1000 : 0"
       inkscape:vp_x="0 : 0.5 : 1"
       sodipodi:type="inkscape:persp3d" />
    <linearGradient
       id="linearGradient4364">
      <stop
         style="stop-color:#ffffff;stop-opacity:1;"
         offset="0"
         id="stop4366" />
      <stop
         style="stop-color:#42b30b;stop-opacity:0;"
         offset="1"
         id="stop4368" />
    </linearGradient>
    <filter
       id="filter3677"
       inkscape:label="Fuzzy Glow"
       inkscape:menu="Shadows and Glows"
       inkscape:menu-tooltip="Overlays a semi-transparent shifted copy to a blurred one"
       color-interpolation-filters="sRGB">
      <feOffset
         id="feOffset3679"
         dx="4"
         dy="4"
         result="result11"
         in="SourceGraphic" />
      <feGaussianBlur
         id="feGaussianBlur3681"
         stdDeviation="4"
         result="result8" />
      <feComposite
         id="feComposite3683"
         in2="result8"
         result="result9"
         in="SourceGraphic"
         operator="in" />
      <feBlend
         id="feBlend3685"
         in2="result8"
         in="result9"
         mode="darken" />
    </filter>
    <linearGradient
       id="linearGradient4352">
      <stop
         style="stop-color:#ffff4f;stop-opacity:0.82745099;"
         offset="0"
         id="stop4354" />
      <stop
         style="stop-color:#42b30b;stop-opacity:0;"
         offset="1"
         id="stop4356" />
    </linearGradient>
    <inkscape:perspective
       id="perspective6257"
       inkscape:persp3d-origin="0.5 : 0.33333333 : 1"
       inkscape:vp_z="1 : 0.5 : 1"
       inkscape:vp_y="0 : 1000 : 0"
       inkscape:vp_x="0 : 0.5 : 1"
       sodipodi:type="inkscape:persp3d" />
    <linearGradient
       id="linearGradient4352-6">
      <stop
         style="stop-color:#ffff4f;stop-opacity:0.82745099;"
         offset="0"
         id="stop4354-6" />
      <stop
         style="stop-color:#42b30b;stop-opacity:0;"
         offset="1"
         id="stop4356-7" />
    </linearGradient>
    <filter
       id="filter3677-2"
       inkscape:label="Fuzzy Glow"
       inkscape:menu="Shadows and Glows"
       inkscape:menu-tooltip="Overlays a semi-transparent shifted copy to a blurred one"
       color-interpolation-filters="sRGB">
      <feOffset
         id="feOffset3679-7"
         dx="4"
         dy="4"
         result="result11"
         in="SourceGraphic" />
      <feGaussianBlur
         id="feGaussianBlur3681-4"
         stdDeviation="4"
         result="result8" />
      <feComposite
         id="feComposite3683-1"
         in2="result8"
         result="result9"
         in="SourceGraphic"
         operator="in" />
      <feBlend
         id="feBlend3685-0"
         in2="result8"
         in="result9"
         mode="darken" />
    </filter>
    <linearGradient
       id="linearGradient4364-6">
      <stop
         style="stop-color:#ffffff;stop-opacity:1;"
         offset="0"
         id="stop4366-4" />
      <stop
         style="stop-color:#42b30b;stop-opacity:0;"
         offset="1"
         id="stop4368-4" />
    </linearGradient>
    <inkscape:perspective
       id="perspective6421"
       inkscape:persp3d-origin="0.5 : 0.33333333 : 1"
       inkscape:vp_z="1 : 0.5 : 1"
       inkscape:vp_y="0 : 1000 : 0"
       inkscape:vp_x="0 : 0.5 : 1"
       sodipodi:type="inkscape:persp3d" />
    <inkscape:perspective
       id="perspective6455"
       inkscape:persp3d-origin="0.5 : 0.33333333 : 1"
       inkscape:vp_z="1 : 0.5 : 1"
       inkscape:vp_y="0 : 1000 : 0"
       inkscape:vp_x="0 : 0.5 : 1"
       sodipodi:type="inkscape:persp3d" />
    <radialGradient
       inkscape:collect="always"
       xlink:href="#linearGradient4352-6-0"
       id="radialGradient6355-1"
       gradientUnits="userSpaceOnUse"
       gradientTransform="matrix(0.21881884,-0.29786409,0.27140068,0.31445673,-98.345913,895.67225)"
       cx="313.43893"
       cy="663.65607"
       fx="313.43893"
       fy="663.65607"
       r="132.9715" />
    <linearGradient
       id="linearGradient4352-6-0">
      <stop
         style="stop-color:#6cc41a;stop-opacity:1;"
         offset="0"
         id="stop4354-6-5" />
      <stop
         style="stop-color:#c6e83a;stop-opacity:1;"
         offset="1"
         id="stop4356-7-3" />
    </linearGradient>
    <linearGradient
       inkscape:collect="always"
       xlink:href="#linearGradient6529"
       id="linearGradient2912"
       gradientUnits="userSpaceOnUse"
       gradientTransform="matrix(0.29221816,0,0,0.29221815,59.586978,686.05405)"
       x1="357.92072"
       y1="589.32819"
       x2="354.89005"
       y2="988.33618" />
    <radialGradient
       inkscape:collect="always"
       xlink:href="#linearGradient4352"
       id="radialGradient3686"
       gradientUnits="userSpaceOnUse"
       gradientTransform="matrix(0.73237103,-0.99692987,0.9083587,1.0524642,-752.39138,615.20924)"
       cx="313.43893"
       cy="663.65607"
       fx="313.43893"
       fy="663.65607"
       r="132.9715" />
    <inkscape:perspective
       id="perspective3698"
       inkscape:persp3d-origin="0.5 : 0.33333333 : 1"
       inkscape:vp_z="1 : 0.5 : 1"
       inkscape:vp_y="0 : 1000 : 0"
       inkscape:vp_x="0 : 0.5 : 1"
       sodipodi:type="inkscape:persp3d" />
    <linearGradient
       inkscape:collect="always"
       xlink:href="#linearGradient6529"
       id="linearGradient3712"
       x1="127.75238"
       y1="771.62238"
       x2="127.75238"
       y2="1052.4729"
       gradientUnits="userSpaceOnUse"
       gradientTransform="matrix(1.1055039,0,0,1.0787256,-1.7716676,-156.08064)" />
    <inkscape:perspective
       id="perspective3722"
       inkscape:persp3d-origin="0.5 : 0.33333333 : 1"
       inkscape:vp_z="1 : 0.5 : 1"
       inkscape:vp_y="0 : 1000 : 0"
       inkscape:vp_x="0 : 0.5 : 1"
       sodipodi:type="inkscape:persp3d" />
    <inkscape:perspective
       id="perspective3753"
       inkscape:persp3d-origin="0.5 : 0.33333333 : 1"
       inkscape:vp_z="1 : 0.5 : 1"
       inkscape:vp_y="0 : 1000 : 0"
       inkscape:vp_x="0 : 0.5 : 1"
       sodipodi:type="inkscape:persp3d" />
    <inkscape:perspective
       id="perspective3804"
       inkscape:persp3d-origin="0.5 : 0.33333333 : 1"
       inkscape:vp_z="1 : 0.5 : 1"
       inkscape:vp_y="0 : 1000 : 0"
       inkscape:vp_x="0 : 0.5 : 1"
       sodipodi:type="inkscape:persp3d" />
    <inkscape:perspective
       id="perspective2907"
       inkscape:persp3d-origin="0.5 : 0.33333333 : 1"
       inkscape:vp_z="1 : 0.5 : 1"
       inkscape:vp_y="0 : 1000 : 0"
       inkscape:vp_x="0 : 0.5 : 1"
       sodipodi:type="inkscape:persp3d" />
    <inkscape:perspective
       id="perspective2904"
       inkscape:persp3d-origin="0.5 : 0.33333333 : 1"
       inkscape:vp_z="1 : 0.5 : 1"
       inkscape:vp_y="0 : 1000 : 0"
       inkscape:vp_x="0 : 0.5 : 1"
       sodipodi:type="inkscape:persp3d" />
    <inkscape:perspective
       id="perspective2929"
       inkscape:persp3d-origin="0.5 : 0.33333333 : 1"
       inkscape:vp_z="1 : 0.5 : 1"
       inkscape:vp_y="0 : 1000 : 0"
       inkscape:vp_x="0 : 0.5 : 1"
       sodipodi:type="inkscape:persp3d" />
    <inkscape:perspective
       id="perspective3113"
       inkscape:persp3d-origin="0.5 : 0.33333333 : 1"
       inkscape:vp_z="1 : 0.5 : 1"
       inkscape:vp_y="0 : 1000 : 0"
       inkscape:vp_x="0 : 0.5 : 1"
       sodipodi:type="inkscape:persp3d" />
    <inkscape:perspective
       id="perspective3929"
       inkscape:persp3d-origin="0.5 : 0.33333333 : 1"
       inkscape:vp_z="1 : 0.5 : 1"
       inkscape:vp_y="0 : 1000 : 0"
       inkscape:vp_x="0 : 0.5 : 1"
       sodipodi:type="inkscape:persp3d" />
    <inkscape:perspective
       id="perspective3979"
       inkscape:persp3d-origin="0.5 : 0.33333333 : 1"
       inkscape:vp_z="1 : 0.5 : 1"
       inkscape:vp_y="0 : 1000 : 0"
       inkscape:vp_x="0 : 0.5 : 1"
       sodipodi:type="inkscape:persp3d" />
    <inkscape:perspective
       id="perspective2903"
       inkscape:persp3d-origin="0.5 : 0.33333333 : 1"
       inkscape:vp_z="1 : 0.5 : 1"
       inkscape:vp_y="0 : 1000 : 0"
       inkscape:vp_x="0 : 0.5 : 1"
       sodipodi:type="inkscape:persp3d" />
    <linearGradient
       inkscape:collect="always"
       xlink:href="#linearGradient6529"
       id="linearGradient3679"
       gradientUnits="userSpaceOnUse"
       gradientTransform="matrix(1.1055039,0,0,1.0787256,-10.629933,-148.99406)"
       x1="127.75238"
       y1="771.62238"
       x2="127.75238"
       y2="1052.4729" />
  </defs>
  <sodipodi:namedview
     id="base"
     pagecolor="#ffffff"
     bordercolor="#666666"
     borderopacity="1.0"
     inkscape:pageopacity="0.0"
     inkscape:pageshadow="2"
     inkscape:zoom="1.4666941"
     inkscape:cx="169.37555"
     inkscape:cy="202.11237"
     inkscape:document-units="mm"
     inkscape:current-layer="layer1"
     showgrid="false"
     inkscape:window-width="1024"
     inkscape:window-height="713"
     inkscape:window-x="0"
     inkscape:window-y="27"
     inkscape:window-maximized="1"
     units="mm"
     borderlayer="true" />
  <metadata
     id="metadata5947">
    <rdf:RDF>
      <cc:Work
         rdf:about="">
        <dc:format>image/svg+xml</dc:format>
        <dc:type
           rdf:resource="http://purl.org/dc/dcmitype/StillImage" />
        <dc:title></dc:title>
      </cc:Work>
    </rdf:RDF>
  </metadata>
  <g
     inkscape:label="Livello 1"
     inkscape:groupmode="layer"
     id="layer1"
     transform="translate(0,-673.22829)">
    <rect
       style="fill:url(#linearGradient3679);fill-opacity:1;stroke:none"
       id="rect4302-5-3-2"
       width="290.55118"
       height="400.39371"
       x="-10.629932"
       y="662.59839"
       inkscape:export-filename="/home/samtuke/fsfe/svn/dfd/trunk/artwork/sources/dfd-2013-a7-back-en-preprint.png"
       inkscape:export-xdpi="300"
       inkscape:export-ydpi="300" />
    <text
       xml:space="preserve"
       style="font-size:28.35808563px;font-style:normal;font-variant:normal;font-weight:bold;font-stretch:normal;text-align:center;line-height:100%;writing-mode:lr-tb;text-anchor:middle;fill:#000000;fill-opacity:1;stroke:none;font-family:Yanone Kaffeesatz;-inkscape-font-specification:Yanone Kaffeesatz Bold"
       x="21.416616"
       y="805.23407"
       id="text3708-1-2"
       sodipodi:linespacing="100%"
       transform="scale(1.1040596,0.9057482)"><tspan
         sodipodi:role="line"
         x="21.416616"
         y="805.23407"
         style="font-size:38px;font-style:normal;font-variant:normal;font-weight:bold;font-stretch:normal;text-align:start;line-height:100%;writing-mode:lr-tb;text-anchor:start;fill:#000000;fill-opacity:1;stroke:none;font-family:Yanone Kaffeesatz;-inkscape-font-specification:Yanone Kaffeesatz Bold"
         id="tspan3902">Si valoreu la</tspan><tspan
         sodipodi:role="line"
         x="21.416616"
         y="843.23407"
         style="font-size:38px;font-style:normal;font-variant:normal;font-weight:bold;font-stretch:normal;text-align:start;line-height:100%;writing-mode:lr-tb;text-anchor:start;fill:#000000;fill-opacity:1;stroke:none;font-family:Yanone Kaffeesatz;-inkscape-font-specification:Yanone Kaffeesatz Bold"
         id="tspan4302">llibertat d'utilitzar </tspan><tspan
         sodipodi:role="line"
         x="21.416616"
         y="881.23407"
         style="font-size:38px;font-style:normal;font-variant:normal;font-weight:bold;font-stretch:normal;text-align:start;line-height:100%;writing-mode:lr-tb;text-anchor:start;fill:#000000;fill-opacity:1;stroke:none;font-family:Yanone Kaffeesatz;-inkscape-font-specification:Yanone Kaffeesatz Bold"
         id="tspan3900">els vostres fitxers</tspan></text>
    <text
       xml:space="preserve"
       style="font-size:31.85290527px;font-style:normal;font-variant:normal;font-weight:bold;font-stretch:normal;text-align:start;line-height:137.00000048%;writing-mode:lr-tb;text-anchor:start;fill:#000000;fill-opacity:1;stroke:none;font-family:Yanone Kaffeesatz;-inkscape-font-specification:Yanone Kaffeesatz Bold"
       x="20.88402"
       y="930.68066"
       id="text3708-1-6-7"
       sodipodi:linespacing="137%"
       transform="scale(1.1040596,0.9057482)"><tspan
         sodipodi:role="line"
         x="20.88402"
         y="930.68066"
         style="font-size:21.07795143px;font-style:normal;font-variant:normal;font-weight:normal;font-stretch:normal;text-align:start;line-height:137.00000048%;writing-mode:lr-tb;text-anchor:start;fill:#000000;fill-opacity:1;stroke:none;font-family:Yanone Kaffeesatz;-inkscape-font-specification:Yanone Kaffeesatz Thin"
         id="tspan2935"><tspan
   style="font-size:21.07795143px;font-style:normal;font-variant:normal;font-weight:bold;font-stretch:normal;text-align:start;line-height:137.00000048%;writing-mode:lr-tb;text-anchor:start;fill:#000000;font-family:Yanone Kaffeesatz;-inkscape-font-specification:Yanone Kaffeesatz Bold"
   id="tspan3959"><tspan
   style="font-weight:normal;-inkscape-font-specification:Yanone Kaffeesatz"
   id="tspan3975">amb</tspan> qualsevol</tspan> aplicació<tspan
   style="font-size:21.07767296px;font-weight:normal;fill:#000000"
   id="tspan4310">,</tspan></tspan><tspan
         sodipodi:role="line"
         x="20.88402"
         y="959.55743"
         style="font-size:21.07795143px;font-style:normal;font-variant:normal;font-weight:normal;font-stretch:normal;text-align:start;line-height:137.00000048%;writing-mode:lr-tb;text-anchor:start;fill:#000000;fill-opacity:1;stroke:none;font-family:Yanone Kaffeesatz;-inkscape-font-specification:Yanone Kaffeesatz Thin"
         id="tspan3892"><tspan
           style="font-size:21.07795143px;font-style:normal;font-variant:normal;font-weight:normal;font-stretch:normal;text-align:start;line-height:137.00000048%;writing-mode:lr-tb;text-anchor:start;fill:#000000;font-family:Yanone Kaffeesatz;-inkscape-font-specification:Yanone Kaffeesatz Bold"
           id="tspan3961">a <tspan
   style="font-weight:bold;-inkscape-font-specification:Yanone Kaffeesatz Bold"
   id="tspan3973">qualsevol</tspan> dispositiu,</tspan></tspan><tspan
         sodipodi:role="line"
         x="20.88402"
         y="988.4342"
         style="font-size:21.07795143px;font-style:normal;font-variant:normal;font-weight:normal;font-stretch:normal;text-align:start;line-height:137.00000048%;writing-mode:lr-tb;text-anchor:start;fill:#000000;fill-opacity:1;stroke:none;font-family:Yanone Kaffeesatz;-inkscape-font-specification:Yanone Kaffeesatz Thin"
         id="tspan3894">a <tspan
   style="font-size:21.07795143px;font-style:normal;font-variant:normal;font-weight:bold;font-stretch:normal;text-align:start;line-height:137.00000048%;writing-mode:lr-tb;text-anchor:start;fill:#000000;font-family:Yanone Kaffeesatz;-inkscape-font-specification:Yanone Kaffeesatz Bold"
   id="tspan3963">qualsevol</tspan> plataforma,</tspan><tspan
         sodipodi:role="line"
         x="20.88402"
         y="1017.311"
         style="font-size:21.07795143px;font-style:normal;font-variant:normal;font-weight:normal;font-stretch:normal;text-align:start;line-height:137.00000048%;writing-mode:lr-tb;text-anchor:start;fill:#000000;fill-opacity:1;stroke:none;font-family:Yanone Kaffeesatz;-inkscape-font-specification:Yanone Kaffeesatz Thin"
         id="tspan3896"><tspan
   style="font-weight:bold"
   id="tspan3156">sense </tspan>lock-in,</tspan><tspan
         sodipodi:role="line"
         x="20.88402"
         y="1046.1879"
         style="font-size:21.07795143px;font-style:normal;font-variant:normal;font-weight:normal;font-stretch:normal;text-align:start;line-height:137.00000048%;writing-mode:lr-tb;text-anchor:start;fill:#000000;fill-opacity:1;stroke:none;font-family:Yanone Kaffeesatz;-inkscape-font-specification:Yanone Kaffeesatz Thin"
         id="tspan3898"><tspan
   style="font-weight:bold"
   id="tspan3160">sense </tspan>quotes de patents:</tspan></text>
    <text
       xml:space="preserve"
       style="font-size:30.69801712px;font-style:normal;font-variant:normal;font-weight:bold;font-stretch:normal;text-align:start;line-height:100%;writing-mode:lr-tb;text-anchor:start;fill:#ffffff;fill-opacity:1;stroke:none;font-family:Yanone Kaffeesatz;-inkscape-font-specification:Yanone Kaffeesatz Bold"
       x="20.495049"
       y="1101.1765"
       id="text3708-1-6-7-2"
       sodipodi:linespacing="100%"
       transform="scale(1.1040596,0.9057482)"><tspan
         sodipodi:role="line"
         x="20.495049"
         y="1101.1765"
         style="font-size:34.98035812px;font-style:normal;font-variant:normal;font-weight:bold;font-stretch:normal;text-align:start;line-height:100%;letter-spacing:0.69039351;writing-mode:lr-tb;text-anchor:start;fill:#ffffff;fill-opacity:1;stroke:none;font-family:Yanone Kaffeesatz;-inkscape-font-specification:Yanone Kaffeesatz Bold"
         id="tspan4328">Insistiu en els</tspan><tspan
         sodipodi:role="line"
         x="20.495049"
         y="1136.1569"
         style="font-size:34.98035812px;font-style:normal;font-variant:normal;font-weight:bold;font-stretch:normal;text-align:start;line-height:100%;letter-spacing:0.69039351;writing-mode:lr-tb;text-anchor:start;fill:#ffffff;fill-opacity:1;stroke:none;font-family:Yanone Kaffeesatz;-inkscape-font-specification:Yanone Kaffeesatz Bold"
         id="tspan4332">estàndards oberts!</tspan></text>
    <text
       xml:space="preserve"
       style="font-size:12px;font-style:normal;font-weight:normal;text-align:center;text-anchor:middle;fill:#000000;fill-opacity:1;stroke:none;font-family:Bitstream Vera Sans"
       x="233.23416"
       y="829.39014"
       id="text4047"><tspan
         sodipodi:role="line"
         id="tspan4049"
         x="233.23416"
         y="829.39014" /></text>
    <text
       sodipodi:linespacing="125%"
       xml:space="preserve"
       style="font-size:40px;font-style:normal;font-weight:normal;line-height:125%;fill:#ffffff;fill-opacity:1;stroke:none;font-family:Bitstream Vera Sans"
       x="193.25017"
       y="924.23743"
       id="text3792"><tspan
         sodipodi:role="line"
         id="tspan3794"
         x="193.25017"
         y="924.23743"
         style="font-size:9.5px;font-style:normal;font-variant:normal;font-weight:normal;font-stretch:normal;text-align:start;line-height:125%;letter-spacing:0.55308098;writing-mode:lr-tb;text-anchor:start;fill:#ffffff;fill-opacity:1;font-family:Yanone Kaffeesatz;-inkscape-font-specification:Yanone Kaffeesatz">DocumentFreedom.org</tspan></text>
    <g
       id="g3681"
       transform="matrix(0.80736831,0,0,0.80736831,53.921706,176.1791)">
      <rect
         transform="matrix(0,-1,1,0,0,0)"
         style="fill:#ffffff;fill-opacity:1;stroke:none"
         id="rect5111"
         width="77.867348"
         height="108.07087"
         x="-914.59039"
         y="171.85039" />
      <rect
         y="842.21606"
         x="183.71812"
         height="61.509953"
         width="61.509953"
         id="qr-field"
         style="color:#000000;fill:#ffffff;fill-opacity:1;fill-rule:nonzero;stroke:none;stroke-width:4;marker:none;visibility:visible;display:inline;overflow:visible;enable-background:accumulate" />
      <g
         style="fill:#000000"
         transform="matrix(2.0143195,0,0,2.0143195,175.89115,840.40612)"
         id="barcode">
        <rect
           style="fill:#ffffff"
           x="0"
           y="0"
           width="35"
           height="35"
           id="rect3305" />
        <rect
           x="1"
           y="1"
           width="7"
           height="1"
           id="rect3307" />
        <rect
           x="9"
           y="1"
           width="1"
           height="1"
           id="rect3309" />
        <rect
           x="12"
           y="1"
           width="2"
           height="1"
           id="rect3311" />
        <rect
           x="15"
           y="1"
           width="4"
           height="1"
           id="rect3313" />
        <rect
           x="21"
           y="1"
           width="1"
           height="1"
           id="rect3315" />
        <rect
           x="25"
           y="1"
           width="1"
           height="1"
           id="rect3317" />
        <rect
           x="27"
           y="1"
           width="7"
           height="1"
           id="rect3319" />
        <rect
           x="1"
           y="2"
           width="1"
           height="1"
           id="rect3321" />
        <rect
           x="7"
           y="2"
           width="1"
           height="1"
           id="rect3323" />
        <rect
           x="10"
           y="2"
           width="2"
           height="1"
           id="rect3325" />
        <rect
           x="17"
           y="2"
           width="7"
           height="1"
           id="rect3327" />
        <rect
           x="27"
           y="2"
           width="1"
           height="1"
           id="rect3329" />
        <rect
           x="33"
           y="2"
           width="1"
           height="1"
           id="rect3331" />
        <rect
           x="1"
           y="3"
           width="1"
           height="1"
           id="rect3333" />
        <rect
           x="3"
           y="3"
           width="3"
           height="1"
           id="rect3335" />
        <rect
           x="7"
           y="3"
           width="1"
           height="1"
           id="rect3337" />
        <rect
           x="11"
           y="3"
           width="1"
           height="1"
           id="rect3339" />
        <rect
           x="13"
           y="3"
           width="1"
           height="1"
           id="rect3341" />
        <rect
           x="16"
           y="3"
           width="2"
           height="1"
           id="rect3343" />
        <rect
           x="19"
           y="3"
           width="4"
           height="1"
           id="rect3345" />
        <rect
           x="24"
           y="3"
           width="1"
           height="1"
           id="rect3347" />
        <rect
           x="27"
           y="3"
           width="1"
           height="1"
           id="rect3349" />
        <rect
           x="29"
           y="3"
           width="3"
           height="1"
           id="rect3351" />
        <rect
           x="33"
           y="3"
           width="1"
           height="1"
           id="rect3353" />
        <rect
           x="1"
           y="4"
           width="1"
           height="1"
           id="rect3355" />
        <rect
           x="3"
           y="4"
           width="3"
           height="1"
           id="rect3357" />
        <rect
           x="7"
           y="4"
           width="1"
           height="1"
           id="rect3359" />
        <rect
           x="13"
           y="4"
           width="1"
           height="1"
           id="rect3361" />
        <rect
           x="18"
           y="4"
           width="2"
           height="1"
           id="rect3363" />
        <rect
           x="21"
           y="4"
           width="2"
           height="1"
           id="rect3365" />
        <rect
           x="24"
           y="4"
           width="2"
           height="1"
           id="rect3367" />
        <rect
           x="27"
           y="4"
           width="1"
           height="1"
           id="rect3369" />
        <rect
           x="29"
           y="4"
           width="3"
           height="1"
           id="rect3371" />
        <rect
           x="33"
           y="4"
           width="1"
           height="1"
           id="rect3373" />
        <rect
           x="1"
           y="5"
           width="1"
           height="1"
           id="rect3375" />
        <rect
           x="3"
           y="5"
           width="3"
           height="1"
           id="rect3377" />
        <rect
           x="7"
           y="5"
           width="1"
           height="1"
           id="rect3379" />
        <rect
           x="10"
           y="5"
           width="1"
           height="1"
           id="rect3381" />
        <rect
           x="12"
           y="5"
           width="1"
           height="1"
           id="rect3383" />
        <rect
           x="15"
           y="5"
           width="1"
           height="1"
           id="rect3385" />
        <rect
           x="18"
           y="5"
           width="1"
           height="1"
           id="rect3387" />
        <rect
           x="20"
           y="5"
           width="1"
           height="1"
           id="rect3389" />
        <rect
           x="22"
           y="5"
           width="2"
           height="1"
           id="rect3391" />
        <rect
           x="25"
           y="5"
           width="1"
           height="1"
           id="rect3393" />
        <rect
           x="27"
           y="5"
           width="1"
           height="1"
           id="rect3395" />
        <rect
           x="29"
           y="5"
           width="3"
           height="1"
           id="rect3397" />
        <rect
           x="33"
           y="5"
           width="1"
           height="1"
           id="rect3399" />
        <rect
           x="1"
           y="6"
           width="1"
           height="1"
           id="rect3401" />
        <rect
           x="7"
           y="6"
           width="1"
           height="1"
           id="rect3403" />
        <rect
           x="11"
           y="6"
           width="1"
           height="1"
           id="rect3405" />
        <rect
           x="13"
           y="6"
           width="1"
           height="1"
           id="rect3407" />
        <rect
           x="18"
           y="6"
           width="2"
           height="1"
           id="rect3409" />
        <rect
           x="23"
           y="6"
           width="2"
           height="1"
           id="rect3411" />
        <rect
           x="27"
           y="6"
           width="1"
           height="1"
           id="rect3413" />
        <rect
           x="33"
           y="6"
           width="1"
           height="1"
           id="rect3415" />
        <rect
           x="1"
           y="7"
           width="7"
           height="1"
           id="rect3417" />
        <rect
           x="9"
           y="7"
           width="1"
           height="1"
           id="rect3419" />
        <rect
           x="11"
           y="7"
           width="1"
           height="1"
           id="rect3421" />
        <rect
           x="13"
           y="7"
           width="1"
           height="1"
           id="rect3423" />
        <rect
           x="15"
           y="7"
           width="1"
           height="1"
           id="rect3425" />
        <rect
           x="17"
           y="7"
           width="1"
           height="1"
           id="rect3427" />
        <rect
           x="19"
           y="7"
           width="1"
           height="1"
           id="rect3429" />
        <rect
           x="21"
           y="7"
           width="1"
           height="1"
           id="rect3431" />
        <rect
           x="23"
           y="7"
           width="1"
           height="1"
           id="rect3433" />
        <rect
           x="25"
           y="7"
           width="1"
           height="1"
           id="rect3435" />
        <rect
           x="27"
           y="7"
           width="7"
           height="1"
           id="rect3437" />
        <rect
           x="9"
           y="8"
           width="1"
           height="1"
           id="rect3439" />
        <rect
           x="11"
           y="8"
           width="2"
           height="1"
           id="rect3441" />
        <rect
           x="14"
           y="8"
           width="1"
           height="1"
           id="rect3443" />
        <rect
           x="17"
           y="8"
           width="1"
           height="1"
           id="rect3445" />
        <rect
           x="19"
           y="8"
           width="1"
           height="1"
           id="rect3447" />
        <rect
           x="24"
           y="8"
           width="1"
           height="1"
           id="rect3449" />
        <rect
           x="1"
           y="9"
           width="2"
           height="1"
           id="rect3451" />
        <rect
           x="4"
           y="9"
           width="2"
           height="1"
           id="rect3453" />
        <rect
           x="7"
           y="9"
           width="1"
           height="1"
           id="rect3455" />
        <rect
           x="10"
           y="9"
           width="3"
           height="1"
           id="rect3457" />
        <rect
           x="14"
           y="9"
           width="1"
           height="1"
           id="rect3459" />
        <rect
           x="17"
           y="9"
           width="4"
           height="1"
           id="rect3461" />
        <rect
           x="25"
           y="9"
           width="1"
           height="1"
           id="rect3463" />
        <rect
           x="27"
           y="9"
           width="1"
           height="1"
           id="rect3465" />
        <rect
           x="33"
           y="9"
           width="1"
           height="1"
           id="rect3467" />
        <rect
           x="2"
           y="10"
           width="1"
           height="1"
           id="rect3469" />
        <rect
           x="5"
           y="10"
           width="2"
           height="1"
           id="rect3471" />
        <rect
           x="10"
           y="10"
           width="1"
           height="1"
           id="rect3473" />
        <rect
           x="13"
           y="10"
           width="2"
           height="1"
           id="rect3475" />
        <rect
           x="16"
           y="10"
           width="2"
           height="1"
           id="rect3477" />
        <rect
           x="20"
           y="10"
           width="1"
           height="1"
           id="rect3479" />
        <rect
           x="22"
           y="10"
           width="3"
           height="1"
           id="rect3481" />
        <rect
           x="28"
           y="10"
           width="2"
           height="1"
           id="rect3483" />
        <rect
           x="32"
           y="10"
           width="1"
           height="1"
           id="rect3485" />
        <rect
           x="1"
           y="11"
           width="1"
           height="1"
           id="rect3487" />
        <rect
           x="3"
           y="11"
           width="1"
           height="1"
           id="rect3489" />
        <rect
           x="5"
           y="11"
           width="1"
           height="1"
           id="rect3491" />
        <rect
           x="7"
           y="11"
           width="2"
           height="1"
           id="rect3493" />
        <rect
           x="11"
           y="11"
           width="2"
           height="1"
           id="rect3495" />
        <rect
           x="14"
           y="11"
           width="1"
           height="1"
           id="rect3497" />
        <rect
           x="16"
           y="11"
           width="4"
           height="1"
           id="rect3499" />
        <rect
           x="21"
           y="11"
           width="1"
           height="1"
           id="rect3501" />
        <rect
           x="24"
           y="11"
           width="5"
           height="1"
           id="rect3503" />
        <rect
           x="30"
           y="11"
           width="1"
           height="1"
           id="rect3505" />
        <rect
           x="33"
           y="11"
           width="1"
           height="1"
           id="rect3507" />
        <rect
           x="1"
           y="12"
           width="1"
           height="1"
           id="rect3509" />
        <rect
           x="6"
           y="12"
           width="1"
           height="1"
           id="rect3511" />
        <rect
           x="8"
           y="12"
           width="1"
           height="1"
           id="rect3513" />
        <rect
           x="10"
           y="12"
           width="5"
           height="1"
           id="rect3515" />
        <rect
           x="16"
           y="12"
           width="1"
           height="1"
           id="rect3517" />
        <rect
           x="18"
           y="12"
           width="1"
           height="1"
           id="rect3519" />
        <rect
           x="21"
           y="12"
           width="1"
           height="1"
           id="rect3521" />
        <rect
           x="25"
           y="12"
           width="1"
           height="1"
           id="rect3523" />
        <rect
           x="27"
           y="12"
           width="5"
           height="1"
           id="rect3525" />
        <rect
           x="1"
           y="13"
           width="1"
           height="1"
           id="rect3527" />
        <rect
           x="3"
           y="13"
           width="3"
           height="1"
           id="rect3529" />
        <rect
           x="7"
           y="13"
           width="2"
           height="1"
           id="rect3531" />
        <rect
           x="10"
           y="13"
           width="1"
           height="1"
           id="rect3533" />
        <rect
           x="12"
           y="13"
           width="3"
           height="1"
           id="rect3535" />
        <rect
           x="16"
           y="13"
           width="1"
           height="1"
           id="rect3537" />
        <rect
           x="19"
           y="13"
           width="4"
           height="1"
           id="rect3539" />
        <rect
           x="24"
           y="13"
           width="1"
           height="1"
           id="rect3541" />
        <rect
           x="27"
           y="13"
           width="1"
           height="1"
           id="rect3543" />
        <rect
           x="30"
           y="13"
           width="1"
           height="1"
           id="rect3545" />
        <rect
           x="32"
           y="13"
           width="2"
           height="1"
           id="rect3547" />
        <rect
           x="3"
           y="14"
           width="2"
           height="1"
           id="rect3549" />
        <rect
           x="8"
           y="14"
           width="2"
           height="1"
           id="rect3551" />
        <rect
           x="14"
           y="14"
           width="3"
           height="1"
           id="rect3553" />
        <rect
           x="22"
           y="14"
           width="3"
           height="1"
           id="rect3555" />
        <rect
           x="28"
           y="14"
           width="1"
           height="1"
           id="rect3557" />
        <rect
           x="30"
           y="14"
           width="1"
           height="1"
           id="rect3559" />
        <rect
           x="1"
           y="15"
           width="2"
           height="1"
           id="rect3561" />
        <rect
           x="4"
           y="15"
           width="1"
           height="1"
           id="rect3563" />
        <rect
           x="7"
           y="15"
           width="2"
           height="1"
           id="rect3565" />
        <rect
           x="10"
           y="15"
           width="1"
           height="1"
           id="rect3567" />
        <rect
           x="12"
           y="15"
           width="3"
           height="1"
           id="rect3569" />
        <rect
           x="16"
           y="15"
           width="1"
           height="1"
           id="rect3571" />
        <rect
           x="20"
           y="15"
           width="2"
           height="1"
           id="rect3573" />
        <rect
           x="26"
           y="15"
           width="1"
           height="1"
           id="rect3575" />
        <rect
           x="28"
           y="15"
           width="1"
           height="1"
           id="rect3577" />
        <rect
           x="30"
           y="15"
           width="1"
           height="1"
           id="rect3579" />
        <rect
           x="3"
           y="16"
           width="3"
           height="1"
           id="rect3581" />
        <rect
           x="9"
           y="16"
           width="2"
           height="1"
           id="rect3583" />
        <rect
           x="12"
           y="16"
           width="1"
           height="1"
           id="rect3585" />
        <rect
           x="17"
           y="16"
           width="1"
           height="1"
           id="rect3587" />
        <rect
           x="19"
           y="16"
           width="1"
           height="1"
           id="rect3589" />
        <rect
           x="24"
           y="16"
           width="1"
           height="1"
           id="rect3591" />
        <rect
           x="28"
           y="16"
           width="1"
           height="1"
           id="rect3593" />
        <rect
           x="31"
           y="16"
           width="1"
           height="1"
           id="rect3595" />
        <rect
           x="33"
           y="16"
           width="1"
           height="1"
           id="rect3597" />
        <rect
           x="2"
           y="17"
           width="1"
           height="1"
           id="rect3599" />
        <rect
           x="6"
           y="17"
           width="3"
           height="1"
           id="rect3601" />
        <rect
           x="10"
           y="17"
           width="2"
           height="1"
           id="rect3603" />
        <rect
           x="15"
           y="17"
           width="2"
           height="1"
           id="rect3605" />
        <rect
           x="19"
           y="17"
           width="2"
           height="1"
           id="rect3607" />
        <rect
           x="23"
           y="17"
           width="1"
           height="1"
           id="rect3609" />
        <rect
           x="25"
           y="17"
           width="6"
           height="1"
           id="rect3611" />
        <rect
           x="32"
           y="17"
           width="2"
           height="1"
           id="rect3613" />
        <rect
           x="3"
           y="18"
           width="3"
           height="1"
           id="rect3615" />
        <rect
           x="8"
           y="18"
           width="2"
           height="1"
           id="rect3617" />
        <rect
           x="12"
           y="18"
           width="5"
           height="1"
           id="rect3619" />
        <rect
           x="18"
           y="18"
           width="3"
           height="1"
           id="rect3621" />
        <rect
           x="23"
           y="18"
           width="1"
           height="1"
           id="rect3623" />
        <rect
           x="27"
           y="18"
           width="3"
           height="1"
           id="rect3625" />
        <rect
           x="32"
           y="18"
           width="2"
           height="1"
           id="rect3627" />
        <rect
           x="1"
           y="19"
           width="2"
           height="1"
           id="rect3629" />
        <rect
           x="4"
           y="19"
           width="2"
           height="1"
           id="rect3631" />
        <rect
           x="7"
           y="19"
           width="4"
           height="1"
           id="rect3633" />
        <rect
           x="12"
           y="19"
           width="1"
           height="1"
           id="rect3635" />
        <rect
           x="16"
           y="19"
           width="1"
           height="1"
           id="rect3637" />
        <rect
           x="20"
           y="19"
           width="2"
           height="1"
           id="rect3639" />
        <rect
           x="23"
           y="19"
           width="3"
           height="1"
           id="rect3641" />
        <rect
           x="27"
           y="19"
           width="1"
           height="1"
           id="rect3643" />
        <rect
           x="29"
           y="19"
           width="1"
           height="1"
           id="rect3645" />
        <rect
           x="33"
           y="19"
           width="1"
           height="1"
           id="rect3647" />
        <rect
           x="2"
           y="20"
           width="3"
           height="1"
           id="rect3649" />
        <rect
           x="11"
           y="20"
           width="1"
           height="1"
           id="rect3651" />
        <rect
           x="13"
           y="20"
           width="1"
           height="1"
           id="rect3653" />
        <rect
           x="15"
           y="20"
           width="1"
           height="1"
           id="rect3655" />
        <rect
           x="17"
           y="20"
           width="1"
           height="1"
           id="rect3657" />
        <rect
           x="19"
           y="20"
           width="1"
           height="1"
           id="rect3659" />
        <rect
           x="23"
           y="20"
           width="2"
           height="1"
           id="rect3661" />
        <rect
           x="27"
           y="20"
           width="2"
           height="1"
           id="rect3663" />
        <rect
           x="30"
           y="20"
           width="4"
           height="1"
           id="rect3665" />
        <rect
           x="1"
           y="21"
           width="1"
           height="1"
           id="rect3667" />
        <rect
           x="4"
           y="21"
           width="2"
           height="1"
           id="rect3669" />
        <rect
           x="7"
           y="21"
           width="5"
           height="1"
           id="rect3671" />
        <rect
           x="13"
           y="21"
           width="3"
           height="1"
           id="rect3673" />
        <rect
           x="18"
           y="21"
           width="1"
           height="1"
           id="rect3675" />
        <rect
           x="24"
           y="21"
           width="2"
           height="1"
           id="rect3677" />
        <rect
           x="28"
           y="21"
           width="1"
           height="1"
           id="rect3679" />
        <rect
           x="1"
           y="22"
           width="3"
           height="1"
           id="rect3681" />
        <rect
           x="9"
           y="22"
           width="2"
           height="1"
           id="rect3683" />
        <rect
           x="15"
           y="22"
           width="3"
           height="1"
           id="rect3685" />
        <rect
           x="20"
           y="22"
           width="1"
           height="1"
           id="rect3687" />
        <rect
           x="23"
           y="22"
           width="3"
           height="1"
           id="rect3689" />
        <rect
           x="28"
           y="22"
           width="5"
           height="1"
           id="rect3691" />
        <rect
           x="1"
           y="23"
           width="1"
           height="1"
           id="rect3693" />
        <rect
           x="4"
           y="23"
           width="1"
           height="1"
           id="rect3695" />
        <rect
           x="6"
           y="23"
           width="4"
           height="1"
           id="rect3697" />
        <rect
           x="11"
           y="23"
           width="1"
           height="1"
           id="rect3699" />
        <rect
           x="13"
           y="23"
           width="1"
           height="1"
           id="rect3701" />
        <rect
           x="15"
           y="23"
           width="2"
           height="1"
           id="rect3703" />
        <rect
           x="18"
           y="23"
           width="2"
           height="1"
           id="rect3705" />
        <rect
           x="22"
           y="23"
           width="1"
           height="1"
           id="rect3707" />
        <rect
           x="24"
           y="23"
           width="1"
           height="1"
           id="rect3709" />
        <rect
           x="26"
           y="23"
           width="2"
           height="1"
           id="rect3711" />
        <rect
           x="30"
           y="23"
           width="4"
           height="1"
           id="rect3713" />
        <rect
           x="1"
           y="24"
           width="1"
           height="1"
           id="rect3715" />
        <rect
           x="3"
           y="24"
           width="2"
           height="1"
           id="rect3717" />
        <rect
           x="6"
           y="24"
           width="1"
           height="1"
           id="rect3719" />
        <rect
           x="8"
           y="24"
           width="2"
           height="1"
           id="rect3721" />
        <rect
           x="15"
           y="24"
           width="1"
           height="1"
           id="rect3723" />
        <rect
           x="18"
           y="24"
           width="4"
           height="1"
           id="rect3725" />
        <rect
           x="24"
           y="24"
           width="1"
           height="1"
           id="rect3727" />
        <rect
           x="26"
           y="24"
           width="1"
           height="1"
           id="rect3729" />
        <rect
           x="28"
           y="24"
           width="1"
           height="1"
           id="rect3731" />
        <rect
           x="31"
           y="24"
           width="1"
           height="1"
           id="rect3733" />
        <rect
           x="1"
           y="25"
           width="3"
           height="1"
           id="rect3735" />
        <rect
           x="5"
           y="25"
           width="1"
           height="1"
           id="rect3737" />
        <rect
           x="7"
           y="25"
           width="2"
           height="1"
           id="rect3739" />
        <rect
           x="11"
           y="25"
           width="1"
           height="1"
           id="rect3741" />
        <rect
           x="14"
           y="25"
           width="4"
           height="1"
           id="rect3743" />
        <rect
           x="20"
           y="25"
           width="2"
           height="1"
           id="rect3745" />
        <rect
           x="25"
           y="25"
           width="6"
           height="1"
           id="rect3747" />
        <rect
           x="32"
           y="25"
           width="1"
           height="1"
           id="rect3749" />
        <rect
           x="9"
           y="26"
           width="1"
           height="1"
           id="rect3751" />
        <rect
           x="13"
           y="26"
           width="1"
           height="1"
           id="rect3753" />
        <rect
           x="16"
           y="26"
           width="4"
           height="1"
           id="rect3755" />
        <rect
           x="22"
           y="26"
           width="1"
           height="1"
           id="rect3757" />
        <rect
           x="25"
           y="26"
           width="1"
           height="1"
           id="rect3759" />
        <rect
           x="29"
           y="26"
           width="2"
           height="1"
           id="rect3761" />
        <rect
           x="32"
           y="26"
           width="1"
           height="1"
           id="rect3763" />
        <rect
           x="1"
           y="27"
           width="7"
           height="1"
           id="rect3765" />
        <rect
           x="10"
           y="27"
           width="1"
           height="1"
           id="rect3767" />
        <rect
           x="15"
           y="27"
           width="2"
           height="1"
           id="rect3769" />
        <rect
           x="18"
           y="27"
           width="5"
           height="1"
           id="rect3771" />
        <rect
           x="24"
           y="27"
           width="2"
           height="1"
           id="rect3773" />
        <rect
           x="27"
           y="27"
           width="1"
           height="1"
           id="rect3775" />
        <rect
           x="29"
           y="27"
           width="2"
           height="1"
           id="rect3777" />
        <rect
           x="1"
           y="28"
           width="1"
           height="1"
           id="rect3779" />
        <rect
           x="7"
           y="28"
           width="1"
           height="1"
           id="rect3781" />
        <rect
           x="13"
           y="28"
           width="4"
           height="1"
           id="rect3783" />
        <rect
           x="21"
           y="28"
           width="1"
           height="1"
           id="rect3785" />
        <rect
           x="24"
           y="28"
           width="2"
           height="1"
           id="rect3787" />
        <rect
           x="29"
           y="28"
           width="4"
           height="1"
           id="rect3789" />
        <rect
           x="1"
           y="29"
           width="1"
           height="1"
           id="rect3791" />
        <rect
           x="3"
           y="29"
           width="3"
           height="1"
           id="rect3793" />
        <rect
           x="7"
           y="29"
           width="1"
           height="1"
           id="rect3795" />
        <rect
           x="9"
           y="29"
           width="2"
           height="1"
           id="rect3797" />
        <rect
           x="12"
           y="29"
           width="2"
           height="1"
           id="rect3799" />
        <rect
           x="16"
           y="29"
           width="3"
           height="1"
           id="rect3801" />
        <rect
           x="20"
           y="29"
           width="2"
           height="1"
           id="rect3803" />
        <rect
           x="23"
           y="29"
           width="8"
           height="1"
           id="rect3805" />
        <rect
           x="1"
           y="30"
           width="1"
           height="1"
           id="rect3807" />
        <rect
           x="3"
           y="30"
           width="3"
           height="1"
           id="rect3809" />
        <rect
           x="7"
           y="30"
           width="1"
           height="1"
           id="rect3811" />
        <rect
           x="9"
           y="30"
           width="1"
           height="1"
           id="rect3813" />
        <rect
           x="11"
           y="30"
           width="2"
           height="1"
           id="rect3815" />
        <rect
           x="16"
           y="30"
           width="1"
           height="1"
           id="rect3817" />
        <rect
           x="20"
           y="30"
           width="2"
           height="1"
           id="rect3819" />
        <rect
           x="26"
           y="30"
           width="1"
           height="1"
           id="rect3821" />
        <rect
           x="30"
           y="30"
           width="4"
           height="1"
           id="rect3823" />
        <rect
           x="1"
           y="31"
           width="1"
           height="1"
           id="rect3825" />
        <rect
           x="3"
           y="31"
           width="3"
           height="1"
           id="rect3827" />
        <rect
           x="7"
           y="31"
           width="1"
           height="1"
           id="rect3829" />
        <rect
           x="10"
           y="31"
           width="2"
           height="1"
           id="rect3831" />
        <rect
           x="13"
           y="31"
           width="4"
           height="1"
           id="rect3833" />
        <rect
           x="20"
           y="31"
           width="1"
           height="1"
           id="rect3835" />
        <rect
           x="22"
           y="31"
           width="2"
           height="1"
           id="rect3837" />
        <rect
           x="26"
           y="31"
           width="1"
           height="1"
           id="rect3839" />
        <rect
           x="29"
           y="31"
           width="1"
           height="1"
           id="rect3841" />
        <rect
           x="32"
           y="31"
           width="2"
           height="1"
           id="rect3843" />
        <rect
           x="1"
           y="32"
           width="1"
           height="1"
           id="rect3845" />
        <rect
           x="7"
           y="32"
           width="1"
           height="1"
           id="rect3847" />
        <rect
           x="9"
           y="32"
           width="2"
           height="1"
           id="rect3849" />
        <rect
           x="12"
           y="32"
           width="1"
           height="1"
           id="rect3851" />
        <rect
           x="14"
           y="32"
           width="1"
           height="1"
           id="rect3853" />
        <rect
           x="16"
           y="32"
           width="1"
           height="1"
           id="rect3855" />
        <rect
           x="20"
           y="32"
           width="2"
           height="1"
           id="rect3857" />
        <rect
           x="27"
           y="32"
           width="2"
           height="1"
           id="rect3859" />
        <rect
           x="30"
           y="32"
           width="4"
           height="1"
           id="rect3861" />
        <rect
           x="1"
           y="33"
           width="7"
           height="1"
           id="rect3863" />
        <rect
           x="9"
           y="33"
           width="1"
           height="1"
           id="rect3865" />
        <rect
           x="12"
           y="33"
           width="1"
           height="1"
           id="rect3867" />
        <rect
           x="14"
           y="33"
           width="1"
           height="1"
           id="rect3869" />
        <rect
           x="17"
           y="33"
           width="2"
           height="1"
           id="rect3871" />
        <rect
           x="20"
           y="33"
           width="1"
           height="1"
           id="rect3873" />
        <rect
           x="24"
           y="33"
           width="3"
           height="1"
           id="rect3875" />
        <rect
           x="29"
           y="33"
           width="2"
           height="1"
           id="rect3877" />
      </g>
    </g>
  </g>
</svg>
