<?xml version="1.0" encoding="UTF-8" standalone="no"?>
<!-- Created with Inkscape (http://www.inkscape.org/) -->

<svg
   xmlns:dc="http://purl.org/dc/elements/1.1/"
   xmlns:cc="http://creativecommons.org/ns#"
   xmlns:rdf="http://www.w3.org/1999/02/22-rdf-syntax-ns#"
   xmlns:svg="http://www.w3.org/2000/svg"
   xmlns="http://www.w3.org/2000/svg"
   xmlns:xlink="http://www.w3.org/1999/xlink"
   xmlns:sodipodi="http://sodipodi.sourceforge.net/DTD/sodipodi-0.dtd"
   xmlns:inkscape="http://www.inkscape.org/namespaces/inkscape"
   version="1.0"
   width="992.12598"
   height="720"
   id="svg2"
   inkscape:version="0.48.0 r9654"
   sodipodi:docname="DFD_wallpaper-impress-2011.svg"
   inkscape:export-filename="/home/deneb/eventi/dfd2011/svg-2011/DFD_wallpaper-impress-2011.png"
   inkscape:export-xdpi="90"
   inkscape:export-ydpi="90">
  <metadata
     id="metadata30">
    <rdf:RDF>
      <cc:Work
         rdf:about="">
        <dc:format>image/svg+xml</dc:format>
        <dc:type
           rdf:resource="http://purl.org/dc/dcmitype/StillImage" />
        <dc:title></dc:title>
      </cc:Work>
    </rdf:RDF>
  </metadata>
  <sodipodi:namedview
     pagecolor="#ffffff"
     bordercolor="#666666"
     borderopacity="1"
     objecttolerance="10"
     gridtolerance="10"
     guidetolerance="10"
     inkscape:pageopacity="0"
     inkscape:pageshadow="2"
     inkscape:window-width="1024"
     inkscape:window-height="527"
     id="namedview28"
     showgrid="false"
     inkscape:zoom="0.31983554"
     inkscape:cx="870.53296"
     inkscape:cy="529.19703"
     inkscape:window-x="0"
     inkscape:window-y="24"
     inkscape:window-maximized="1"
     inkscape:current-layer="svg2"
     inkscape:document-units="cm"
     units="cm" />
  <defs
     id="defs4">
    <inkscape:perspective
       sodipodi:type="inkscape:persp3d"
       inkscape:vp_x="0 : 526.18109 : 1"
       inkscape:vp_y="0 : 1000 : 0"
       inkscape:vp_z="744.09448 : 526.18109 : 1"
       inkscape:persp3d-origin="372.04724 : 350.78739 : 1"
       id="perspective32" />
    <linearGradient
       x1="63.805325"
       y1="204.80933"
       x2="63.369431"
       y2="169.65012"
       id="linearGradient7094"
       xlink:href="#linearGradient3161"
       gradientUnits="userSpaceOnUse"
       gradientTransform="translate(394.34913,-414.11768)" />
    <linearGradient
       x1="63.805325"
       y1="204.80933"
       x2="63.369431"
       y2="169.65012"
       id="linearGradient7092"
       xlink:href="#linearGradient3161"
       gradientUnits="userSpaceOnUse"
       gradientTransform="translate(394.34913,155.34583)" />
    <linearGradient
       id="linearGradient3161">
      <stop
         style="stop-color:#c3d9ff;stop-opacity:1"
         offset="0"
         id="stop3163" />
      <stop
         style="stop-color:#c3d9ff;stop-opacity:0"
         offset="1"
         id="stop3165" />
    </linearGradient>
    <linearGradient
       x1="63.805325"
       y1="204.80933"
       x2="63.369431"
       y2="169.65012"
       id="linearGradient2216"
       xlink:href="#linearGradient3161"
       gradientUnits="userSpaceOnUse"
       gradientTransform="matrix(2.0979442,0,0,2.0979442,-471.41354,-25.360228)" />
    <linearGradient
       x1="63.805325"
       y1="204.80933"
       x2="63.369431"
       y2="169.65012"
       id="linearGradient2218"
       xlink:href="#linearGradient3161"
       gradientUnits="userSpaceOnUse"
       gradientTransform="matrix(2.0979442,0,0,2.0979442,-471.41354,-517.52866)" />
    <inkscape:perspective
       id="perspective5092"
       inkscape:persp3d-origin="0.5 : 0.33333333 : 1"
       inkscape:vp_z="1 : 0.5 : 1"
       inkscape:vp_y="0 : 1000 : 0"
       inkscape:vp_x="0 : 0.5 : 1"
       sodipodi:type="inkscape:persp3d" />
    <inkscape:perspective
       id="perspective5092-4"
       inkscape:persp3d-origin="0.5 : 0.33333333 : 1"
       inkscape:vp_z="1 : 0.5 : 1"
       inkscape:vp_y="0 : 1000 : 0"
       inkscape:vp_x="0 : 0.5 : 1"
       sodipodi:type="inkscape:persp3d" />
    <linearGradient
       inkscape:collect="always"
       xlink:href="#linearGradient3161"
       id="linearGradient5715"
       gradientUnits="userSpaceOnUse"
       gradientTransform="matrix(2.0979442,0,0,2.0979442,-471.41354,-25.360228)"
       x1="63.805325"
       y1="204.80933"
       x2="63.369431"
       y2="169.65012" />
    <linearGradient
       inkscape:collect="always"
       xlink:href="#linearGradient3161"
       id="linearGradient5717"
       gradientUnits="userSpaceOnUse"
       gradientTransform="matrix(2.0979442,0,0,2.0979442,-471.41354,-517.52866)"
       x1="63.805325"
       y1="204.80933"
       x2="63.369431"
       y2="169.65012" />
    <inkscape:perspective
       id="perspective4813"
       inkscape:persp3d-origin="0.5 : 0.33333333 : 1"
       inkscape:vp_z="1 : 0.5 : 1"
       inkscape:vp_y="0 : 1000 : 0"
       inkscape:vp_x="0 : 0.5 : 1"
       sodipodi:type="inkscape:persp3d" />
    <radialGradient
       inkscape:collect="always"
       xlink:href="#linearGradient4352"
       id="radialGradient4767"
       gradientUnits="userSpaceOnUse"
       gradientTransform="matrix(2.71129,-3.690706,3.3628091,3.8962979,-3890.5027,-907.59261)"
       cx="313.43893"
       cy="663.65607"
       fx="313.43893"
       fy="663.65607"
       r="132.9715" />
    <linearGradient
       id="linearGradient4352">
      <stop
         style="stop-color:#ffff4f;stop-opacity:0.82745099;"
         offset="0"
         id="stop4354" />
      <stop
         style="stop-color:#42b30b;stop-opacity:0;"
         offset="1"
         id="stop4356" />
    </linearGradient>
    <filter
       id="filter3677"
       inkscape:label="Fuzzy Glow"
       inkscape:menu="Shadows and Glows"
       inkscape:menu-tooltip="Overlays a semi-transparent shifted copy to a blurred one"
       color-interpolation-filters="sRGB">
      <feOffset
         id="feOffset3679"
         dx="4"
         dy="4"
         result="result11"
         in="SourceGraphic" />
      <feGaussianBlur
         id="feGaussianBlur3681"
         stdDeviation="4"
         result="result8" />
      <feComposite
         id="feComposite3683"
         in2="result8"
         result="result9"
         in="SourceGraphic"
         operator="in" />
      <feBlend
         id="feBlend3685"
         in2="result8"
         in="result9"
         mode="darken" />
    </filter>
    <linearGradient
       inkscape:collect="always"
       xlink:href="#linearGradient4364"
       id="linearGradient4762"
       gradientUnits="userSpaceOnUse"
       gradientTransform="matrix(1.0260702,0,0,1,-1138.7912,-231.55694)"
       x1="248.9016"
       y1="319.79956"
       x2="287.28848"
       y2="526.40344" />
    <linearGradient
       id="linearGradient4364">
      <stop
         style="stop-color:#ffffff;stop-opacity:1;"
         offset="0"
         id="stop4366" />
      <stop
         style="stop-color:#42b30b;stop-opacity:0;"
         offset="1"
         id="stop4368" />
    </linearGradient>
    <linearGradient
       inkscape:collect="always"
       xlink:href="#linearGradient3161"
       id="linearGradient5052"
       gradientUnits="userSpaceOnUse"
       gradientTransform="matrix(2.0979442,0,0,2.0979442,-471.41354,-25.360228)"
       x1="63.805325"
       y1="204.80933"
       x2="63.369431"
       y2="169.65012" />
    <linearGradient
       inkscape:collect="always"
       xlink:href="#linearGradient3161"
       id="linearGradient5054"
       gradientUnits="userSpaceOnUse"
       gradientTransform="matrix(2.0979442,0,0,2.0979442,-471.41354,-517.52866)"
       x1="63.805325"
       y1="204.80933"
       x2="63.369431"
       y2="169.65012" />
    <linearGradient
       inkscape:collect="always"
       xlink:href="#linearGradient3161"
       id="linearGradient5062"
       gradientUnits="userSpaceOnUse"
       gradientTransform="matrix(2.0979442,0,0,2.0979442,-427.49372,-1203.8914)"
       x1="63.805325"
       y1="204.80933"
       x2="63.369431"
       y2="169.65012" />
    <linearGradient
       inkscape:collect="always"
       xlink:href="#linearGradient3161"
       id="linearGradient5065"
       gradientUnits="userSpaceOnUse"
       gradientTransform="matrix(2.0979442,0,0,2.0979442,-427.49372,661.00247)"
       x1="63.805325"
       y1="204.80933"
       x2="63.369431"
       y2="169.65012" />
    <inkscape:perspective
       id="perspective5075"
       inkscape:persp3d-origin="0.5 : 0.33333333 : 1"
       inkscape:vp_z="1 : 0.5 : 1"
       inkscape:vp_y="0 : 1000 : 0"
       inkscape:vp_x="0 : 0.5 : 1"
       sodipodi:type="inkscape:persp3d" />
    <linearGradient
       id="linearGradient4352-8">
      <stop
         style="stop-color:#ffff4f;stop-opacity:0.82745099;"
         offset="0"
         id="stop4354-5" />
      <stop
         style="stop-color:#42b30b;stop-opacity:0;"
         offset="1"
         id="stop4356-3" />
    </linearGradient>
    <filter
       id="filter3677-9"
       inkscape:label="Fuzzy Glow"
       inkscape:menu="Shadows and Glows"
       inkscape:menu-tooltip="Overlays a semi-transparent shifted copy to a blurred one"
       color-interpolation-filters="sRGB">
      <feOffset
         id="feOffset3679-4"
         dx="4"
         dy="4"
         result="result11"
         in="SourceGraphic" />
      <feGaussianBlur
         id="feGaussianBlur3681-1"
         stdDeviation="4"
         result="result8" />
      <feComposite
         id="feComposite3683-5"
         in2="result8"
         result="result9"
         in="SourceGraphic"
         operator="in" />
      <feBlend
         id="feBlend3685-4"
         in2="result8"
         in="result9"
         mode="darken" />
    </filter>
    <linearGradient
       id="linearGradient4364-5">
      <stop
         style="stop-color:#ffffff;stop-opacity:1;"
         offset="0"
         id="stop4366-5" />
      <stop
         style="stop-color:#42b30b;stop-opacity:0;"
         offset="1"
         id="stop4368-4" />
    </linearGradient>
    <inkscape:perspective
       id="perspective5169"
       inkscape:persp3d-origin="0.5 : 0.33333333 : 1"
       inkscape:vp_z="1 : 0.5 : 1"
       inkscape:vp_y="0 : 1000 : 0"
       inkscape:vp_x="0 : 0.5 : 1"
       sodipodi:type="inkscape:persp3d" />
    <radialGradient
       inkscape:collect="always"
       xlink:href="#linearGradient4352-0"
       id="radialGradient4767-9"
       gradientUnits="userSpaceOnUse"
       gradientTransform="matrix(2.71129,-3.690706,3.3628091,3.8962979,-3890.5027,-907.59261)"
       cx="313.43893"
       cy="663.65607"
       fx="313.43893"
       fy="663.65607"
       r="132.9715" />
    <linearGradient
       id="linearGradient4352-0">
      <stop
         style="stop-color:#ffff4f;stop-opacity:0.82745099;"
         offset="0"
         id="stop4354-8" />
      <stop
         style="stop-color:#42b30b;stop-opacity:0;"
         offset="1"
         id="stop4356-9" />
    </linearGradient>
    <filter
       id="filter3677-3"
       inkscape:label="Fuzzy Glow"
       inkscape:menu="Shadows and Glows"
       inkscape:menu-tooltip="Overlays a semi-transparent shifted copy to a blurred one"
       color-interpolation-filters="sRGB">
      <feOffset
         id="feOffset3679-1"
         dx="4"
         dy="4"
         result="result11"
         in="SourceGraphic" />
      <feGaussianBlur
         id="feGaussianBlur3681-4"
         stdDeviation="4"
         result="result8" />
      <feComposite
         id="feComposite3683-8"
         in2="result8"
         result="result9"
         in="SourceGraphic"
         operator="in" />
      <feBlend
         id="feBlend3685-9"
         in2="result8"
         in="result9"
         mode="darken" />
    </filter>
    <linearGradient
       inkscape:collect="always"
       xlink:href="#linearGradient4364-7"
       id="linearGradient4762-6"
       gradientUnits="userSpaceOnUse"
       gradientTransform="matrix(1.0260702,0,0,1,-1138.7912,-231.55694)"
       x1="248.9016"
       y1="319.79956"
       x2="287.28848"
       y2="526.40344" />
    <linearGradient
       id="linearGradient4364-7">
      <stop
         style="stop-color:#ffffff;stop-opacity:1;"
         offset="0"
         id="stop4366-7" />
      <stop
         style="stop-color:#42b30b;stop-opacity:0;"
         offset="1"
         id="stop4368-3" />
    </linearGradient>
    <linearGradient
       inkscape:collect="always"
       xlink:href="#linearGradient4364-7"
       id="linearGradient5299"
       gradientUnits="userSpaceOnUse"
       gradientTransform="matrix(4.110663,0,0,3.9843324,-828.09241,-1593.8768)"
       x1="214.67419"
       y1="299.3967"
       x2="283.48544"
       y2="493.44498" />
    <radialGradient
       inkscape:collect="always"
       xlink:href="#linearGradient4352-0"
       id="radialGradient5304"
       gradientUnits="userSpaceOnUse"
       gradientTransform="matrix(19.227652,-8.2287633,15.182282,10.965855,-14523.236,-3870.9775)"
       cx="313.83545"
       cy="663.15387"
       fx="313.83545"
       fy="663.15387"
       r="132.9715" />
    <inkscape:perspective
       id="perspective5334"
       inkscape:persp3d-origin="0.5 : 0.33333333 : 1"
       inkscape:vp_z="1 : 0.5 : 1"
       inkscape:vp_y="0 : 1000 : 0"
       inkscape:vp_x="0 : 0.5 : 1"
       sodipodi:type="inkscape:persp3d" />
    <inkscape:perspective
       id="perspective4442"
       inkscape:persp3d-origin="0.5 : 0.33333333 : 1"
       inkscape:vp_z="1 : 0.5 : 1"
       inkscape:vp_y="0 : 1000 : 0"
       inkscape:vp_x="0 : 0.5 : 1"
       sodipodi:type="inkscape:persp3d" />
    <radialGradient
       inkscape:collect="always"
       xlink:href="#linearGradient4352-8"
       id="radialGradient2933"
       gradientUnits="userSpaceOnUse"
       gradientTransform="matrix(2.71129,-3.690706,3.3628091,3.8962979,-3890.5027,-907.59261)"
       cx="313.43893"
       cy="663.65607"
       fx="313.43893"
       fy="663.65607"
       r="132.9715" />
    <linearGradient
       inkscape:collect="always"
       xlink:href="#linearGradient4364-5"
       id="linearGradient2935"
       gradientUnits="userSpaceOnUse"
       gradientTransform="matrix(1.0260702,0,0,1,-1138.7912,-231.55694)"
       x1="248.9016"
       y1="319.79956"
       x2="287.28848"
       y2="526.40344" />
  </defs>
  <rect
     style="fill:#42b30b;fill-opacity:1;stroke:none"
     id="rect4302-7"
     width="991.86584"
     height="721.37036"
     x="0.065921143"
     y="1.0290536" />
  <rect
     style="fill:url(#radialGradient5304);fill-opacity:1;stroke:none"
     id="rect4302-5"
     width="983.08783"
     height="703.90515"
     x="1087.7294"
     y="6.7482581" />
  <g
     id="g3711"
     transform="translate(6.2532138,37.519283)">
    <path
       d="m 868.78174,471.11842 c 0,0 -5.53986,6.07206 -5.53986,6.07206 -9.86617,-29.08639 -28.17511,-48.68363 -51.69912,-60.71664 0,0 84.99002,-65.995 84.99002,-65.995 -22.77725,38.38317 -27.8539,93.79205 -27.75104,120.63958 z m 51.455,-54.45752 c 0,0 -19.02936,2.76746 -29.52896,33.57634 -8.98772,26.364 -16.85035,36.17735 -24.19483,44.28717 0,0 -104.68266,108.97777 -104.68266,108.97777 0,0 -17.97005,16.6623 -39.64493,22.81973 -29.75876,8.45709 -88.68527,18.00018 -106.98786,20.18628 -18.29925,2.18796 -5.82075,12.74958 13.71567,24.38298 19.53488,11.63522 22.44781,17.38806 61.46175,-3.69441 39.01235,-21.08428 76.37314,-1.72656 156.33845,-24.70064 79.96299,-22.9722 96.21169,-86.97161 94.75311,-133.97344 -1.45865,-47.00444 4.45749,-57.23177 9.16154,-61.21405 4.70417,-3.98029 22.298,-9.43713 22.298,-9.43713 0,0 -20.6193,-6.70468 -20.6193,-6.70468 0,0 -2.49666,-3.72905 -11.1703,-10.41629 -8.67539,-6.68709 -20.89968,-4.08963 -20.89968,-4.08963 z M 752.66512,587.66133 c -36.0544,-47.74331 -89.83602,-63.86684 -149.5285,-53.84393 0,0 102.91922,-116.49798 102.91922,-116.49798 59.89,-9.38872 127.38197,5.27318 145.80991,69.66174 0,0 -97.08993,103.55129 -97.08993,103.55129 0,0 -1.36376,-1.88272 -2.1107,-2.87112 z"
       style="fill:#ffffff;fill-opacity:0.07936509"
       id="path2172" />
    <path
       d="m 911.36724,544.83233 c 0,0 -3.3114,3.6295 -3.3114,3.6295 -5.89744,-17.38601 -16.84134,-29.10006 -30.90259,-36.29264 0,0 50.80175,-39.44775 50.80175,-39.44775 -13.6148,22.94309 -16.64933,56.0631 -16.58776,72.11089 z M 942.1238,512.281 c 0,0 -11.3746,1.65421 -17.65064,20.06988 -5.37226,15.75875 -10.07212,21.62459 -14.4621,26.47212 0,0 -62.5729,65.14023 -62.5729,65.14023 0,0 -10.74135,9.95963 -23.69722,13.64017 -17.788,5.05517 -53.01062,10.75941 -63.95078,12.06614 -10.93812,1.30781 -3.47928,7.62089 8.19841,14.57465 11.67673,6.95483 13.41791,10.39351 36.73801,-2.2083 23.3192,-12.60289 45.65118,-1.03202 93.44949,-14.76451 47.79689,-13.73142 57.50945,-51.9863 56.63762,-80.08107 -0.87183,-28.09638 2.66438,-34.20963 5.4762,-36.59 2.81182,-2.37919 13.32835,-5.64091 13.32835,-5.64091 0,0 -12.32494,-4.00765 -12.32494,-4.00765 0,0 -1.49234,-2.229 -6.67689,-6.22623 -5.18557,-3.99712 -12.49255,-2.44452 -12.49255,-2.44452 z M 841.95987,614.49451 c -21.55112,-28.53799 -53.69847,-38.17567 -89.37898,-32.1846 0,0 61.51874,-69.63529 61.51874,-69.63529 35.7986,-5.612 76.14119,3.15198 87.15623,41.63951 0,0 -58.03441,61.89657 -58.03441,61.89657 0,0 -0.81519,-1.12542 -1.26158,-1.71619 z"
       style="fill:#ffffff;fill-opacity:0.21960784"
       id="path4190" />
  </g>
  <path
     d="m 1169.7656,108.00948 c -0.7563,0 -0.9282,0.24064 -0.9282,0.65318 l 0,23.41118 4.2972,0 c 4.2285,0 6.7037,-3.19712 6.7037,-13.5448 0,-8.07875 -2.2346,-10.51956 -6.7381,-10.51956 l -3.3346,0 m 6.8755,10.51956 c 0,9.52261 -1.6845,10.89773 -3.4721,10.89773 l -1.547,-0.0346 0,-18.80459 1.5814,0 c 2.3033,0 3.4377,1.5814 3.4377,7.94126 m 4.8032,4.95035 c 0,7.73499 1.8564,9.17886 5.4661,9.17886 3.6096,0 5.5692,-2.88771 5.5692,-9.28197 0,-6.97869 -1.7533,-8.97257 -5.3629,-8.97257 -3.5753,0 -5.6724,2.78458 -5.6724,9.07568 m 3.0253,0.0688 c 0,-5.36293 1.0657,-6.73805 2.5783,-6.73805 1.6158,0 2.4064,1.13447 2.4064,6.60056 0,5.36289 -1.0657,6.87552 -2.5439,6.87552 -1.5814,0 -2.4408,-1.0657 -2.4408,-6.73803 m 18.9469,-7.97563 c 0,-0.51565 -1.4438,-1.20323 -2.8533,-1.20323 -2.8534,0 -6.188,1.10011 -6.188,9.48826 0,7.8725 1.8564,8.76632 5.7067,8.76632 1.6845,0 3.2659,-0.89382 3.2659,-1.58139 0,-0.41253 -0.1032,-1.10007 -0.2751,-1.71889 -0.6531,0.41253 -1.7532,0.7907 -2.6814,0.7907 -2.1314,0 -3.094,-0.72194 -3.094,-6.25674 0,-6.11922 1.7876,-7.01304 3.5065,-7.01304 0.9626,0 1.7189,0.30941 2.3033,0.61878 0.2063,-0.58442 0.3094,-1.44384 0.3094,-1.89077 m 12.4276,15.91689 c -1.3064,0.72193 -3.2659,1.10005 -5.1223,1.10005 -4.5379,0 -5.1567,-2.09699 -5.1567,-6.32545 l 0,-10.82901 c 0,-0.55001 0,-0.55001 2.8877,-0.55001 l 0,11.5165 c 0,2.71586 0.3438,3.74716 2.1658,3.74716 0.7564,0 1.7189,-0.17189 2.4409,-0.65317 l 0,-14.06048 c 0,-0.55001 -0.069,-0.55001 2.7846,-0.55001 l 0,16.60442 m 3.2186,-15.98565 c 1.5126,-0.72194 3.3002,-1.13447 5.191,-1.13447 1.4095,0 2.372,0.37817 3.0252,1.06571 1.1689,-0.68754 2.7159,-1.06571 3.9191,-1.06571 3.9878,0 4.2284,1.5814 4.2284,6.32551 l 0,10.79461 c 0,0.58441 0.1031,0.58441 -2.7846,0.58441 l 0,-11.51655 c 0,-2.81894 -0.1031,-3.71276 -1.7876,-3.71276 -0.7219,0 -1.4438,0.20625 -2.2002,0.79066 l 0,3.67844 0,1.10006 0,9.07574 0,0.24064 c -0.034,0.0688 -0.034,0.17189 -0.1375,0.20624 0,0.0341 -0.035,0.0341 -0.069,0.0341 -0.1718,0.0688 -0.4812,0.10312 -1.0657,0.10312 l -1.5126,0 0,-11.51654 c 0,-2.64707 0,-3.74717 -1.6845,-3.74717 -0.7563,0 -1.547,0.17189 -2.3377,0.65317 l 0,14.02609 c 0,0.58445 0.069,0.58445 -2.7846,0.58445 l 0,-16.57005 m 24.9067,-1.13447 c -3.0597,0 -6.0849,1.0657 -6.0849,10.0039 0,7.01304 2.3033,8.21627 5.5004,8.21627 2.5784,0 4.7442,-0.82505 4.7442,-1.30634 0,-0.7563 -0.069,-1.95953 -0.2407,-2.47518 -1.1688,0.65313 -2.5439,1.0657 -4.1941,1.0657 -1.8564,0 -2.8189,-0.61881 -2.9221,-4.77851 1.6502,0 4.8129,-0.0688 7.185,-0.55006 0.275,-1.23758 0.3781,-2.99086 0.3781,-4.53786 0,-3.6784 -1.4782,-5.63792 -4.3659,-5.63792 m -0.3094,2.44081 c 1.4782,0 1.9251,1.03135 1.9595,3.50652 0,0.65318 -0.034,1.51264 -0.1719,2.13141 -1.2032,0.3438 -3.3346,0.41253 -4.6754,0.37817 0.2063,-4.77851 1.4783,-6.0161 2.8878,-6.0161 m 7.1274,-1.30634 c 1.3408,-0.61882 3.816,-1.13447 5.6723,-1.13447 4.1597,0 4.6067,1.58135 4.6067,6.3255 l 0,10.79457 c 0,0.58445 0.034,0.58445 -2.8878,0.58445 l 0,-11.51654 c 0,-2.71582 -0.2062,-3.74717 -2.0282,-3.74717 -0.7564,0 -1.8221,0.17189 -2.5784,0.65317 l 0,14.02609 c 0,0.58445 0.069,0.58445 -2.7846,0.58445 l 0,-16.57005 m 14.6041,11.68842 c 0,3.09398 0,5.43164 3.2659,5.43164 1.3407,0 2.9565,-0.275 2.9565,-1.10006 0,-0.68754 -0.1032,-1.44387 -0.2063,-1.82204 -0.722,0.3094 -1.0313,0.51569 -1.9939,0.51569 -1.2376,0 -1.2376,-1.23759 -1.2376,-2.71587 l 0,-10.21015 2.9565,0 c 0.55,0 0.55,-0.24065 0.55,-2.40645 l -3.5065,0 0,-6.18799 c -2.2689,0 -2.7846,0 -2.7846,0.96259 l 0,5.2254 -1.7533,0 c -0.5844,0 -0.6188,0.27505 -0.6188,2.40645 l 2.3721,0 0,9.90079 m 10.7951,4.88163 c 0.5844,0 0.5501,-0.58445 0.5501,-0.58445 l 0,-11.2415 4.641,0 c 0.5156,0 0.5156,-0.44689 0.5156,-2.54394 l -5.1566,0 0,-7.28805 5.466,0 c 0.5501,0 0.5501,-0.17192 0.5501,-2.40646 l -8.2507,0 c -0.55,0 -0.5844,0.55006 -0.5844,0.55006 l 0,23.51434 2.2689,0 m 7.9042,-16.15752 c 1.5814,-1.13448 2.9909,-1.547 4.6754,-1.547 1.7532,0 2.4064,0.41252 2.4064,1.27198 0,0.48129 -0.069,1.23759 -0.3094,1.822 -0.5156,-0.275 -0.9969,-0.41253 -1.6501,-0.41253 -0.7563,0 -1.6158,0.27502 -2.2689,0.92819 l -0.034,13.51043 c 0,0.58445 0.034,0.58445 -2.819,0.58445 l 0,-16.15752 m 13.9294,-1.547 c -3.0596,0 -6.0849,1.0657 -6.0849,10.0039 0,7.01304 2.3034,8.21627 5.5005,8.21627 2.5783,0 4.7441,-0.82505 4.7441,-1.30634 0,-0.7563 -0.069,-1.95953 -0.2406,-2.47518 -1.1689,0.65313 -2.544,1.0657 -4.1941,1.0657 -1.8564,0 -2.819,-0.61881 -2.9221,-4.77851 1.6501,0 4.8128,-0.0688 7.1849,-0.55006 0.2751,-1.23758 0.3782,-2.99086 0.3782,-4.53786 0,-3.6784 -1.4783,-5.63792 -4.366,-5.63792 m -0.3094,2.44081 c 1.4783,0 1.9251,1.03135 1.9596,3.50652 0,0.65318 -0.034,1.51264 -0.172,2.13141 -1.2032,0.3438 -3.3346,0.41253 -4.6753,0.37817 0.2062,-4.77851 1.4782,-6.0161 2.8877,-6.0161 m 12.3953,-2.44081 c -3.0596,0 -6.0848,1.0657 -6.0848,10.0039 0,7.01304 2.3033,8.21627 5.5004,8.21627 2.5783,0 4.7441,-0.82505 4.7441,-1.30634 0,-0.7563 -0.069,-1.95953 -0.2406,-2.47518 -1.1689,0.65313 -2.544,1.0657 -4.1941,1.0657 -1.8564,0 -2.819,-0.61881 -2.9221,-4.77851 1.6501,0 4.8129,-0.0688 7.1849,-0.55006 0.275,-1.23758 0.3782,-2.99086 0.3782,-4.53786 0,-3.6784 -1.4783,-5.63792 -4.366,-5.63792 m -0.3094,2.44081 c 1.4782,0 1.9252,1.03135 1.9595,3.50652 0,0.65318 -0.035,1.51264 -0.1718,2.13141 -1.2033,0.3438 -3.3347,0.41253 -4.6754,0.37817 0.2063,-4.77851 1.4782,-6.0161 2.8877,-6.0161 m 14.4156,-8.73191 c 0,-1.27199 0.5156,-1.27199 2.7845,-1.27199 l 0,24.75192 c -1.1688,0.68757 -2.7845,1.03134 -4.916,1.03134 -3.2658,0 -5.6035,-1.03134 -5.6035,-8.49127 0,-6.8068 2.3377,-9.7289 5.2941,-9.7289 1.0657,0 1.8564,0.27501 2.4409,0.68757 l 0,-6.97867 m 0,9.17881 c -0.4469,-0.34377 -0.8595,-0.4469 -1.5815,-0.4469 -1.5125,0 -3.0252,1.34075 -3.0252,6.97868 0,5.53481 0.9626,6.29111 2.5784,6.29111 0.7563,0 1.4782,-0.13753 2.0283,-0.51566 l 0,-12.30723 m 5.2844,6.22237 c 0,7.73498 1.8564,9.17885 5.4661,9.17885 3.6097,0 5.5692,-2.88775 5.5692,-9.28197 0,-6.97868 -1.7533,-8.97261 -5.3629,-8.97261 -3.5753,0 -5.6724,2.78463 -5.6724,9.07573 m 3.0253,0.0688 c 0,-5.36292 1.0657,-6.73804 2.5783,-6.73804 1.6158,0 2.4065,1.13448 2.4065,6.60052 0,5.36292 -1.0657,6.87555 -2.544,6.87555 -1.5814,0 -2.4408,-1.0657 -2.4408,-6.73803 m 10.4212,-8.04438 c 1.5127,-0.72194 3.3003,-1.13447 5.1911,-1.13447 1.4095,0 2.372,0.37817 3.0252,1.0657 1.1689,-0.68753 2.7159,-1.0657 3.9191,-1.0657 3.9878,0 4.2284,1.58135 4.2284,6.3255 l 0,10.79457 c 0,0.58445 0.1032,0.58445 -2.7846,0.58445 l 0,-11.51653 c 0,-2.81899 -0.1031,-3.71282 -1.7876,-3.71282 -0.7219,0 -1.4438,0.20629 -2.2002,0.7907 l 0,3.6784 0,1.10012 0,9.07568 0,0.24065 c -0.034,0.0688 -0.034,0.17192 -0.1375,0.20628 0,0.0342 -0.034,0.0342 -0.069,0.0342 -0.1719,0.0688 -0.4813,0.10311 -1.0657,0.10311 l -1.5126,0 0,-11.5165 c 0,-2.6471 0,-3.74716 -1.6846,-3.74716 -0.7563,0 -1.547,0.17189 -2.3376,0.65317 l 0,14.02608 c 0,0.58441 0.069,0.58441 -2.7846,0.58441 l 0,-16.57001 m 20.1969,-7.49433 c -0.7563,0 -0.9282,0.24064 -0.9282,0.65317 l 0,23.41117 4.2972,0 c 4.2285,0 6.7036,-3.19711 6.7036,-13.54479 0,-8.07874 -2.2345,-10.51955 -6.738,-10.51955 l -3.3346,0 m 6.8755,10.51955 c 0,9.52262 -1.6845,10.89773 -3.4721,10.89773 l -1.547,-0.0346 0,-18.80459 1.5814,0 c 2.3033,0 3.4377,1.58141 3.4377,7.94123 m 5.0095,-2.44081 c 0,-0.37813 0.069,-0.72195 0.3094,-0.89383 0.5156,-0.37813 2.819,-0.82506 6.0161,-0.82506 2.2345,0 3.5409,1.1001 3.5409,4.1941 l 0,1.99389 c 0,6.01609 -0.2063,10.89773 -0.2063,10.89773 -0.9282,0.58441 -2.5439,1.13446 -4.7785,1.13446 -2.5096,0.0341 -4.916,-0.17189 -4.916,-5.39729 0,-4.7785 2.2689,-5.63793 4.4691,-5.63793 0.8594,0 1.9251,0.10312 2.6127,0.4469 l 0,-2.88771 c 0,-1.61576 -0.7563,-2.02829 -1.822,-2.02829 -1.547,0 -3.7816,0.30937 -4.8473,0.79067 -0.3437,-0.58442 -0.3781,-1.547 -0.3781,-1.78764 m 7.0474,7.8725 c -0.4469,-0.24066 -1.1345,-0.30942 -1.6157,-0.30942 -1.3752,0 -2.544,0.48129 -2.544,3.50652 0,2.95652 0.8594,3.094 2.2002,3.094 0.6875,0 1.547,-0.20625 1.8564,-0.55001 0,0 0.1031,-3.26589 0.1031,-5.74109 m 4.6308,-8.3194 c -0.2063,-0.75633 -0.2063,-0.75633 2.7158,-0.75633 l 1.8908,8.1819 c 0.5844,2.75023 0.8938,5.67233 0.8938,5.67233 0,0 0.275,-2.88774 0.7907,-5.70668 l 1.547,-7.32245 c 0.1719,-0.8251 0.1719,-0.8251 3.0252,-0.8251 l -4.2284,18.11705 c -1.0313,4.36598 -2.2002,5.53481 -4.4004,5.53481 -2.3376,0 -3.1283,-0.58441 -3.1283,-1.30636 0,-0.51565 0.1718,-1.23758 0.4125,-1.61575 0.4813,0.30941 1.4095,0.55005 2.3033,0.55005 0.9626,0 1.7876,-0.72194 2.3033,-3.54088 l -4.1253,-16.98259"
     style="font-size:39.34436035px;font-style:normal;font-weight:normal;fill:#ffffff;fill-opacity:1;stroke:none;font-family:Bitstream Vera Sans"
     id="text4186"
     inkscape:connector-curvature="0" />
  <g
     transform="matrix(0.23100895,0,0,0.23100895,228.56392,603.76336)"
     id="g4792-9">
    <rect
       y="158.55865"
       x="-945.3526"
       height="316.88666"
       width="272.84488"
       id="rect4302-8"
       style="fill:#42b30b;fill-opacity:1;stroke:#000000;stroke-width:3.09833145;stroke-miterlimit:4;stroke-opacity:1;stroke-dasharray:none" />
    <rect
       y="163.50644"
       x="-940.40479"
       height="306.99124"
       width="262.94925"
       id="rect4302-5-3"
       style="fill:url(#radialGradient2933);fill-opacity:1;stroke:#000000;stroke-width:2.99375963;stroke-miterlimit:4;stroke-opacity:0.40528636;stroke-dasharray:none" />
    <text
       transform="matrix(1.0448642,0,0,0.85298961,-1113.516,-164.77468)"
       sodipodi:linespacing="125%"
       id="text2864-8"
       y="721.34418"
       x="181.00058"
       style="font-size:189.40989685px;font-style:italic;font-variant:normal;font-weight:bold;font-stretch:normal;text-align:start;line-height:125%;writing-mode:lr-tb;text-anchor:start;fill:#000000;fill-opacity:1;stroke:#ffffff;stroke-width:2;stroke-miterlimit:4;stroke-opacity:1;stroke-dasharray:none;filter:url(#filter3677-9);font-family:Yanone Kaffeesatz;-inkscape-font-specification:Yanone Kaffeesatz Bold Italic"
       xml:space="preserve"><tspan
         style="font-size:189.40989685px;font-style:italic;font-variant:normal;font-weight:bold;font-stretch:normal;text-align:start;line-height:125%;writing-mode:lr-tb;text-anchor:start;fill:#000000;fill-opacity:1;stroke:#ffffff;stroke-width:2;stroke-miterlimit:4;stroke-opacity:1;stroke-dasharray:none;font-family:Yanone Kaffeesatz;-inkscape-font-specification:Yanone Kaffeesatz Bold Italic"
         y="721.34418"
         x="181.00058"
         id="tspan2866-52"
         sodipodi:role="line">DFD</tspan></text>
    <path
       sodipodi:nodetypes="ccscc"
       id="path4362-2"
       d="m -934.18856,277.74722 c 0,-45.57736 1.45109,-70.08681 1.45109,-108.89443 77.09489,0 185.25367,0 237.97753,0 53.23712,0 -110.15658,29.47217 -150.91258,46.66903 -53.17785,4.2728 -66.62654,7.21904 -88.51604,62.2254 z"
       style="fill:url(#linearGradient2935);fill-opacity:1;stroke:none" />
    <path
       inkscape:export-ydpi="72.031548"
       inkscape:export-xdpi="72.031548"
       inkscape:export-filename="/home/ivan/Desktop/wiki.png"
       d="m -719.33161,229.20329 c 0,0 -1.5047,1.64926 -1.5047,1.64926 -2.67979,-7.9003 -7.65278,-13.22321 -14.04229,-16.49157 0,0 23.08459,-17.92523 23.08459,-17.92523 -6.18663,10.42545 -7.56556,25.47535 -7.5376,32.76754 z m 13.97597,-14.79149 c 0,0 -5.16867,0.75168 -8.02052,9.11984 -2.44119,7.16087 -4.57681,9.82633 -6.57167,12.02908 0,0 -28.43344,29.60004 -28.43344,29.60004 0,0 -4.88091,4.52572 -10.76815,6.19818 -8.08294,2.29708 -24.08828,4.88912 -29.05954,5.48291 -4.97036,0.59427 -1.58101,3.46298 3.72539,6.62279 5.30597,3.1603 6.09717,4.72286 16.69395,-1.00346 10.59635,-5.72682 20.74413,-0.46896 42.4639,-6.70907 21.71917,-6.23962 26.13258,-23.62284 25.7364,-36.38925 -0.39617,-12.76712 1.21073,-15.54502 2.48842,-16.62667 1.27771,-1.0811 6.05647,-2.56327 6.05647,-2.56327 0,0 -5.60053,-1.8211 -5.60053,-1.8211 0,0 -0.67811,-1.01286 -3.03401,-2.82922 -2.35635,-1.81631 -5.67667,-1.1108 -5.67667,-1.1108 z m -45.515,46.44633 c -9.79293,-12.96781 -24.40085,-17.34721 -40.61425,-14.62484 0,0 27.95445,-31.64263 27.95445,-31.64263 16.26705,-2.55012 34.5989,1.43228 39.60419,18.92118 0,0 -26.3711,28.12613 -26.3711,28.12613 0,0 -0.37044,-0.51138 -0.57329,-0.77984 z"
       style="fill:#ffffff;fill-opacity:1"
       id="path4190-8-2" />
    <path
       inkscape:export-ydpi="72.031548"
       inkscape:export-xdpi="72.031548"
       inkscape:export-filename="/home/ivan/Desktop/wiki.png"
       d="m -819.01733,274.86695 c 0,0 -1.18565,1.29955 -1.18565,1.29955 -2.11156,-6.22511 -6.03007,-10.41934 -11.06474,-12.99467 0,0 18.1897,-14.12435 18.1897,-14.12435 -4.87481,8.21483 -5.96135,20.07353 -5.93931,25.81947 z m 11.01248,-11.65508 c 0,0 -4.0727,0.59229 -6.31984,7.18606 -1.92355,5.64246 -3.60633,7.74274 -5.1782,9.47841 0,0 -22.40437,23.32361 -22.40437,23.32361 0,0 -3.84596,3.56608 -8.48487,4.8839 -6.36902,1.81001 -18.98056,3.85243 -22.89771,4.32031 -3.91644,0.46826 -1.24577,2.72869 2.93545,5.21848 4.18089,2.49019 4.80432,3.72142 13.15414,-0.79068 8.34949,-4.5125 16.34553,-0.36952 33.4598,-5.28647 17.11381,-4.91656 20.59139,-18.61382 20.27922,-28.67322 -0.31216,-10.05996 0.95401,-12.24883 1.96077,-13.10113 1.00679,-0.85186 4.77225,-2.01975 4.77225,-2.01975 0,0 -4.41299,-1.43495 -4.41299,-1.43495 0,0 -0.53432,-0.79809 -2.39067,-2.22931 -1.85671,-1.43117 -4.47298,-0.87526 -4.47298,-0.87526 z m -35.86393,36.59778 c -7.71644,-10.21809 -19.22687,-13.66888 -32.00236,-11.52377 0,0 22.02695,-24.93308 22.02695,-24.93308 12.81777,-2.00938 27.26251,1.12858 31.20647,14.90911 0,0 -20.77933,22.16222 -20.77933,22.16222 0,0 -0.2919,-0.40294 -0.45173,-0.61448 z"
       style="fill:#ffffff;fill-opacity:1"
       id="path4190-1-7" />
    <path
       inkscape:export-ydpi="72.031548"
       inkscape:export-xdpi="72.031548"
       inkscape:export-filename="/home/ivan/Desktop/wiki.png"
       d="m -807.49064,210.62325 c 0,0 -1.07929,1.18297 -1.07929,1.18297 -1.92216,-5.66671 -5.48917,-9.48471 -10.07223,-11.82904 0,0 16.55807,-12.85738 16.55807,-12.85738 -4.43753,7.47796 -5.42661,18.27292 -5.40655,23.50345 z m 10.02465,-10.6096 c 0,0 -3.70737,0.53915 -5.75294,6.54145 -1.75101,5.13633 -3.28285,7.04821 -4.71371,8.62819 0,0 -20.39469,21.23146 -20.39469,21.23146 0,0 -3.50097,3.2462 -7.72375,4.44582 -5.79772,1.64764 -17.27801,3.50686 -20.84378,3.93277 -3.56513,0.42626 -1.13403,2.48392 2.67214,4.75038 3.80585,2.26682 4.37336,3.38761 11.97421,-0.71976 7.60053,-4.10772 14.87931,-0.33637 30.45842,-4.81227 15.57869,-4.47554 18.74433,-16.94414 18.46016,-26.10121 -0.28417,-9.15757 0.86843,-11.1501 1.78489,-11.92594 0.91647,-0.77545 4.34417,-1.83858 4.34417,-1.83858 0,0 -4.01714,-1.30623 -4.01714,-1.30623 0,0 -0.48639,-0.72651 -2.17623,-2.02934 -1.69015,-1.3028 -4.07175,-0.79674 -4.07175,-0.79674 z m -32.64691,33.31492 c -7.02425,-9.30153 -17.5022,-12.44277 -29.13172,-10.49008 0,0 20.05113,-22.69656 20.05113,-22.69656 11.66799,-1.82915 24.81703,1.02734 28.40721,13.57175 0,0 -18.91541,20.17425 -18.91541,20.17425 0,0 -0.26571,-0.3668 -0.41121,-0.55936 z"
       style="fill:#ffffff;fill-opacity:1"
       id="path4190-3-0" />
    <path
       inkscape:export-ydpi="72.031548"
       inkscape:export-xdpi="72.031548"
       inkscape:export-filename="/home/ivan/Desktop/wiki.png"
       d="m -887.53133,237.71875 c 0,0 -0.86519,0.94831 -0.86519,0.94831 -1.54087,-4.54263 -4.40031,-7.60327 -8.07425,-9.48256 0,0 13.27352,-10.30692 13.27352,-10.30692 -3.55728,5.99459 -4.35016,14.6482 -4.33408,18.84117 z m 8.03611,-8.50502 c 0,0 -2.97196,0.4322 -4.61176,5.24385 -1.40367,4.11746 -2.63164,5.65009 -3.77867,6.91666 0,0 -16.34908,17.01987 -16.34908,17.01987 0,0 -2.8065,2.60226 -6.19163,3.56392 -4.64765,1.3208 -13.85064,2.81122 -16.70908,3.15264 -2.85793,0.34171 -0.90908,1.9912 2.14208,3.80807 3.0509,1.81716 3.50583,2.71563 9.59893,-0.57698 6.09284,-3.29289 11.92777,-0.26965 24.41652,-3.85768 12.48841,-3.58775 15.0261,-13.58301 14.79829,-20.92363 -0.2278,-7.34102 0.69617,-8.93831 1.43083,-9.56025 0.73468,-0.62162 3.48244,-1.47386 3.48244,-1.47386 0,0 -3.22028,-1.04712 -3.22028,-1.04712 0,0 -0.3899,-0.5824 -1.74454,-1.62679 -1.35488,-1.04437 -3.26405,-0.6387 -3.26405,-0.6387 z m -26.17089,26.70639 c -5.63088,-7.45643 -14.03036,-9.97455 -23.35298,-8.40921 0,0 16.07367,-18.19434 16.07367,-18.19434 9.35346,-1.46631 19.89418,0.82355 22.77219,10.87958 0,0 -15.16324,16.17237 -15.16324,16.17237 0,0 -0.213,-0.29404 -0.32964,-0.4484 z"
       style="fill:#ffffff;fill-opacity:1"
       id="path4190-3-4-3" />
    <text
       transform="scale(1.1067717,0.9035287)"
       sodipodi:linespacing="125%"
       id="text2864-5-4"
       y="498.62766"
       x="-835.21741"
       style="font-size:178.81521606px;font-style:italic;font-variant:normal;font-weight:bold;font-stretch:normal;text-align:start;line-height:125%;writing-mode:lr-tb;text-anchor:start;fill:#ffffff;fill-opacity:1;stroke:none;font-family:Yanone Kaffeesatz;-inkscape-font-specification:Yanone Kaffeesatz Bold Italic"
       xml:space="preserve"><tspan
         style="font-size:178.81521606px;font-style:italic;font-variant:normal;font-weight:bold;font-stretch:normal;text-align:start;line-height:125%;writing-mode:lr-tb;text-anchor:start;fill:#ffffff;fill-opacity:1;stroke:none;font-family:Yanone Kaffeesatz;-inkscape-font-specification:Yanone Kaffeesatz Bold Italic"
         y="498.62766"
         x="-835.21741"
         id="tspan2866-5-6"
         sodipodi:role="line">DFD</tspan></text>
  </g>
  <path
     style="fill:url(#linearGradient5299);fill-opacity:1;stroke:none"
     d="m -8.4092267,435.36023 c 0,-181.59535 5.813386,-279.24914 5.813386,-433.8716 308.8591007,0 742.1669507,0 953.3903407,0 213.2797,0 -441.3115,117.42692 -604.58901,185.94493 C 133.16334,204.45781 79.284929,216.19661 -8.4092267,435.36023 z"
     id="path4362"
     sodipodi:nodetypes="ccscc" />
</svg>
