<?xml version="1.0" encoding="UTF-8" standalone="no"?>
<svg
   xmlns:dc="http://purl.org/dc/elements/1.1/"
   xmlns:cc="http://creativecommons.org/ns#"
   xmlns:rdf="http://www.w3.org/1999/02/22-rdf-syntax-ns#"
   xmlns:svg="http://www.w3.org/2000/svg"
   xmlns="http://www.w3.org/2000/svg"
   xmlns:sodipodi="http://sodipodi.sourceforge.net/DTD/sodipodi-0.dtd"
   xmlns:inkscape="http://www.inkscape.org/namespaces/inkscape"
   width="283.46457"
   height="283.46457"
   viewBox="0 0 226.77165 226.77165"
   id="svg3595"
   version="1.1"
   inkscape:version="0.48.4 r9939"
   sodipodi:docname="we-cannot-read-your-documents.svg"
   inkscape:export-filename="/home/samtuke/fsfe/svn/dfd/trunk/artwork/sources/i-cannot-read-your-docs/we-cannot-read-your-documents.png"
   inkscape:export-xdpi="300.03751"
   inkscape:export-ydpi="300.03751">
  <metadata
     id="metadata3715">
    <rdf:RDF>
      <cc:Work
         rdf:about="">
        <dc:format>image/svg+xml</dc:format>
        <dc:type
           rdf:resource="http://purl.org/dc/dcmitype/StillImage" />
        <dc:title></dc:title>
      </cc:Work>
    </rdf:RDF>
  </metadata>
  <defs
     id="defs3713" />
  <sodipodi:namedview
     pagecolor="#ffffff"
     bordercolor="#666666"
     borderopacity="1"
     objecttolerance="10"
     gridtolerance="10"
     guidetolerance="10"
     inkscape:pageopacity="1"
     inkscape:pageshadow="2"
     inkscape:window-width="1920"
     inkscape:window-height="1021"
     id="namedview3711"
     showgrid="false"
     inkscape:zoom="1.2982222"
     inkscape:cx="-71.775618"
     inkscape:cy="216.36451"
     inkscape:window-x="0"
     inkscape:window-y="27"
     inkscape:window-maximized="1"
     inkscape:current-layer="svg3595"
     units="px" />
  <g
     transform="translate(-310.27264,-61.228367)"
     id="g3597">
    <text
       id="text3599"
       x="-63.378002"
       style="font-size:70px">
      <tspan
         x="0.41100001"
         y="66.819"
         font-size="83"
         id="tspan3605"
         style="font-size:70px;fill:#000000;stroke:none;font-family:Kiss Kiss From Paris">WE cannot</tspan>
    </text>
    <path
       style="fill:none;stroke:none"
       d="m 0,0 c 0,0 281,0 281,0 0,0 0,119 0,119 0,0 -281,0 -281,0 C 0,119 0,0 0,0 z"
       id="path3617"
       inkscape:connector-curvature="0" />
  </g>
  <text
     y="28.65564"
     x="-312"
     style="font-size:70px;letter-spacing:0.80000001px"
     id="text3621">
    <tspan
       style="font-size:70px;letter-spacing:0.80000001px;fill:#000000;stroke:none;font-family:Kiss Kiss From Paris"
       id="tspan3623"
       font-size="66"
       y="81.927666"
       x="-312">r</tspan>
    <tspan
       style="font-size:70px;letter-spacing:0.80000001px;fill:#000000;stroke:none;font-family:Kiss Kiss From Paris"
       id="tspan3625"
       font-size="66"
       y="81.927666"
       x="-275.70001">e</tspan>
    <tspan
       style="font-size:70px;letter-spacing:0.80000001px;fill:#000000;stroke:none;font-family:Kiss Kiss From Paris"
       id="tspan3627"
       font-size="66"
       y="81.927666"
       x="-251.28">a</tspan>
    <tspan
       style="font-size:70px;letter-spacing:0.80000001px;fill:#000000;stroke:none;font-family:Kiss Kiss From Paris"
       id="tspan3629"
       font-size="66"
       y="81.927666"
       x="-222.966">d</tspan>
    <tspan
       style="font-size:70px;letter-spacing:0.80000001px;fill:#000000;stroke:none;font-family:Kiss Kiss From Paris"
       id="tspan3631"
       font-size="66"
       y="81.927666"
       x="-194.256" />
    <tspan
       style="font-size:70px;letter-spacing:0.80000001px;fill:#000000;stroke:none;font-family:Kiss Kiss From Paris"
       id="tspan3633"
       font-size="66"
       y="81.927666"
       x="-147.724">y</tspan>
    <tspan
       style="font-size:70px;letter-spacing:0.80000001px;fill:#000000;stroke:none;font-family:Kiss Kiss From Paris"
       id="tspan3635"
       font-size="66"
       y="81.927666"
       x="-121.588">o</tspan>
    <tspan
       style="font-size:70px;letter-spacing:0.80000001px;fill:#000000;stroke:none;font-family:Kiss Kiss From Paris"
       id="tspan3637"
       font-size="66"
       y="81.927666"
       x="-91.360001">ur</tspan>
    <tspan
       style="font-size:70px;letter-spacing:0.80000001px;fill:#000000;stroke:none;font-family:Kiss Kiss From Paris"
       id="tspan3639"
       font-size="66"
       y="81.927666"
       x="-64.300003" />
  </text>
  <path
     inkscape:connector-curvature="0"
     id="path3641"
     d="m -312,28.655623 c 0,0 284,0 284,0 0,0 0,80.999997 0,80.999997 0,0 -284,0 -284,0 0,0 0,-80.999997 0,-80.999997 z"
     style="fill:none;stroke:none" />
  <text
     xml:space="preserve"
     style="font-size:9.60000038px;font-style:normal;font-weight:normal;line-height:0%;letter-spacing:0px;word-spacing:0px;fill:#000000;fill-opacity:1;stroke:none;font-family:Sans"
     x="-711.90497"
     y="91.043083"
     id="text3090"
     sodipodi:linespacing="0%"><tspan
       sodipodi:role="line"
       id="tspan3092"
       x="-711.90497"
       y="91.043083" /></text>
  <flowRoot
     xml:space="preserve"
     id="flowRoot3094"
     style="font-size:12px;font-style:normal;font-weight:normal;line-height:125%;letter-spacing:29.26000023px;word-spacing:0px;fill:#000000;fill-opacity:1;stroke:none;font-family:Sans"
     transform="matrix(0.8,0,0,0.8,-320,-73.228367)"><flowRegion
       id="flowRegion3096"><rect
         id="rect3098"
         width="247.18774"
         height="106.74017"
         x="-486.51044"
         y="7.5891161" /></flowRegion><flowPara
       id="flowPara3100" /></flowRoot>  <text
     xml:space="preserve"
     style="font-size:68.66310883px;font-style:normal;font-weight:normal;line-height:100%;letter-spacing:0px;word-spacing:0px;fill:#000000;fill-opacity:1;stroke:none;font-family:Sans"
     x="-677.37799"
     y="82.0382"
     id="text3102"
     sodipodi:linespacing="100%"><tspan
       sodipodi:role="line"
       x="-677.37799"
       y="82.0382"
       id="tspan3110"
       style="font-style:normal;font-variant:normal;font-weight:normal;font-stretch:normal;line-height:100%;letter-spacing:2.86096287px;font-family:Kiss Kiss From Paris;-inkscape-font-specification:Kiss Kiss From Paris">WE CANNoT</tspan><tspan
       sodipodi:role="line"
       x="-677.37799"
       y="150.70131"
       id="tspan3112"
       style="font-style:normal;font-variant:normal;font-weight:normal;font-stretch:normal;line-height:100%;letter-spacing:2.86096287px;font-family:Kiss Kiss From Paris;-inkscape-font-specification:Kiss Kiss From Paris">READ YOUR</tspan><tspan
       sodipodi:role="line"
       x="-677.37799"
       y="219.36443"
       id="tspan3114"
       style="font-style:normal;font-variant:normal;font-weight:normal;font-stretch:normal;line-height:100%;letter-spacing:2.86096287px;font-family:Kiss Kiss From Paris;-inkscape-font-specification:Kiss Kiss From Paris">DOCUMENTS</tspan></text>
  <g
     transform="translate(-308.045,100.77162)"
     id="g3643">
    <text
       id="text3645"
       style="font-size:70px">
      <tspan
         x="0"
         y="56.790001"
         font-size="70"
         id="tspan3647"
         style="font-size:70px;fill:#000000;stroke:none;font-family:Kiss Kiss From Paris">D</tspan>
      <tspan
         x="30.450001"
         y="56.790001"
         font-size="70"
         id="tspan3649"
         style="font-size:70px;fill:#000000;stroke:none;font-family:Kiss Kiss From Paris">o</tspan>
      <tspan
         x="62.509998"
         y="56.790001"
         font-size="70"
         id="tspan3651"
         style="font-size:70px;fill:#000000;stroke:none;font-family:Kiss Kiss From Paris">c</tspan>
      <tspan
         x="87.43"
         y="56.790001"
         font-size="70"
         id="tspan3653"
         style="font-size:70px;fill:#000000;stroke:none;font-family:Kiss Kiss From Paris">u</tspan>
      <tspan
         x="116.13"
         y="56.790001"
         font-size="70"
         id="tspan3655"
         style="font-size:70px;fill:#000000;stroke:none;font-family:Kiss Kiss From Paris">m</tspan>
      <tspan
         x="156.10001"
         y="56.790001"
         font-size="70"
         id="tspan3657"
         style="font-size:70px;fill:#000000;stroke:none;font-family:Kiss Kiss From Paris">e</tspan>
      <tspan
         x="182"
         y="56.790001"
         font-size="70"
         id="tspan3659"
         style="font-size:70px;fill:#000000;stroke:none;font-family:Kiss Kiss From Paris">n</tspan>
      <tspan
         x="215.03999"
         y="56.790001"
         font-size="70"
         id="tspan3661"
         style="font-size:70px;fill:#000000;stroke:none;font-family:Kiss Kiss From Paris">t</tspan>
      <tspan
         x="245.14"
         y="56.790001"
         font-size="70"
         id="tspan3663"
         style="font-size:70px;fill:#000000;stroke:none;font-family:Kiss Kiss From Paris">s</tspan>
    </text>
    <path
       style="fill:none;stroke:none"
       d="m 0,0 c 0,0 277,0 277,0 0,0 0,87 0,87 C 277,87 0,87 0,87 0,87 0,0 0,0 z"
       id="path3665"
       inkscape:connector-curvature="0" />
  </g>
  <g
     transform="translate(-309.5,186.77162)"
     id="g3667">
    <text
       id="text3669"
       y="-3.5954583">
      <tspan
         x="35.112499"
         y="17.32954"
         font-size="25"
         id="tspan3671"
         style="font-size:25px;fill:#000000;stroke:none;font-family:Kiss Kiss From Paris">documentfreedom.org</tspan>
    </text>
    <path
       style="fill:none;stroke:none"
       d="m 0,0 c 0,0 279,0 279,0 0,0 0,37 0,37 C 279,37 0,37 0,37 0,37 0,0 0,0 z"
       id="path3709"
       inkscape:connector-curvature="0" />
  </g>
  <text
     xml:space="preserve"
     style="font-size:25.00046349px;font-style:normal;font-variant:normal;font-weight:normal;font-stretch:normal;line-height:125%;letter-spacing:2.08337212px;word-spacing:0px;fill:#000000;fill-opacity:1;stroke:none;font-family:Kiss Kiss From Paris;-inkscape-font-specification:Kiss Kiss From Paris"
     x="-1090.3875"
     y="-5.2238765"
     id="text3588"
     sodipodi:linespacing="125%"><tspan
       sodipodi:role="line"
       id="tspan3590"
       x="-1090.3875"
       y="-5.2238765">DOCUMENTFREEDOM.ORG</tspan></text>
  <g
     id="g3070"
     transform="matrix(0.7271972,0,0,0.7271972,4.3062472,0.74600273)">
    <g
       transform="translate(0,8.4944658)"
       id="g3936">
      <g
         id="g3133"
         transform="translate(1.539655,0)">
        <path
           d="m 10.607944,13.893481 9.983396,1.256709 1.326902,30.974248 2.717006,-32.230957 8.087808,0.66532 1.07417,29.643608 3.538415,-29.643608 9.161977,0.295695 L 40.558131,73.624255 30.827478,73.32856 25.962151,53.738634 24.382497,72.66324 15.726013,73.32856 10.607944,13.893481"
           style="font-size:68.66310883px;font-style:normal;font-variant:normal;font-weight:normal;font-stretch:normal;line-height:100%;letter-spacing:2.86096287px;word-spacing:0px;fill:#000000;fill-opacity:1;stroke:none;font-family:Kiss Kiss From Paris;-inkscape-font-specification:Kiss Kiss From Paris"
           id="path3295"
           inkscape:connector-curvature="0" />
        <path
           d="m 49.917232,15.298043 21.483262,0.295694 0.252742,10.645091 -11.626233,0 0.758235,14.489149 10.867998,0.591389 -0.252742,10.645091 -11.120749,0.591389 0.505493,8.57522 10.615256,0.591389 0.505493,10.349397 -20.977778,-0.5914 -1.010977,-56.182409"
           style="font-size:68.66310883px;font-style:normal;font-variant:normal;font-weight:normal;font-stretch:normal;line-height:100%;letter-spacing:2.86096287px;word-spacing:0px;fill:#000000;fill-opacity:1;stroke:none;font-family:Kiss Kiss From Paris;-inkscape-font-specification:Kiss Kiss From Paris"
           id="path3297"
           inkscape:connector-curvature="0" />
        <path
           d="m 109.72119,71.702226 -0.50549,-57.365198 21.35689,1.700256 0,16.706872 -6.88728,0.517468 0,-6.283555 -4.86532,-1.182788 -0.25275,37.627429 5.62356,-1.478482 -0.25274,-9.979771 6.12904,0.517468 1.20054,19.515995 -21.54645,-0.295694"
           style="font-size:68.66310883px;font-style:normal;font-variant:normal;font-weight:normal;font-stretch:normal;line-height:100%;letter-spacing:2.86096287px;word-spacing:0px;fill:#000000;fill-opacity:1;stroke:none;font-family:Kiss Kiss From Paris;-inkscape-font-specification:Kiss Kiss From Paris"
           id="path3299"
           inkscape:connector-curvature="0" />
        <path
           d="m 135.50965,72.219693 8.90924,0.295695 0.82142,-10.127613 6.25542,-0.295694 0.50548,9.536224 9.9834,0.591388 -5.74993,-57.365197 -12.06853,0.369615 -8.6565,56.995582 m 10.4257,-17.520045 3.34887,-20.255236 2.65381,21.585877 -6.00268,-1.330641"
           style="font-size:68.66310883px;font-style:normal;font-variant:normal;font-weight:normal;font-stretch:normal;line-height:100%;letter-spacing:2.86096287px;word-spacing:0px;fill:#000000;fill-opacity:1;stroke:none;font-family:Kiss Kiss From Paris;-inkscape-font-specification:Kiss Kiss From Paris"
           id="path3301"
           inkscape:connector-curvature="0" />
        <path
           d="m 165.98772,71.406531 0,-57.291276 5.68675,-0.5914 12.25809,29.569698 -1.57965,-27.79551 9.41473,-0.295695 1.83239,57.365198 -8.34056,0 -10.67844,-24.099305 1.26371,23.13829 -9.85702,0"
           style="font-size:68.66310883px;font-style:normal;font-variant:normal;font-weight:normal;font-stretch:normal;line-height:100%;letter-spacing:2.86096287px;word-spacing:0px;fill:#000000;fill-opacity:1;stroke:none;font-family:Kiss Kiss From Paris;-inkscape-font-specification:Kiss Kiss From Paris"
           id="path3303"
           inkscape:connector-curvature="0" />
        <path
           d="m 198.48575,71.406531 0,-57.291276 5.68675,-0.5914 12.25809,29.569698 -1.57965,-27.79551 9.41472,-0.295695 1.8324,57.365198 -8.34056,0 -10.67845,-24.099305 1.26373,23.13829 -9.85703,0"
           style="font-size:68.66310883px;font-style:normal;font-variant:normal;font-weight:normal;font-stretch:normal;line-height:100%;letter-spacing:2.86096287px;word-spacing:0px;fill:#000000;fill-opacity:1;stroke:none;font-family:Kiss Kiss From Paris;-inkscape-font-specification:Kiss Kiss From Paris"
           id="path3305"
           inkscape:connector-curvature="0" />
        <path
           d="m 229.27777,15.371963 26.91726,-1.774176 1.51647,58.769759 -26.91726,0.591389 -1.51647,-57.586972"
           style="font-size:68.66310883px;font-style:normal;font-variant:normal;font-weight:normal;font-stretch:normal;line-height:100%;letter-spacing:2.86096287px;word-spacing:0px;fill:#000000;fill-opacity:1;stroke:none;font-family:Kiss Kiss From Paris;-inkscape-font-specification:Kiss Kiss From Paris"
           id="path3307"
           inkscape:connector-curvature="0" />
        <path
           d="m 259.64822,14.189176 26.66452,0 -1.07416,10.497238 -8.71968,1.25672 -0.82142,46.128718 -8.65649,0.369615 0.75824,-46.498333 -8.15101,-0.961025 0,-10.792933"
           style="font-size:68.66310883px;font-style:normal;font-variant:normal;font-weight:normal;font-stretch:normal;line-height:100%;letter-spacing:2.86096287px;word-spacing:0px;fill:#000000;fill-opacity:1;stroke:none;font-family:Kiss Kiss From Paris;-inkscape-font-specification:Kiss Kiss From Paris"
           id="path3309"
           inkscape:connector-curvature="0" />
      </g>
      <g
         id="g3143"
         transform="translate(5.746524,0)">
        <path
           style="font-size:68.66310883px;font-style:normal;font-variant:normal;font-weight:normal;font-stretch:normal;line-height:100%;letter-spacing:2.86096287px;word-spacing:0px;fill:#000000;fill-opacity:1;stroke:none;font-family:Kiss Kiss From Paris;-inkscape-font-specification:Kiss Kiss From Paris"
           d="m 10.856646,178.11101 1.403356,62.09419 25.398429,-5.32928 -1.150291,-53.72345 -25.651494,-3.04146 z m 8.972272,11.35837 8.167067,0.94204 0.736187,35.9861 -8.006027,1.69568 -0.897227,-38.62382 z"
           id="path3327"
           inkscape:connector-curvature="0" />
        <path
           d="m 41.077115,178.63266 26.917256,-1.77419 1.516461,58.76977 -26.917256,0.59139 -1.516461,-57.58697"
           style="font-size:68.66310883px;font-style:normal;font-variant:normal;font-weight:normal;font-stretch:normal;line-height:100%;letter-spacing:2.86096287px;word-spacing:0px;fill:#000000;fill-opacity:1;stroke:none;font-family:Kiss Kiss From Paris;-inkscape-font-specification:Kiss Kiss From Paris"
           id="path3329"
           inkscape:connector-curvature="0" />
        <path
           d="m 73.027208,234.96292 -0.505493,-57.36521 21.356886,1.70027 0,16.70687 -6.887281,0.51747 0,-6.28356 -4.865327,-1.18278 -0.252742,37.62743 5.623562,-1.47849 -0.252742,-9.97977 6.129046,0.51747 1.200536,19.51599 -21.546445,-0.29569"
           style="font-size:68.66310883px;font-style:normal;font-variant:normal;font-weight:normal;font-stretch:normal;line-height:100%;letter-spacing:2.86096287px;word-spacing:0px;fill:#000000;fill-opacity:1;stroke:none;font-family:Kiss Kiss From Paris;-inkscape-font-specification:Kiss Kiss From Paris"
           id="path3331"
           inkscape:connector-curvature="0" />
        <path
           d="m 97.804701,177.15418 9.730649,0.66531 0.50549,47.08973 5.93949,-0.66531 -0.50549,-47.38544 9.73066,0.96102 0,57.21735 -24.326639,0.2957 -1.07416,-58.17836"
           style="font-size:68.66310883px;font-style:normal;font-variant:normal;font-weight:normal;font-stretch:normal;line-height:100%;letter-spacing:2.86096287px;word-spacing:0px;fill:#000000;fill-opacity:1;stroke:none;font-family:Kiss Kiss From Paris;-inkscape-font-specification:Kiss Kiss From Paris"
           id="path3333"
           inkscape:connector-curvature="0" />
        <path
           d="m 129.13379,236.51533 9.66747,0 -1.07417,-16.04156 6.44498,13.23244 6.69773,-19.2203 0.31592,21.0684 10.42571,-0.2957 -2.65382,-58.47406 -7.2664,0.29569 -6.19223,34.30086 -11.81579,-34.89224 -6.69773,0.29569 2.14833,59.73078"
           style="font-size:68.66310883px;font-style:normal;font-variant:normal;font-weight:normal;font-stretch:normal;line-height:100%;letter-spacing:2.86096287px;word-spacing:0px;fill:#000000;fill-opacity:1;stroke:none;font-family:Kiss Kiss From Paris;-inkscape-font-specification:Kiss Kiss From Paris"
           id="path3335"
           inkscape:connector-curvature="0" />
        <path
           d="m 165.7172,178.55874 21.48327,0.29569 0.25274,10.64509 -11.62624,0 0.75824,14.48914 10.868,0.5914 -0.25274,10.64509 -11.12075,0.59139 0.50549,8.57521 10.61526,0.5914 0.50548,10.34939 -20.97777,-0.5914 -1.01098,-56.1824"
           style="font-size:68.66310883px;font-style:normal;font-variant:normal;font-weight:normal;font-stretch:normal;line-height:100%;letter-spacing:2.86096287px;word-spacing:0px;fill:#000000;fill-opacity:1;stroke:none;font-family:Kiss Kiss From Paris;-inkscape-font-specification:Kiss Kiss From Paris"
           id="path3337"
           inkscape:connector-curvature="0" />
        <path
           d="m 192.68548,234.66722 0,-57.29127 5.68674,-0.5914 12.25809,29.56969 -1.57965,-27.7955 9.41472,-0.29571 1.8324,57.36521 -8.34056,0 -10.67844,-24.0993 1.26372,23.13828 -9.85702,0"
           style="font-size:68.66310883px;font-style:normal;font-variant:normal;font-weight:normal;font-stretch:normal;line-height:100%;letter-spacing:2.86096287px;word-spacing:0px;fill:#000000;fill-opacity:1;stroke:none;font-family:Kiss Kiss From Paris;-inkscape-font-specification:Kiss Kiss From Paris"
           id="path3339"
           inkscape:connector-curvature="0" />
        <path
           d="m 222.21376,177.44987 26.66451,0 -1.07416,10.49724 -8.71968,1.25671 -0.82142,46.12872 -8.65648,0.36962 0.75823,-46.49834 -8.151,-0.96102 0,-10.79293"
           style="font-size:68.66310883px;font-style:normal;font-variant:normal;font-weight:normal;font-stretch:normal;line-height:100%;letter-spacing:2.86096287px;word-spacing:0px;fill:#000000;fill-opacity:1;stroke:none;font-family:Kiss Kiss From Paris;-inkscape-font-specification:Kiss Kiss From Paris"
           id="path3341"
           inkscape:connector-curvature="0" />
        <path
           d="m 276.57614,188.16888 0,-10.64509 -21.60963,-0.29569 -2.08514,32.89628 15.10147,0.2957 1.07416,16.1894 -13.83775,0.88709 1.07417,8.57521 21.35688,-0.66532 0,-34.15299 -14.09049,0.36963 0,-13.15852 13.01633,-0.2957"
           style="font-size:68.66310883px;font-style:normal;font-variant:normal;font-weight:normal;font-stretch:normal;line-height:100%;letter-spacing:2.86096287px;word-spacing:0px;fill:#000000;fill-opacity:1;stroke:none;font-family:Kiss Kiss From Paris;-inkscape-font-specification:Kiss Kiss From Paris"
           id="path3343"
           inkscape:connector-curvature="0" />
      </g>
      <g
         id="g3123"
         transform="translate(-0.69504303,0)">
        <path
           d="m 20.780899,104.61651 0.758226,18.99852 6.697722,0 -0.252742,-19.29422 -7.203206,0.2957 m -8.782869,51.00771 0,-60.32216 24.263451,0.59138 0.505484,33.48768 -2.590622,0.29569 9.793837,24.395 -8.466934,1.55241 -8.024625,-19.88561 -6.697722,0.59139 1.579644,18.70283 -10.362513,0.59139"
           style="font-size:68.66310883px;font-style:normal;font-variant:normal;font-weight:normal;font-stretch:normal;line-height:100%;letter-spacing:2.86096287px;word-spacing:0px;fill:#000000;fill-opacity:1;stroke:none;font-family:Kiss Kiss From Paris;-inkscape-font-specification:Kiss Kiss From Paris"
           id="path3311"
           inkscape:connector-curvature="0" />
        <path
           d="m 49.053363,96.92839 21.483262,0.29569 0.252742,10.6451 -11.626233,0 0.758226,14.48914 10.868007,0.59139 -0.252742,10.64509 -11.120749,0.59139 0.505484,8.57521 10.615265,0.5914 0.505484,10.34939 L 50.06434,153.1108 49.053363,96.92839"
           style="font-size:68.66310883px;font-style:normal;font-variant:normal;font-weight:normal;font-stretch:normal;line-height:100%;letter-spacing:2.86096287px;word-spacing:0px;fill:#000000;fill-opacity:1;stroke:none;font-family:Kiss Kiss From Paris;-inkscape-font-specification:Kiss Kiss From Paris"
           id="path3313"
           inkscape:connector-curvature="0" />
        <path
           d="m 75.326585,153.85004 8.909235,0.2957 0.821418,-10.12762 6.255422,-0.2957 0.505484,9.53623 9.983396,0.59139 -5.749929,-57.3652 -12.068533,0.36962 -8.656493,56.99558 M 85.752281,136.33 l 3.348866,-20.25524 2.653814,21.58588 -6.00268,-1.33064"
           style="font-size:68.66310883px;font-style:normal;font-variant:normal;font-weight:normal;font-stretch:normal;line-height:100%;letter-spacing:2.86096287px;word-spacing:0px;fill:#000000;fill-opacity:1;stroke:none;font-family:Kiss Kiss From Paris;-inkscape-font-specification:Kiss Kiss From Paris"
           id="path3315"
           inkscape:connector-curvature="0" />
        <path
           d="m 164.49692,95.89344 9.73064,0 6.69773,18.85069 3.6016,-18.85069 10.29933,0 -6.95046,31.56565 0.25274,26.02132 -9.47791,0.29571 -0.25274,-25.06032 -13.90093,-32.82236"
           style="font-size:68.66310883px;font-style:normal;font-variant:normal;font-weight:normal;font-stretch:normal;line-height:100%;letter-spacing:2.86096287px;word-spacing:0px;fill:#000000;fill-opacity:1;stroke:none;font-family:Kiss Kiss From Paris;-inkscape-font-specification:Kiss Kiss From Paris"
           id="path3319"
           inkscape:connector-curvature="0" />
        <path
           d="m 196.16268,97.00231 26.91726,-1.77419 1.51646,58.76977 -26.91725,0.59139 -1.51647,-57.58697"
           style="font-size:68.66310883px;font-style:normal;font-variant:normal;font-weight:normal;font-stretch:normal;line-height:100%;letter-spacing:2.86096287px;word-spacing:0px;fill:#000000;fill-opacity:1;stroke:none;font-family:Kiss Kiss From Paris;-inkscape-font-specification:Kiss Kiss From Paris"
           id="path3321"
           inkscape:connector-curvature="0" />
        <path
           d="m 227.79685,95.52383 9.73064,0.66532 0.50549,47.08973 5.93949,-0.66532 -0.50548,-47.38544 9.73065,0.96103 0,57.21734 -24.32663,0.2957 -1.07416,-58.17836"
           style="font-size:68.66310883px;font-style:normal;font-variant:normal;font-weight:normal;font-stretch:normal;line-height:100%;letter-spacing:2.86096287px;word-spacing:0px;fill:#000000;fill-opacity:1;stroke:none;font-family:Kiss Kiss From Paris;-inkscape-font-specification:Kiss Kiss From Paris"
           id="path3323"
           inkscape:connector-curvature="0" />
        <path
           d="m 266.20277,104.61651 0.75823,18.99852 6.69772,0 -0.25274,-19.29422 -7.20321,0.2957 m -8.78286,51.00771 0,-60.32216 24.26344,0.59138 0.50549,33.48768 -2.59063,0.29569 9.79384,24.395 -8.46693,1.55241 -8.02463,-19.88561 -6.69772,0.59139 1.57965,18.70283 -10.36251,0.59139"
           style="font-size:68.66310883px;font-style:normal;font-variant:normal;font-weight:normal;font-stretch:normal;line-height:100%;letter-spacing:2.86096287px;word-spacing:0px;fill:#000000;fill-opacity:1;stroke:none;font-family:Kiss Kiss From Paris;-inkscape-font-specification:Kiss Kiss From Paris"
           id="path3325"
           inkscape:connector-curvature="0" />
        <path
           id="path3350"
           d="m 104.02998,96.48592 1.40336,62.09419 25.39843,-5.32928 -1.15029,-53.72345 -25.6515,-3.04146 z m 8.97228,11.35836 8.16706,0.94205 0.73619,35.9861 -8.00603,1.69568 -0.89722,-38.62383 z"
           style="font-size:68.66310883px;font-style:normal;font-variant:normal;font-weight:normal;font-stretch:normal;line-height:100%;letter-spacing:2.86096287px;word-spacing:0px;fill:#000000;fill-opacity:1;stroke:none;font-family:Kiss Kiss From Paris;-inkscape-font-specification:Kiss Kiss From Paris"
           inkscape:connector-curvature="0" />
      </g>
    </g>
    <g
       transform="translate(349.76093,250.14866)"
       id="g3671">
      <path
         inkscape:connector-curvature="0"
         id="path3595"
         style="font-size:25.00046349px;font-style:normal;font-variant:normal;font-weight:normal;font-stretch:normal;line-height:125%;letter-spacing:2.08337212px;word-spacing:0px;fill:#000000;fill-opacity:1;stroke:none;font-family:Kiss Kiss From Paris;-inkscape-font-specification:Kiss Kiss From Paris"
         d="m -309.71524,16.804153 10.6502,-0.600011 0.60001,19.875368 -10.6502,0.200004 -0.60001,-19.475361" />
      <path
         inkscape:connector-curvature="0"
         id="path3597"
         style="font-size:25.00046349px;font-style:normal;font-variant:normal;font-weight:normal;font-stretch:normal;line-height:125%;letter-spacing:2.08337212px;word-spacing:0px;fill:#000000;fill-opacity:1;stroke:none;font-family:Kiss Kiss From Paris;-inkscape-font-specification:Kiss Kiss From Paris"
         d="m -296.03204,35.854506 -0.20001,-19.400359 8.45016,0.57501 0,5.650105 -2.72505,0.175003 0,-2.125039 -1.92504,-0.400008 -0.1,12.725236 2.22504,-0.500009 -0.1,-3.375063 2.42505,0.175004 0.475,6.600122 -8.52515,-0.100002" />
      <path
         inkscape:connector-curvature="0"
         id="path3599"
         style="font-size:25.00046349px;font-style:normal;font-variant:normal;font-weight:normal;font-stretch:normal;line-height:125%;letter-spacing:2.08337212px;word-spacing:0px;fill:#000000;fill-opacity:1;stroke:none;font-family:Kiss Kiss From Paris;-inkscape-font-specification:Kiss Kiss From Paris"
         d="m -285.18679,16.304144 3.85007,0.225004 0.2,15.925295 2.35005,-0.225004 -0.20001,-16.025297 3.85007,0.325006 0,19.350359 -9.62518,0.100002 -0.425,-19.675365" />
      <path
         inkscape:connector-curvature="0"
         id="path3601"
         style="font-size:25.00046349px;font-style:normal;font-variant:normal;font-weight:normal;font-stretch:normal;line-height:125%;letter-spacing:2.08337212px;word-spacing:0px;fill:#000000;fill-opacity:1;stroke:none;font-family:Kiss Kiss From Paris;-inkscape-font-specification:Kiss Kiss From Paris"
         d="m -271.7493,36.379516 3.82507,0 -0.42501,-5.425101 2.55005,4.475083 2.65005,-6.50012 0.125,7.125132 4.12508,-0.100002 -1.05002,-19.775367 -2.87506,0.100002 -2.45004,11.600215 -4.67509,-11.800218 -2.65005,0.100001 0.85002,20.200375" />
      <path
         inkscape:connector-curvature="0"
         id="path3603"
         style="font-size:25.00046349px;font-style:normal;font-variant:normal;font-weight:normal;font-stretch:normal;line-height:125%;letter-spacing:2.08337212px;word-spacing:0px;fill:#000000;fill-opacity:1;stroke:none;font-family:Kiss Kiss From Paris;-inkscape-font-specification:Kiss Kiss From Paris"
         d="m -256.23287,16.779153 8.50016,0.100001 0.1,3.600067 -4.60009,0 0.30001,4.900091 4.30008,0.200004 -0.1,3.600066 -4.40008,0.200004 0.2,2.900054 4.20008,0.200004 0.2,3.500065 -8.30015,-0.200004 -0.40001,-19.000352" />
      <path
         inkscape:connector-curvature="0"
         id="path3605"
         style="font-size:25.00046349px;font-style:normal;font-variant:normal;font-weight:normal;font-stretch:normal;line-height:125%;letter-spacing:2.08337212px;word-spacing:0px;fill:#000000;fill-opacity:1;stroke:none;font-family:Kiss Kiss From Paris;-inkscape-font-specification:Kiss Kiss From Paris"
         d="m -244.52081,35.754504 0,-19.375359 2.25005,-0.200004 4.85009,10.000186 -0.62502,-9.400174 3.72507,-0.100002 0.72502,19.400359 -3.30006,0 -4.22508,-8.150151 0.50001,7.825145 -3.90008,0" />
      <path
         inkscape:connector-curvature="0"
         id="path3607"
         style="font-size:25.00046349px;font-style:normal;font-variant:normal;font-weight:normal;font-stretch:normal;line-height:125%;letter-spacing:2.08337212px;word-spacing:0px;fill:#000000;fill-opacity:1;stroke:none;font-family:Kiss Kiss From Paris;-inkscape-font-specification:Kiss Kiss From Paris"
         d="m -231.79583,16.404146 10.5502,0 -0.42501,3.550065 -3.45006,0.425008 -0.32501,15.60029 -3.42506,0.125002 0.3,-15.725292 -3.22506,-0.325006 0,-3.650067" />
      <path
         inkscape:connector-curvature="0"
         id="path3609"
         style="font-size:25.00046349px;font-style:normal;font-variant:normal;font-weight:normal;font-stretch:normal;line-height:125%;letter-spacing:2.08337212px;word-spacing:0px;fill:#000000;fill-opacity:1;stroke:none;font-family:Kiss Kiss From Paris;-inkscape-font-specification:Kiss Kiss From Paris"
         d="m -217.74504,36.029509 3.40006,0.300006 0,-6.975129 4.70009,-0.100002 0,-3.425064 -4.05008,0 -0.325,-5.275097 6.35011,-0.200004 -0.55001,-3.625067 -9.52517,-0.52501 0,19.825367" />
      <path
         inkscape:connector-curvature="0"
         id="path3611"
         style="font-size:25.00046349px;font-style:normal;font-variant:normal;font-weight:normal;font-stretch:normal;line-height:125%;letter-spacing:2.08337212px;word-spacing:0px;fill:#000000;fill-opacity:1;stroke:none;font-family:Kiss Kiss From Paris;-inkscape-font-specification:Kiss Kiss From Paris"
         d="m -201.50008,19.379201 0.3,6.425119 2.65005,0 -0.1,-6.525121 -2.85005,0.100002 m -3.47507,17.25032 0,-20.400379 9.60018,0.200004 0.2,11.32521 -1.02502,0.100002 3.87508,8.250153 -3.35007,0.52501 -3.17506,-6.725125 -2.65004,0.200004 0.62501,6.325117 -4.10008,0.200004" />
      <path
         inkscape:connector-curvature="0"
         id="path3613"
         style="font-size:25.00046349px;font-style:normal;font-variant:normal;font-weight:normal;font-stretch:normal;line-height:125%;letter-spacing:2.08337212px;word-spacing:0px;fill:#000000;fill-opacity:1;stroke:none;font-family:Kiss Kiss From Paris;-inkscape-font-specification:Kiss Kiss From Paris"
         d="m -189.27199,16.779153 8.50015,0.100001 0.1,3.600067 -4.60008,0 0.30001,4.900091 4.30007,0.200004 -0.1,3.600066 -4.40008,0.200004 0.20001,2.900054 4.20007,0.200004 0.20001,3.500065 -8.30016,-0.200004 -0.4,-19.000352" />
      <path
         inkscape:connector-curvature="0"
         id="path3615"
         style="font-size:25.00046349px;font-style:normal;font-variant:normal;font-weight:normal;font-stretch:normal;line-height:125%;letter-spacing:2.08337212px;word-spacing:0px;fill:#000000;fill-opacity:1;stroke:none;font-family:Kiss Kiss From Paris;-inkscape-font-specification:Kiss Kiss From Paris"
         d="m -177.95994,16.779153 8.50016,0.100001 0.1,3.600067 -4.60008,0 0.3,4.900091 4.30008,0.200004 -0.1,3.600066 -4.40008,0.200004 0.2,2.900054 4.20008,0.200004 0.2,3.500065 -8.30015,-0.200004 -0.40001,-19.000352" />
      <path
         inkscape:connector-curvature="0"
         id="path3620"
         style="font-size:25.00046349px;font-style:normal;font-variant:normal;font-weight:normal;font-stretch:normal;line-height:125%;letter-spacing:2.08337212px;word-spacing:0px;fill:#000000;fill-opacity:1;stroke:none;font-family:Kiss Kiss From Paris;-inkscape-font-specification:Kiss Kiss From Paris"
         d="m -153.95064,16.804153 10.6502,-0.600011 0.60001,19.875368 -10.6502,0.200004 -0.60001,-19.475361" />
      <path
         inkscape:connector-curvature="0"
         id="path3622"
         style="font-size:25.00046349px;font-style:normal;font-variant:normal;font-weight:normal;font-stretch:normal;line-height:125%;letter-spacing:2.08337212px;word-spacing:0px;fill:#000000;fill-opacity:1;stroke:none;font-family:Kiss Kiss From Paris;-inkscape-font-specification:Kiss Kiss From Paris"
         d="m -139.29242,36.379516 3.82507,0 -0.42501,-5.425101 2.55005,4.475083 2.65005,-6.50012 0.125,7.125132 4.12508,-0.100002 -1.05002,-19.775367 -2.87506,0.100002 -2.45004,11.600215 -4.67509,-11.800218 -2.65005,0.100001 0.85002,20.200375" />
      <path
         inkscape:connector-curvature="0"
         id="path3624"
         style="font-size:25.00046349px;font-style:normal;font-variant:normal;font-weight:normal;font-stretch:normal;line-height:125%;letter-spacing:2.08337212px;word-spacing:0px;fill:#000000;fill-opacity:1;stroke:none;font-family:Kiss Kiss From Paris;-inkscape-font-specification:Kiss Kiss From Paris"
         d="m -122.62596,36.004509 c -0.28334,-1.483359 -0.425,-2.450043 -0.425,-2.900054 0,-0.133333 0.0167,-0.208334 0.05,-0.225004 0.1,-0.03333 0.65001,-0.08333 1.65003,-0.150003 0.88334,-0.05 1.35002,-0.075 1.40002,-0.075 -0.0167,3e-6 -0.0417,0.558346 -0.075,1.675031 -0.0167,1.116688 -0.0417,1.675031 -0.075,1.675031 l -2.52505,0" />
      <path
         inkscape:connector-curvature="0"
         id="path3626"
         style="font-size:25.00046349px;font-style:normal;font-variant:normal;font-weight:normal;font-stretch:normal;line-height:125%;letter-spacing:2.08337212px;word-spacing:0px;fill:#000000;fill-opacity:1;stroke:none;font-family:Kiss Kiss From Paris;-inkscape-font-specification:Kiss Kiss From Paris"
         d="m -115.57102,16.804153 10.6502,-0.600011 0.60001,19.875368 -10.6502,0.200004 -0.60001,-19.475361" />
      <path
         inkscape:connector-curvature="0"
         id="path3628"
         style="font-size:25.00046349px;font-style:normal;font-variant:normal;font-weight:normal;font-stretch:normal;line-height:125%;letter-spacing:2.08337212px;word-spacing:0px;fill:#000000;fill-opacity:1;stroke:none;font-family:Kiss Kiss From Paris;-inkscape-font-specification:Kiss Kiss From Paris"
         d="m -98.112748,19.379201 0.300006,6.425119 2.650049,0 -0.100002,-6.525121 -2.850053,0.100002 m -3.475062,17.25032 0,-20.400379 9.600176,0.200004 0.200004,11.32521 -1.025019,0.100002 3.875072,8.250153 -3.350063,0.52501 -3.175058,-6.725125 -2.65005,0.200004 0.625012,6.325117 -4.100074,0.200004" />
      <path
         inkscape:connector-curvature="0"
         id="path3630"
         style="font-size:25.00046349px;font-style:normal;font-variant:normal;font-weight:normal;font-stretch:normal;line-height:125%;letter-spacing:2.08337212px;word-spacing:0px;fill:#000000;fill-opacity:1;stroke:none;font-family:Kiss Kiss From Paris;-inkscape-font-specification:Kiss Kiss From Paris"
         d="m -86.159655,16.854154 0,18.700347 8.375155,0.750014 0.200004,-9.625179 -4.100076,-0.200004 0.100002,3.050057 1.050019,0.100002 -0.100002,3.525065 -2.300042,-0.100002 0.100001,-12.575233 2.67505,0.175003 0.275005,2.300043 3.075057,-0.200004 -0.675012,-5.900109 -8.675161,0" />
      <path
         inkscape:connector-curvature="0"
         id="path3407"
         d="m -322.71239,16.633979 0.55502,20.99073 10.04498,-1.801545 -0.45494,-18.16103 -10.14506,-1.028155 z m 3.5485,3.839657 3.23004,0.318455 0.29116,12.164979 -3.16635,0.573218 -0.35485,-13.056652 z"
         style="font-size:68.66310883px;font-style:normal;font-variant:normal;font-weight:normal;font-stretch:normal;line-height:100%;letter-spacing:2.86096287px;word-spacing:0px;fill:#000000;fill-opacity:1;stroke:none;font-family:Kiss Kiss From Paris;-inkscape-font-specification:Kiss Kiss From Paris" />
      <path
         style="font-size:68.66310883px;font-style:normal;font-variant:normal;font-weight:normal;font-stretch:normal;line-height:100%;letter-spacing:2.86096287px;word-spacing:0px;fill:#000000;fill-opacity:1;stroke:none;font-family:Kiss Kiss From Paris;-inkscape-font-specification:Kiss Kiss From Paris"
         d="m -166.94779,16.633979 0.55502,20.99073 10.04498,-1.801545 -0.45494,-18.16103 -10.14506,-1.028155 z m 3.5485,3.839657 3.23004,0.318455 0.29116,12.164979 -3.16635,0.573218 -0.35485,-13.056652 z"
         id="path3669"
         inkscape:connector-curvature="0" />
    </g>
  </g>
  <path
     style="fill:#de8787;fill-opacity:1;stroke:none"
     d="m 0,-240 0,226.774993 226.77499,0 0,-226.774993 L 0,-240 z m 8.4999998,8.5 209.7749902,0 0,209.774993 -209.7749902,0 0,-209.774993 z"
     id="rect3120"
     inkscape:connector-curvature="0" />
</svg>
