<?xml version="1.0" encoding="UTF-8" standalone="no"?>
<!-- Created with Inkscape (http://www.inkscape.org/) -->

<svg
   xmlns:dc="http://purl.org/dc/elements/1.1/"
   xmlns:cc="http://creativecommons.org/ns#"
   xmlns:rdf="http://www.w3.org/1999/02/22-rdf-syntax-ns#"
   xmlns:svg="http://www.w3.org/2000/svg"
   xmlns="http://www.w3.org/2000/svg"
   xmlns:sodipodi="http://sodipodi.sourceforge.net/DTD/sodipodi-0.dtd"
   xmlns:inkscape="http://www.inkscape.org/namespaces/inkscape"
   version="1.1"
   width="713.18542"
   height="340.68869"
   id="svg2"
   xml:space="preserve"
   inkscape:version="0.48.4 r9939"
   sodipodi:docname="robots.svg"
   inkscape:export-filename="/home/samtuke/fsfe/svn/dfd/artwork/2014/tshirts/robots/robots-preprint.png"
   inkscape:export-xdpi="600.05432"
   inkscape:export-ydpi="600.05432"><sodipodi:namedview
     pagecolor="#ffffff"
     bordercolor="#666666"
     borderopacity="1"
     objecttolerance="10"
     gridtolerance="10"
     guidetolerance="10"
     inkscape:pageopacity="0"
     inkscape:pageshadow="2"
     inkscape:window-width="1366"
     inkscape:window-height="702"
     id="namedview88"
     showgrid="false"
     fit-margin-top="0"
     fit-margin-left="0"
     fit-margin-right="0"
     fit-margin-bottom="0"
     inkscape:zoom="0.63462185"
     inkscape:cx="201.73016"
     inkscape:cy="152.91906"
     inkscape:window-x="0"
     inkscape:window-y="27"
     inkscape:window-maximized="1"
     inkscape:current-layer="svg2" /><metadata
     id="metadata8"><rdf:RDF><cc:Work
         rdf:about=""><dc:format>image/svg+xml</dc:format><dc:type
           rdf:resource="http://purl.org/dc/dcmitype/StillImage" /><dc:title></dc:title></cc:Work></rdf:RDF></metadata><defs
     id="defs6" /><g
     transform="matrix(1.25,0,0,-1.25,-169.59362,542.39218)"
     id="g10"><g
       transform="translate(-4176,-1570.1102)"
       id="g12"><path
         d="m 4632.5507,1831.8468 c 2.0547,4.8725 4.9663,8.2374 8.4356,10.434 -0.8633,1.8548 -1.603,3.6879 -2.1675,5.5852 -1.3193,-0.431 -2.6343,-0.8881 -3.9468,-1.3639 -0.8476,1.6181 -1.6318,3.1805 -2.3213,4.738 l 0,-19.3933 z m -204.103,-30.1041 c -0.5273,2.9882 -0.811,6.3691 -0.811,10.1922 0,16.7276 4.7295,25.914 11.7285,30.3457 -0.8633,1.8548 -1.603,3.6883 -2.1675,5.5857 -1.3198,-0.431 -2.6348,-0.8886 -3.9477,-1.3643 -0.4014,0.7669 -0.7891,1.5211 -1.1587,2.2683 -1.2515,-2.8813 -3.5391,-4.8822 -7.6509,-4.8822 l -5.336,0 0,-34.8045 c 1.3643,0.6577 2.6534,1.3252 3.7779,1.8551 0.7568,-3.5694 1.6474,-7.1625 2.1816,-10.7939 1.1655,0.5047 2.3106,1.0647 3.3838,1.5979 z m 205.9487,166.6637 c 2.6202,3.2732 11.3189,13.2775 5.6983,16.8213 -4.8867,-2.362 -5.5845,-12.1631 -5.6983,-16.8213 z m -139.8925,13.523 c 4.8955,2.9426 8.1469,3.0095 12.9917,4.9498 -4.0879,3.8712 -10.1524,-2.1007 -12.9917,-4.9498 z m 30.6674,-22.6799 c -5.9946,3.2772 -7.9008,9.0915 -7.5444,15.6311 -3.9429,-2.8098 -8.3018,-2.9215 -12.5098,-4.8207 -22.6162,-10.207 -20.9629,-45.641 1.4717,-35.9048 6.9429,3.0132 15.4556,18.4468 18.5825,25.0944 z m 27.5596,-34.9273 c -4.2602,-5.9531 -24.9556,-33.7923 -21.9155,-40.8295 7.8022,1.2439 19.3691,33.6325 21.9155,40.8295 z m -174.5478,-45.8575 c -2.1133,1.1977 -4.2549,2.1645 -6.3648,3.1042 0.1323,-1.7262 0.2832,-3.4409 0.314,-5.1832 l 0.037,-2.9679 c 1.0498,2.5737 2.8774,4.5028 6.0137,5.0469 z m 36.8017,52.4597 c -0.77,0.045 -1.4424,0.067 -2.1221,0.1736 -4.7744,-0.877 -9.5805,-1.2102 -13.2553,-0.9281 l 2.9511,-0.236 c -2.354,-1.4266 -4.4008,-1.6904 -6.0385,-1.1199 -2.4634,-5.1493 -8.2393,-5.7111 -17.584,-4.7055 l -0.5615,0.062 c -0.4605,-1.7179 -1.7491,-3.0968 -3.3789,-3.9902 0.5942,-2.0944 0.06,-4.3094 -1.3545,-5.9663 l 1.1425,-1.3751 0.3785,-0.4572 c 1.3144,-0.03 2.7739,-0.3453 4.4082,-0.9997 2.5835,-1.0347 5.0634,-2.1116 7.5742,-3.1067 5.3384,2.4282 13.2876,1.6596 18.8579,1.6596 l 0.9917,0 c 2.7436,5.58 4.7041,11.3587 6.6572,17.3422 0.4107,1.2587 0.8379,2.4957 1.3335,3.6476 z m 18.8433,-1.1035 c -0.3374,-0.3263 -0.7007,-0.6206 -1.0923,-0.8819 -0.07,-0.5422 -0.1924,-1.0893 -0.3687,-1.634 -3.0766,-9.5048 -5.5053,-19.2695 -10.4101,-28.0624 -0.9815,-1.7596 -1.8902,-3.3048 -2.8526,-4.5387 l 0,-16.084 6.2579,2e-4 0,-5.1024 c 0,-0.8704 0.032,-1.8494 0.067,-2.8978 l 4.0894,0 c 0.6743,1.3572 1.605,2.6291 2.855,3.6078 3.8447,3.0284 14.8979,6.132 29.0703,6.132 12.3491,0 20.1953,-3.3683 24.0859,-11.0637 3.9864,-2.0241 6.8355,-5.0968 8.625,-9.3531 l 0,12.7787 c 6.5127,3.1498 14.3526,5.5955 22.0264,6.8048 -0.9443,3.7309 -0.9146,7.8875 -0.049,11.7323 6.1142,27.1547 32.3935,47.071 44.1943,72.1514 -5.0454,-6.8791 -12.1445,-7.3638 -20.0181,-7.2781 -1.7973,-4.3672 -3.7739,-8.6914 -6.0771,-12.818 -8.8594,-15.8711 -21.4004,-30.4712 -41.5601,-25.3398 -19.8857,5.0618 -22.7788,26.2048 -15.938,42.8282 -12.2617,-13.821 -18.9975,-17.6038 -30.0727,-19.6341 -0.1192,-4.067 -0.4761,-7.4994 -1.1504,-9.0059 -1.3457,-3.0041 -4.7183,-5.0707 -8.5654,-2.6921 -1.0454,0.1963 -2.0928,0.2263 -3.1172,0.3506 z m 344.4209,2.9909 c -3.2256,-0.083 -6.4209,0.5284 -9.7476,0.2525 l -1.3149,-0.1112 c -4.2764,-3.6837 -10.3277,-0.086 -11.273,5.865 -0.1748,1.1023 -0.3515,2.8372 -0.5049,4.9159 l -13.4726,10e-5 c -10.5606,0 -20.085,-25.8884 -34.9829,-21.7365 -19.3985,5.4062 -7.1924,34.8887 -0.2178,45.9018 3.5068,5.537 7.3496,10.8964 9.7749,17.0311 -6.7852,-0.6564 -12.8003,-4.4215 -17.5283,-9.1613 -0.1528,-12.2769 -3.395,-32.8368 -9.4282,-43.534 -4.9395,-8.7588 -14.7066,-18.0982 -24.1187,-8.6017 -2.7915,2.8163 -3.9736,6.8215 -3.9741,10.7139 -3.4175,-4.7284 -9.6089,-12.3673 -15.9639,-12.7228 -9.9595,-0.5571 -16.977,6.558 -21.0102,14.9288 -1.4644,-1.1532 -2.9619,-2.2634 -4.503,-3.313 -8.684,-5.9149 -19.0175,-11.8564 -29.8276,-11.8564 -20.354,0 -15.1196,26.5464 -5.0649,36.1184 1.0527,1.0019 2.1787,1.9286 3.2456,2.9156 5.976,5.5304 17.0107,18.8715 6.2309,25.3328 -5.3262,3.1925 -14.4336,-14.7949 -15.5898,-18.2574 -0.7036,-2.1069 -0.8408,-5.2658 -1.2559,-7.4882 -0.8725,-4.6702 -1.8613,-9.3192 -2.9389,-13.9465 -3.2725,-14.0533 -13.085,-52.6875 -28.6177,-69.8477 2.9878,-1.7905 5.3423,-4.2314 7.0342,-7.4553 5.3872,-2.8565 8.8955,-7.6085 10.3789,-14.939 4.2309,17.4066 13.1303,26.543 26.1181,26.543 1.8257,0 3.5513,-0.1732 5.1582,-0.4967 l 5e-4,26.0157 c 0,15.4959 13.8989,13.6243 24.5928,13.6243 l 5.1025,0 0,-7.9695 2.8975,-0.031 5.1025,0 0,-38.689 c 0.4253,0.5146 0.9048,0.9912 1.4439,1.4135 3.8447,3.029 14.8984,6.1322 29.0698,6.1322 12.3501,0 20.1968,-3.3682 24.0874,-11.0637 3.9854,-2.0237 6.8345,-5.096 8.6235,-9.3511 l 0,10.1731 c 9.0762,6.2181 17.9522,10.2417 29.2959,10.2417 8.5181,0 14.4014,-2.3794 16.1836,-9.0374 2.5249,-0.7818 4.5577,-2.0409 6.0078,-3.893 4.8819,8.5235 11.9297,12.9304 20.9498,12.9304 1.8256,0 3.5522,-0.1733 5.1591,-0.497 l 0,26.016 c 0,7.2637 3.0537,10.7112 7.3999,12.3243 -0.5859,2.083 -1.2973,4.1824 -2.0366,6.1361 -0.7749,2.5145 -1.3149,3.8603 -1.147,6.6475 0.167,0.6676 0.3897,1.2752 0.6612,1.8252 z m 32.8174,-125.0344 c 0.8491,1.7304 1.7812,3.4343 2.707,5.1425 5.8091,-3.1154 10.3052,-5.6275 17.1929,-5.6275 1.8759,0 3.7724,0.039 3.7724,2.2095 0,1.5383 -0.1103,3.4858 -2.4399,6.2271 l -15.1265,16.0108 c -2.5796,2.7296 -4.5947,5.5835 -6.1059,8.4258 l 0,-32.3882 z m 0,60.0191 c 1.687,2.7252 3.9794,5.0843 6.9199,6.999 -3.5713,4.6581 -5.3731,9.8371 -4.5879,16.2411 0.3896,3.4404 0.8389,7.0924 1.5019,10.7828 -1.2719,0.1389 -2.5727,0.4689 -3.8339,0.9685 l 0,-34.9914 z m -24.2496,103.7708 c 3.9522,4.1408 8.1163,2.1079 11.4629,-1.467 0.5479,-0.5852 1.001,-1.2036 1.3667,-1.8449 l 0.3379,0.1427 c 6.8755,1.9682 8.0684,-5.6671 7.8853,-10.5336 -0.057,-1.5102 -0.1875,-3.028 -0.1875,-4.4207 0,-5.2367 0.9678,-11.03 0.3379,-16.2528 -0.5044,-4.1853 -3.8164,-5.6497 -6.8667,-5.0906 -1.2403,-2.2588 -3.583,-3.7173 -6.125,-4.0859 0.1948,-0.6468 0.4238,-1.2702 0.7343,-1.8427 0.5547,-1.1656 1.0381,-2.5086 1.4717,-3.7262 l 0.4156,-1.1139 c 0.3383,-0.059 0.6875,-0.091 1.017,-0.1379 1.6665,-0.2257 3.5899,0.3097 5.3028,0.2799 0.09,-0.01 0.2109,-0.047 0.3569,-0.1106 3.5103,5.8457 9.5225,7.9103 16.1558,7.0618 2.2583,-0.289 5.1455,-1.3189 6.8037,-3.0276 0.3574,0.1374 0.7129,0.2622 1.0669,0.3755 -0.3565,0.9988 -0.5293,2.0665 -0.4815,3.1372 -7.3818,0.5931 -12.9873,3.1371 -13.8315,12.9162 -4.6172,3.5679 -6.3731,11.61 -2.4575,16.4152 -1.4991,11.6388 -0.2378,24.0812 14.3261,25.4419 13.4703,1.2585 40.7456,2.9071 40.0005,-16.3984 -0.066,-1.7278 0.04,-3.408 0.01,-5.1199 8.0913,-5.7306 3.9341,-16.4909 -2.7774,-20.2539 -1.5918,-8.1793 -5.5668,-10.0568 -10.9946,-11.0524 0.1719,-0.6688 0.2573,-1.2677 0.2891,-1.7229 0.025,-0.6505 -0.01,-1.4215 -0.1504,-2.2419 1.415,-0.2166 2.9121,-0.5988 4.3613,-1.2141 0.6406,0.646 1.3281,1.2343 2.0903,1.7098 12.7281,7.9395 27.8472,-9.9724 18.5645,-20.5031 0.958,-1.7468 1.1943,-3.1272 1.6812,-5.259 0.4834,-2.9608 1.1665,-6.1529 2.0605,-9.0162 0.9316,-3.4296 1.7041,-6.5774 0.7261,-10.1478 -1.1338,-3.6147 -4.0865,-5.5578 -7.5899,-6.5579 -2.7622,-0.7676 -5.332,-2.4658 -8.0117,-3.5206 -0.2617,-0.026 -0.5137,-0.041 -0.7568,-0.044 0.6059,-0.87 1.1094,-1.8318 1.4917,-2.8948 5.0835,-2.2809 8.8374,-6.2674 8.8374,-13.1437 0,-6.5963 -3.7637,-11.2345 -7.8003,-15.8763 -5.7886,3.2213 -9.1455,5.0243 -16.0996,5.0243 -2.3389,0 -2.8926,-0.4251 -3.0347,-0.5193 0.3193,-1.441 2.8247,-3.9657 3.542,-4.7126 l 12.98,-13.1657 c 7.6992,-8.8569 10.0596,-15.1847 10.0596,-25.2117 0,-19.2417 -14.6031,-30.1505 -34.3243,-30.1505 -8.5942,0 -21.6001,1.5365 -24.7549,10.82 -2,0.8839 -3.8002,2.0302 -5.2377,3.5102 l 0,-7.334 c -10.4922,-4.6308 -18.6665,-6.9962 -30.5049,-6.9962 -10.5034,0 -20.064,2.4029 -26.2173,12.163 -9.0059,5.4584 -15.0733,17.4194 -15.0733,42.1755 0,6.0934 0.3038,11.7002 0.9019,16.8072 -1.1597,0.4274 -2.3833,0.6978 -3.7988,0.6978 -0.5977,0 -1.4986,-0.1788 -2.3946,-0.5341 l -0.1552,-60.9944 c 0,-8.3964 -6.9986,-8.3958 -13.3745,-8.5199 -2.815,-0.055 -6.5679,-0.055 -11.5718,-0.055 l -5.1026,0 0,8.0003 -2.8974,-3e-4 -3.7149,-2e-4 -0.1357,-2.0963 c -9.7476,-5.7364 -18.5933,-7.6433 -29.958,-7.6433 -9.8711,0 -19.896,1.96 -25.4385,11.6352 -3.7143,2.0842 -6.8804,5.2814 -9.0801,10.1113 l 0,-14.7503 c -10.4917,-4.6307 -18.667,-6.9962 -30.5049,-6.9962 -10.5034,0 -20.0639,2.4027 -26.2177,12.1632 -4.8111,2.916 -8.7837,7.688 -11.4409,15.2749 l 0,-17.1165 c 0,-11.4604 -17.9673,-8.5818 -25.2852,-8.5818 l -5.1025,0 0,7.912 c -0.7779,0.036 -1.5054,0.066 -2.1661,0.08 -0.5893,-10.7088 -17.3657,-7.9915 -24.5761,-7.9915 l -5.1021,0 0,7.9134 c -1.0703,0.049 -2.0503,0.087 -2.8979,0.087 l -3.7158,-2e-4 -0.1353,-2.0963 c -9.7476,-5.7364 -18.5933,-7.6433 -29.958,-7.6433 -9.8706,0 -19.8955,1.9602 -25.438,11.6352 -2.4873,1.3958 -4.729,3.291 -6.5996,5.8415 0.082,-0.9912 0.1284,-1.9856 0.1284,-2.9834 0,-11.9761 -11.623,-14.4933 -20.9365,-14.4933 -10.8931,0 -16.7949,4.063 -19.9141,10.3166 -9.4926,4.5706 -11.2783,15.3503 -11.2783,27.3182 l 0,34.5626 -2.4385,10e-5 0,5.1025 -0.022,1.5284 c -1.3936,-3.7754 -4.0152,-6.933 -6.7642,-10.0928 -5.7861,3.2207 -9.144,5.0242 -16.0976,5.0242 -2.3394,0 -2.8931,-0.4249 -3.0357,-0.5193 0.3198,-1.441 2.8247,-3.9658 3.542,-4.7126 l 12.9805,-13.1657 c 7.6992,-8.8569 10.0591,-15.1847 10.0591,-25.2117 0,-19.2415 -14.6021,-30.1505 -34.3243,-30.1505 -8.5942,0 -21.5996,1.5366 -24.7544,10.82 -4.9702,2.1965 -8.7075,6.014 -8.7075,12.5432 0,6.6399 3.1226,12.2311 6.1782,17.8659 5.8101,-3.1163 10.3033,-5.6273 17.191,-5.6273 1.8764,0 3.7729,0.039 3.7729,2.2095 0,1.5392 -0.1103,3.4866 -2.4394,6.2269 l -15.127,16.011 c -6.8936,7.2934 -9.7524,15.4757 -9.7524,21.9479 0,7.5539 2.3574,14.0228 7.4497,18.6974 0.8574,14.3127 0.4272,24.2981 12.1909,37.2157 1.2134,1.3323 3.417,2.5583 4.7817,2.8287 0.1787,0.4734 0.3833,0.9498 0.6153,1.4292 2.2973,4.7473 5.8261,7.4321 9.8701,8.627 -0.8013,3.2917 0.8008,5.9909 3.7929,7.1421 -0.018,0.4677 0.019,0.927 0.1089,1.3723 -6.9414,2.0022 -11.957,8.3755 -10.6953,17.2109 0.3277,2.2951 1.1773,4.3753 2.3931,6.1599 -1.4194,7.7207 -0.4068,14.6742 5.5327,21.8753 8.9839,10.8921 25.3374,11.8187 34.8477,1.776 1.4311,-1.5114 2.2309,-3.1737 3.0205,-4.928 4.1103,-1.2842 7.4653,-4.6317 9.0556,-8.5765 1.5127,1.5838 3.6875,2.2174 6.0069,1.1282 l 0.6211,0.1155 c 0.9902,0.1712 1.9545,0.1886 2.9506,-0.1988 1.3965,2.0265 3.7227,3.1762 7.0757,2.4858 0.6602,-0.1361 1.3164,-0.3751 1.9575,-0.701 2.6275,4.0308 8.149,4.8355 12.1592,1.6853 3.3057,1.6468 7.8501,0.7428 10.7749,-2.5419 1.0572,0.3154 2.2046,0.4431 3.4478,0.5074 2.8887,0.1184 4.8354,-1.8773 5.6064,-4.3482 0.3218,-1.0302 0.6104,-2.8338 0.8452,-5.0728 18.4815,4.7678 15.2876,11.888 36.8931,34.4966 8.3062,8.6918 20.0596,16.5501 31.7676,8.7548 3.8423,-2.5583 7.039,-6.2726 8.3144,-10.772 2.668,3.1654 6.3975,5.1827 10.5889,5.1827 14.4404,0 14.1318,-13.3045 11.6665,-23.891 6.063,-0.4196 9.4639,26.5788 24.9917,26.5788 2.8355,0 5.7749,-0.7633 7.7256,-2.9579 19.04,20.3507 48.6079,-7.6477 30.5674,-34.5599 -2.2261,-3.321 -4.8711,-6.4791 -7.688,-9.3145 -4.6109,-4.6412 -9.4819,-6.6849 -9.3804,-14.1777 9.8736,1.1527 20.8965,9.4292 28.1367,15.8634 -2.0278,13.2059 -0.8125,35.1028 10.1968,44.4676 2.6421,2.2475 6.0244,3.7326 9.5288,3.7754 10.7847,0.1318 17.624,-10.295 17.624,-20.2569 0,-11.1091 -12.7836,-25.6907 -20.2085,-33.1661 1.0665,-2.9705 3.7549,-9.3979 6.5606,-10.9078 7.5576,6.2484 19.7397,31.4368 23.3311,41.191 3.309,8.9881 8.3671,22.1797 19.8901,22.1797 4.73,0 8.4175,-1.8618 10.2422,-6.3633 7.3354,5.2629 17.124,9.5475 26.0322,5.6255 24.3877,-10.737 -7.5537,-40.4885 -10.1899,-56.5166 -0.1831,-1.114 -0.2764,-2.2561 -0.3584,-3.3817 8.5908,8.3583 16.289,19.7577 29.624,19.7577 l 13.0781,-10e-5 c 0.1021,3.104 0.3618,5.6426 0.8516,6.8087 1.9389,4.6182 5.5263,6.005 9.2514,2.9161 0.648,0.6316 1.3975,1.1647 2.2315,1.5832 2.5669,1.2881 4.9897,1.4281 7.1045,0.8061 2.8169,4.746 8.5151,4.0293 12.3637,0.2683 z"
         id="path14"
         style="fill:#000000;fill-opacity:1;fill-rule:nonzero;stroke:none"
         inkscape:connector-curvature="0" /><path
         d="m 4380.0844,1873.5177 6.0113,0 c 2.7768,-1.0763 5.455,-0.5765 7.6503,3.6522 l 1.0479,2.0472 0.73,1.4563 c 2.2793,-4.4202 6.1328,-7.8122 11.3266,-7.1557 l 13.4092,0 c 0,-14.9649 -0.1626,-16.5271 -3.8193,-16.5271 l -10.438,0 0,-47.326 c 0,-3.9952 0,-8.3445 4.1724,-8.3445 3.1264,0 5.7358,0.6924 9.0527,2.2555 0.5156,-2.4329 1.209,-5.5583 1.209,-9.3917 0,-8.3445 -9.2154,-9.3909 -15.834,-9.3909 -15.3042,0 -18.0903,9.0517 -18.0903,24.5324 l 0,47.6652 -10.438,0 c 0,14.7873 0.1767,16.5271 4.0102,16.5271 z m 23.0835,25.2185 c -0.3862,-0.06 -0.7724,-0.1421 -1.1562,-0.2483 -0.1631,2.5555 -1.458,4.7556 -4.7217,6.279 1.977,0.054 4.2895,0.063 6.9858,0.065 -1.0215,-2.1022 -1.4765,-4.1941 -1.1079,-6.0957 z"
         id="path16"
         style="fill:#c1e638;fill-opacity:1;fill-rule:nonzero;stroke:none"
         inkscape:connector-curvature="0" /><path
         d="m 4463.8769,1824.9826 c -1.21,1.0465 -3.126,1.3858 -4.5259,1.3858 -3.8193,0 -6.0888,-2.7862 -6.0888,-13.9176 0,-8.3445 1.2231,-11.6474 5.5722,-11.6474 1.563,0 3.6563,0.5167 4.7027,1.7398 0.3398,3.8186 0.3398,15.1267 0.3398,22.4394 z m -30.7847,39.1433 c 0,2.0789 0.8697,4.865 2.4331,6.0889 2.4327,1.9164 12.001,5.0426 25.919,5.0426 16.0102,0 21.9223,-5.5732 21.9223,-21.2305 l 0,-8.1678 c 0,-20.0066 0,-42.6227 -0.8696,-55.4938 -5.9126,-3.4794 -14.6108,-5.5723 -25.0488,-5.5723 -12.8843,0 -24.709,2.9627 -24.709,27.1419 0,23.8252 9.7446,28.7051 20.0064,28.7051 2.6093,0 8.0053,-0.5307 11.1313,-2.6095 l 0,12.0012 c 0,4.5259 -1.916,6.4421 -7.2988,6.4421 -6.4419,0 -15.1406,-1.577 -20.8765,-3.656 -2.0928,3.9953 -2.6094,8.522 -2.6094,11.3081 z"
         id="path18"
         style="fill:#c1e638;fill-opacity:1;fill-rule:nonzero;stroke:none"
         inkscape:connector-curvature="0" /><path
         d="m 4499.2573,1786.5327 0,82.9889 c 3.8843,1.8786 11.643,4.0249 18.9297,5.0798 2.2841,-3.8118 6.0761,-6.4998 11.6186,-6.7745 4.479,-0.2221 8.6563,1.544 12.5215,4.7003 6.1685,-3.0762 8.958,-9.0919 8.958,-19.7094 l 0,-62.8056 c 0,-3.4795 -0.5298,-3.4795 -20.1831,-3.4795 l 0,60.1961 c 0,9.0379 -0.8701,11.824 -5.749,11.824 -2.2564,0 -4.6895,-0.6924 -6.6055,-2.079 l 0,-66.4616 c 0,-3.4795 -0.3535,-3.4795 -19.4902,-3.4795 z"
         id="path20"
         style="fill:#c1e638;fill-opacity:1;fill-rule:nonzero;stroke:none"
         inkscape:connector-curvature="0" /><path
         d="m 4599.9575,1803.7523 0,53.9306 c -1.0464,0.6933 -2.4322,0.8699 -3.6558,0.8699 -3.4795,0 -8.522,-1.3857 -8.522,-30.0908 0,-20.6997 1.917,-26.4495 6.4429,-26.4495 2.2554,0 4.1729,0.5307 5.7349,1.7398 z m 0,68.3789 0,33.7475 c 0,8.5219 3.3027,8.5219 19.4907,8.5219 l 0,-124.3884 c -5.9121,-2.6097 -14.0942,-5.2192 -25.4024,-5.2192 -14.7871,0 -28.1889,4.3493 -28.1889,41.2361 0,35.6638 10.2754,49.2283 23.8398,49.2283 4.7027,0 8.1822,-1.3866 10.2608,-3.1262 z"
         id="path22"
         style="fill:#c1e638;fill-opacity:1;fill-rule:nonzero;stroke:none"
         inkscape:connector-curvature="0" /><path
         d="m 4665.4975,1824.9826 c -1.209,1.0465 -3.1255,1.3858 -4.5259,1.3858 -3.8188,0 -6.0888,-2.7862 -6.0888,-13.9176 0,-8.3445 1.2231,-11.6474 5.5722,-11.6474 1.563,0 3.6568,0.5167 4.7032,1.7398 0.3393,3.8186 0.3393,15.1267 0.3393,22.4394 z m -30.7842,39.1433 c 0,2.0789 0.8701,4.865 2.4331,6.0889 2.4322,1.9164 12.0005,5.0426 25.918,5.0426 16.0112,0 21.9238,-5.5732 21.9238,-21.2305 l 0,-8.1678 c 0,-20.0066 0,-42.6227 -0.8701,-55.4938 -5.9121,-3.4794 -14.6108,-5.5723 -25.0488,-5.5723 -12.8853,0 -24.71,2.9627 -24.71,27.1419 0,23.8252 9.7461,28.7051 20.0069,28.7051 2.6093,0 8.0058,-0.5307 11.1313,-2.6095 l 0,12.0012 c 0,4.5259 -1.9165,6.4421 -7.2978,6.4421 -6.4434,0 -15.1416,-1.577 -20.8765,-3.656 -2.0938,3.9953 -2.6099,8.522 -2.6099,11.3081 z"
         id="path24"
         style="fill:#c1e638;fill-opacity:1;fill-rule:nonzero;stroke:none"
         inkscape:connector-curvature="0" /><path
         d="m 4700.8779,1786.5327 0,80.896 c 6.0888,4.1718 14.4482,7.8287 24.1933,7.8287 9.3916,0 11.648,-2.787 11.648,-8.6985 0,-2.2565 -0.3399,-6.9589 -1.917,-11.3081 -2.4321,1.223 -4.6885,1.3856 -6.4282,1.3856 -2.0928,0 -5.2193,-0.8697 -7.4893,-2.7721 l -0.1631,-63.8521 c 0,-3.4795 0,-3.4795 -19.8437,-3.4795 z"
         id="path26"
         style="fill:#c1e638;fill-opacity:1;fill-rule:nonzero;stroke:none"
         inkscape:connector-curvature="0" /><path
         d="m 4778.4741,1803.7523 0,53.9306 c -1.0464,0.6933 -2.4331,0.8699 -3.6563,0.8699 -3.479,0 -8.522,-1.3857 -8.522,-30.0908 0,-20.6997 1.9166,-26.4495 6.4424,-26.4495 2.2564,0 4.1724,0.5307 5.7359,1.7398 z m 0,68.3789 0,33.7475 c 0,4.2201 0.81,6.3503 3.5932,7.4256 0.7715,-2.5722 1.7652,-4.9074 3.836,-6.9554 3.5317,-3.2453 8.1831,-2.3023 9.852,-1.8844 l 2.2085,0.5458 0,-114.9981 c -5.9126,-2.6097 -14.0942,-5.2192 -25.4023,-5.2192 -14.7871,0 -28.188,4.3493 -28.188,41.2361 0,35.6638 10.2744,49.2283 23.8389,49.2283 4.7021,0 8.1816,-1.3866 10.2617,-3.1262 z"
         id="path28"
         style="fill:#c1e638;fill-opacity:1;fill-rule:nonzero;stroke:none"
         inkscape:connector-curvature="0" /><path
         d="m 4755.123,1948.6973 -2.5449,0 -10.6421,0 c -13.4238,0 -22.7993,-24.987 -33.6304,-21.924 -8.4936,2.4019 -6.9482,10.8402 -6.0137,17.4875 2.397,17.047 14.1377,25.3447 19.4405,40.447 0.605,1.7223 -1.5108,5.8022 -5.6768,5.4451 -5.79,-0.496 -11.8081,-3.4103 -17.2724,-7.9574 -0.09,2.2074 -0.1187,4.432 -0.4493,6.6074 5.3877,3.8258 11.2798,6.3282 17.251,6.8398 7.5986,0.651 13.4551,-6.7554 11.3462,-12.7603 -4.9009,-13.9568 -17.0811,-24.439 -19.1831,-39.3887 -2.8433,-20.2263 6.6279,-9.3205 13.3286,-2.0636 5.168,5.5973 12.1255,12.777 20.8594,12.777 l 10.6421,0 2.393,0 c 0.02,-1.8309 0.074,-3.7071 0.1519,-5.5098 z"
         id="path30"
         style="fill:#ffde00;fill-opacity:1;fill-rule:nonzero;stroke:none"
         inkscape:connector-curvature="0" /><path
         d="m 4691.6499,1954.9123 -0.4151,-2.042 c -1.0366,-6.1504 -2.542,-12.0172 -5.9541,-18.1006 -2.79,-5.0133 -6.8501,-11.7857 -13.7432,-9.2555 -4.2539,1.5616 -5.1167,5.9289 -5.1059,8.9711 0.028,7.9639 10.8545,27.6608 14.2368,33.8763 0.853,1.5793 1.7759,3.1292 2.7617,4.6384 -0.312,-4.9725 -1.1963,-9.9828 -1.9707,-14.8589 -4.1191,-7.9389 -9.5019,-19.1245 -9.518,-23.6752 -0.011,-3.1704 1.7666,-5.5867 4.6137,-2.8209 1.3262,1.2882 2.5381,3.3377 3.8565,5.7072 0.9204,1.6298 1.7925,3.7068 2.5996,6.0796 3.5488,10.625 5.9512,27.4347 5.4155,36.1892 -0.1025,1.449 0.2227,9.7814 -1.7764,9.9522 -4.7519,0 -8.8857,-11.8705 -10.0903,-15.2367 -2.4097,-6.6968 -20.1587,-47.2651 -31.2812,-47.7535 -9.022,-0.3964 -13.6739,6.1146 -16.669,13.113 1.544,1.2808 3.0064,2.587 4.3975,3.9065 2.0844,-5.0614 7.4004,-15.6696 13.749,-10.5189 8.2056,6.6571 21.3823,34.1222 24.6177,43.1139 2.2734,6.3521 6.7226,18.888 15.2119,18.888 7.9565,0 6.9668,-9.853 7.3384,-15.1017 0.5107,-8.3435 -1.1011,-16.8302 -2.3599,-25.0583 l 0.086,-0.013 z"
         id="path32"
         style="fill:#ffde00;fill-opacity:1;fill-rule:nonzero;stroke:none"
         inkscape:connector-curvature="0" /><path
         d="m 4564.3906,1981.129 c -0.4649,-0.8443 -0.9048,-1.6941 -1.3072,-2.494 -0.4033,-0.8027 -0.7553,-1.5614 -1.0678,-2.2076 l -0.7271,-1.4571 c -6.0312,-11.9583 -8.8833,-13.8925 -18.6294,-13.789 0.6548,1.7743 1.2388,3.5329 1.7393,5.2649 6.8115,-0.9273 10.1689,7.6637 14.0796,15.3077 l 0.3808,0.7368 c 2.4932,4.9057 5.9634,10.4585 11.4429,10.4585 10.0913,0 4.3687,-20.4024 3.7759,-24.6172 -2.2671,-16.1258 -6.0889,-32.6016 -11.4785,-48.3062 -5.1826,-15.5979 -11.7886,-30.3236 -19.5039,-39.6218 -4.4444,-5.3561 -11.1587,-10.5638 -18.0977,-5.7234 -18.9922,13.2498 24.7671,61.8898 32.2515,73.0933 1.1235,1.6825 2.1801,3.3978 3.186,5.1374 -1.2017,-5.3615 -2.4272,-10.5038 -3.4629,-14.664 -12.1167,-15.7119 -39.7578,-51.4186 -28.8218,-59.0479 8.0567,-5.6206 19.3145,18.4055 21.4331,23.0465 3.9102,8.5639 7.2691,17.4865 10.0928,26.6022 4.083,13.2195 7.063,26.8612 8.9453,40.251 0.4375,3.1111 3.167,15.636 1.6075,18.3612 -2,0 -4.167,-3.2594 -5.8384,-6.3313 z"
         id="path34"
         style="fill:#ffde00;fill-opacity:1;fill-rule:nonzero;stroke:none"
         inkscape:connector-curvature="0" /><path
         d="m 4527.0917,1963.7875 c -3.9023,2.4384 -5.4272,6.9561 -4.0336,14.7083 0.9091,5.0568 4.4028,11.7533 10.5742,11.7533 9.2627,0.012 8.3154,-10.182 7.3847,-16.2404 -0.997,-6.4898 -3.8291,-14.0363 -7.7202,-21.8457 -2.7119,-5.4427 -5.9389,-11.0139 -9.4179,-16.4459 -13.6866,-21.3673 -51.5611,-19.306 -44.2139,18.5822 2.4873,12.828 12.7314,21.6038 21.2036,25.3338 2.9121,1.3004 11.7998,2.3398 12.2129,5.9215 0.4517,3.9202 -5.1216,8.2456 -9.0044,7.9344 -9.5171,-0.7626 -20.9263,-17.7284 -26.8696,-24.6037 -13.2798,-15.3619 -15.793,-19.4457 -30.5161,-22.3689 -0.028,1.8733 -0.094,3.7638 -0.191,5.5699 12.3648,2.6156 14.4624,6.4322 26.5386,20.4023 7.5249,8.7041 18.3443,25.5106 30.5982,26.4926 12.1352,0.9726 22.0595,-16.8561 8.2514,-21.6875 -2.897,-1.0137 -5.9692,-1.4391 -8.7866,-2.6973 -7.3911,-3.254 -15.9888,-10.8279 -18.0283,-21.346 -6.189,-31.9155 23.7554,-30.8137 34.1655,-14.5615 2.0274,3.1657 5.6367,9.1846 9.0078,15.9907 4.9126,9.9143 9.2847,21.4213 7.6255,28.3134 -0.3164,1.3147 -0.7656,1.7587 -2.1977,1.7587 -3.2427,0 -8.3213,-10.3571 -4.4849,-15.2264 -0.5679,-1.8061 -1.2695,-3.724 -2.0982,-5.7378 z"
         id="path36"
         style="fill:#ffde00;fill-opacity:1;fill-rule:nonzero;stroke:none"
         inkscape:connector-curvature="0" /><path
         d="m 4642.7055,1970.8215 c 12.6123,15.4873 -8.3139,32.7196 -12.3428,4.0619 -0.6894,-4.9015 -1.1523,-8.9634 -1.1626,-12.8417 -1.5981,-1.8568 -3.25,-3.6759 -4.997,-5.4395 -1.2466,11.4341 0.123,24.846 5.6704,33.0651 11.8096,17.4984 31.5068,-4.6393 17.1045,-22.3251 -7.5982,-9.33 -14.8726,-18.6646 -24.3242,-25.9636 -5.2212,-4.1843 -11.2227,-7.9665 -18.8643,-11.6658 -4.1431,-2.0058 -8.4839,-3.3656 -13.6333,-3.3656 -13.5635,0 -9.4683,19.5772 -3.2393,26.0033 1.9371,1.9981 4.2383,3.7412 6.48,6.047 4.1792,4.2881 9.7876,11.3025 10.3115,16.3534 1.3965,13.4513 -12.0478,23.6969 -20.4584,10.4398 -0.7979,-1.2576 -1.5621,-2.5319 -2.2984,-3.8199 0.2095,3.2183 0.1099,6.4254 -0.6528,9.1477 11.7051,14.4404 30.8169,2.2244 28.8901,-16.3364 -0.7505,-7.2288 -7.8555,-15.5351 -11.8437,-19.6277 -3.8072,-3.916 -8.7188,-6.6422 -10.0655,-12.3351 -2.2212,-9.3891 1.2251,-10.3623 2.8765,-10.3623 6.627,0 15.356,4.3756 23.231,9.7294 l 1.5029,1.0405 c 1.5034,1.0597 2.9673,2.1481 4.3706,3.2402 9.1802,6.9237 16.1406,15.9849 23.4448,24.9544 z"
         id="path38"
         style="fill:#ffde00;fill-opacity:1;fill-rule:nonzero;stroke:none"
         inkscape:connector-curvature="0" /><path
         d="m 4867.6904,1863.0509 c 2.5146,-2.1291 2.9433,-4.6911 2.9433,-6.7485 0,-2.9626 -1.5629,-6.7961 -3.8325,-9.4056 -1.9682,1.0952 -3.9697,1.9149 -6.0288,2.4976 3.4487,4.0278 6.5103,8.1552 6.918,13.6565 z"
         id="path40"
         style="fill:#6c6bbb;fill-opacity:1;fill-rule:evenodd;stroke:none"
         inkscape:connector-curvature="0" /><path
         d="m 4370.9492,1858.5189 0.022,-1.5283 0,-5.1025 3.0127,-10e-5 c -0.6787,-1.8009 -1.7016,-3.576 -2.9326,-4.9912 -1.9683,1.0953 -3.9697,1.9153 -6.0293,2.498 2.4346,2.8426 4.6758,5.7343 5.9268,9.1241 z"
         id="path42"
         style="fill:#6c6bbb;fill-opacity:1;fill-rule:evenodd;stroke:none"
         inkscape:connector-curvature="0" /><path
         d="m 4773.3188,1807.1149 c -2.02,4.2472 -1.9204,18.1777 -1.9204,21.3471 0,12.1277 0.9297,18.7151 1.9731,22.2023 l -0.053,-43.5494 z"
         id="path44"
         style="fill:#6c6bbb;fill-opacity:1;fill-rule:evenodd;stroke:none"
         inkscape:connector-curvature="0" /><path
         d="m 4594.8032,1807.1152 c -2.0205,4.2468 -1.9209,18.1763 -1.9209,21.3468 0,12.1277 0.9292,18.7151 1.9726,22.2023 l -0.052,-43.5491 z"
         id="path46"
         style="fill:#6c6bbb;fill-opacity:1;fill-rule:evenodd;stroke:none"
         inkscape:connector-curvature="0" /><path
         d="m 4525.9995,1781.4304 0.7402,-2e-4 c -0.1001,-2.8975 -1.478,-2.8975 -19.4824,-2.8975 l 0,2.607 c 7.7251,-0.1644 16.5923,0.7013 16.5923,8.8725 l 0,63.2597 c 0.4926,0.1162 1.0029,0.1785 1.7631,0.1746 0.4219,-2.1881 0.3868,-4.5051 0.3868,-6.7177 l 0,-65.2984 z"
         id="path48"
         style="fill:#6c6bbb;fill-opacity:1;fill-rule:evenodd;stroke:none"
         inkscape:connector-curvature="0" /><path
         d="m 4804.8496,1906.3997 0.7558,5e-4 0.3584,-0.3572 0,-124.0308 c -5.9126,-2.6097 -14.0942,-5.2192 -25.4023,-5.2192 -5.6055,0 -11.0122,0.625 -15.565,3.4107 2.4395,-0.3668 4.9737,-0.5131 7.565,-0.5131 11.8384,0 20.0127,2.3654 30.5049,6.9962 l 0,119.3704 1.601,0.2582 0.1822,0.084 z"
         id="path50"
         style="fill:#6c6bbb;fill-opacity:1;fill-rule:evenodd;stroke:none"
         inkscape:connector-curvature="0" /><path
         d="m 4741.8066,1865.5677 c 1.4883,-0.9484 2.29,-2.3031 2.6572,-4.0813 -1.5088,-3.906 -2.6972,-8.4011 -3.5542,-13.4695 -1.105,0.3455 -2.1494,0.5036 -3.0962,0.5718 2.0254,5.606 3.8135,10.9769 3.9932,16.979 z"
         id="path52"
         style="fill:#6c6bbb;fill-opacity:1;fill-rule:evenodd;stroke:none"
         inkscape:connector-curvature="0" /><path
         d="m 4708.8779,1778.5327 0,2.9112 3.5718,0.042 c 6.3759,0.1241 13.3745,0.1235 13.3745,8.5199 l 0.1552,60.9944 c 0.896,0.3553 1.7969,0.5341 2.3946,0.5341 3.2461,0 5.4829,-1.4221 8.2588,-2.899 -2.3516,0 -5.4781,-0.8684 -7.7481,-2.7708 l -0.1631,-63.8521 c 0,-3.4795 0,-3.4795 -19.8437,-3.4795 z"
         id="path54"
         style="fill:#6c6bbb;fill-opacity:1;fill-rule:evenodd;stroke:none"
         inkscape:connector-curvature="0" /><path
         d="m 4660.395,1848.129 c -5.2603,-0.574 -10.9366,-1.812 -15.0718,-3.3112 -0.7647,1.4584 -1.3184,2.9874 -1.7139,4.4769 4.7393,1.2653 9.5698,2.0767 14.5904,2.0767 1.0732,0 1.6919,0.1054 2.059,0.01 0.047,-0.1453 0.1363,-0.5423 0.1363,-1.3469 l 0,-1.9027 z"
         id="path56"
         style="fill:#6c6bbb;fill-opacity:1;fill-rule:evenodd;stroke:none"
         inkscape:connector-curvature="0" /><path
         d="m 4689.6889,1860.5533 c 2.2969,-3.3424 3.2993,-8.0796 3.2993,-14.5264 l 0,-8.1678 c 0,-20.0066 0,-42.6227 -0.8701,-55.4938 -5.9121,-3.4794 -14.6108,-5.5723 -25.0488,-5.5723 -5.7549,0 -11.2988,0.591 -15.6714,3.3995 2.5127,-0.3686 5.0972,-0.5019 7.6714,-0.5019 11.3647,0 20.2104,1.9069 29.958,7.6433 1.3027,19.268 1.0635,39.2572 1.0635,58.5252 l 0,8.1678 c 0,2.3471 -0.1328,4.5203 -0.4019,6.5264 z"
         id="path58"
         style="fill:#6c6bbb;fill-opacity:1;fill-rule:evenodd;stroke:none"
         inkscape:connector-curvature="0" /><path
         d="m 4624.5507,1906.3985 2.8975,0 0,-124.3884 c -5.9121,-2.6097 -14.0942,-5.2192 -25.4024,-5.2192 -5.6054,0 -11.0122,0.6249 -15.5654,3.4107 2.44,-0.367 4.9741,-0.5131 7.5654,-0.5131 11.8379,0 20.0132,2.3655 30.5049,6.9962 l 0,119.7117 z"
         id="path60"
         style="fill:#6c6bbb;fill-opacity:1;fill-rule:evenodd;stroke:none"
         inkscape:connector-curvature="0" /><path
         d="m 4555.9521,1859.6187 c 2.2681,-3.4386 3.333,-8.2416 3.333,-14.8009 l 0,-62.8056 c 0,-3.4795 -0.5298,-3.4795 -20.1831,-3.4795 l -5e-4,2.599 c 7.9526,-0.1908 17.2857,0.6208 17.2857,8.8805 l 0,62.8056 c 0,2.4613 -0.146,4.724 -0.4351,6.8009 z"
         id="path62"
         style="fill:#6c6bbb;fill-opacity:1;fill-rule:evenodd;stroke:none"
         inkscape:connector-curvature="0" /><path
         d="m 4458.7744,1848.129 c -5.2603,-0.574 -10.9366,-1.812 -15.0728,-3.3112 -0.7637,1.4584 -1.3179,2.9874 -1.7134,4.4769 4.7393,1.2652 9.5699,2.0767 14.5899,2.0767 1.0737,0 1.6928,0.1055 2.06,0.01 0.047,-0.1453 0.1368,-0.5423 0.1368,-1.3469 l -5e-4,-1.9027 z"
         id="path64"
         style="fill:#6c6bbb;fill-opacity:1;fill-rule:evenodd;stroke:none"
         inkscape:connector-curvature="0" /><path
         d="m 4488.0673,1860.5535 c 2.2969,-3.3424 3.2993,-8.0797 3.2993,-14.5266 l 0,-8.1678 c 0,-20.0066 0,-42.6227 -0.8696,-55.4938 -5.9126,-3.4794 -14.6108,-5.5723 -25.0488,-5.5723 -5.7549,0 -11.2983,0.5911 -15.6709,3.3995 2.5127,-0.3686 5.0967,-0.5019 7.6709,-0.5019 11.3647,0 20.2104,1.9069 29.958,7.6433 1.3022,19.2682 1.063,39.2569 1.063,58.5252 l 0,8.1678 c 0,2.3472 -0.1328,4.5205 -0.4019,6.5266 z"
         id="path66"
         style="fill:#6c6bbb;fill-opacity:1;fill-rule:evenodd;stroke:none"
         inkscape:connector-curvature="0" /><path
         d="m 4425.5327,1794.8292 c 0.5473,0.2225 1.1098,0.4709 1.6948,0.7464 0.5156,-2.4329 1.209,-5.5583 1.209,-9.3917 0,-8.3445 -9.2154,-9.3909 -15.834,-9.3909 -5.2315,0 -9.0005,1.0578 -11.6953,3.0684 1.1631,-0.1128 2.3935,-0.1708 3.6953,-0.1708 9.3135,0 20.9365,2.5172 20.9365,14.4933 l -0.01,0.6453 z"
         id="path68"
         style="fill:#6c6bbb;fill-opacity:1;fill-rule:evenodd;stroke:none"
         inkscape:connector-curvature="0" /><path
         d="m 4425.5234,1865.5177 2.5425,0 c -0.052,-0.4963 -0.076,-0.9646 -0.076,-1.3918 0,-1.343 0.088,-2.6206 0.2539,-3.8517 -0.087,-10.1059 -0.6279,-11.2836 -3.8032,-11.2836 l -10.438,0 0,-41.9837 c -0.9912,-0.2939 -1.9663,-0.4961 -2.8941,-0.5555 0.2022,0.6015 0,2.5068 0,3.2132 l 0,42.2235 5.336,0 c 7.6753,0 8.9946,6.9727 9.083,13.6296 z"
         id="path70"
         style="fill:#6c6bbb;fill-opacity:1;fill-rule:evenodd;stroke:none"
         inkscape:connector-curvature="0" /><path
         d="m 4371.2221,1816.2513 c 2.544,-4.4823 3.3086,-8.6425 3.3086,-14.4102 0,-15.6572 -11.4844,-25.0481 -29.2217,-25.0481 -6.9038,0 -13.0766,0.9356 -16.7685,3.5144 3.0635,-0.4715 6.125,-0.6168 8.7685,-0.6168 19.7222,0 34.3243,10.909 34.3243,30.1505 0,2.3074 -0.125,4.4189 -0.4112,6.4102 z"
         id="path72"
         style="fill:#6c6bbb;fill-opacity:1;fill-rule:evenodd;stroke:none"
         inkscape:connector-curvature="0" /><path
         d="m 4360.8232,1850.255 c -1.5381,0.2032 -3.1133,0.2978 -4.7358,0.2978 -3.772,0 -6.1861,-0.8824 -7.3487,-2.4817 -0.8623,0.8942 -3.3672,3.419 -3.687,4.86 0.1426,0.094 0.6963,0.5193 3.0357,0.5193 5.5014,0 8.7524,-1.1288 12.7358,-3.1954 z"
         id="path74"
         style="fill:#6c6bbb;fill-opacity:1;fill-rule:evenodd;stroke:none"
         inkscape:connector-curvature="0" /><path
         d="m 4866.9716,1816.2513 c 2.544,-4.4823 3.3091,-8.6425 3.3091,-14.4102 0,-15.6572 -11.4853,-25.0481 -29.2217,-25.0481 -6.9048,0 -13.0771,0.9358 -16.769,3.5147 3.0635,-0.4716 6.125,-0.6171 8.769,-0.6171 19.7212,0 34.3243,10.9088 34.3243,30.1505 0,2.3074 -0.125,4.4187 -0.4117,6.4102 z"
         id="path76"
         style="fill:#6c6bbb;fill-opacity:1;fill-rule:evenodd;stroke:none"
         inkscape:connector-curvature="0" /><path
         d="m 4856.5732,1850.2547 c -1.5381,0.2034 -3.1138,0.2981 -4.7368,0.2981 -3.7715,0 -6.1856,-0.8824 -7.3477,-2.4817 -0.8623,0.8943 -3.3677,3.419 -3.687,4.86 0.1421,0.094 0.6958,0.5193 3.0347,0.5193 5.5024,0 8.7524,-1.1288 12.7368,-3.1957 z"
         id="path78"
         style="fill:#6c6bbb;fill-opacity:1;fill-rule:evenodd;stroke:none"
         inkscape:connector-curvature="0" /><path
         d="m 4427.0292,1927.4361 c -0.6601,-1.9095 -1.3549,-3.7662 -1.8896,-5.757 -1.8872,-7.0285 -4.1079,-13.6215 -7.6387,-19.9508 -0.7617,-1.3662 -2.3843,-6.0068 -4.9507,-4.8369 -1.4589,0.6652 -4.3418,1.3173 -4.4394,3.329 -0.084,1.7151 2.209,4.6472 3.0054,6.2446 2.1303,4.2734 3.9741,8.9799 5.5727,13.4693 0.9653,2.7101 1.6714,5.8221 2.8628,8.5948 l 0.5845,-0.1477 c 2.6977,-0.6509 4.9702,-0.9585 6.893,-0.9453 z"
         id="path80"
         style="fill:#6c6bbb;fill-opacity:1;fill-rule:nonzero;stroke:none"
         inkscape:connector-curvature="0" /><path
         d="m 4405.1479,1893.8006 c -3.7515,-0.098 -7.4019,-3.7394 -6.3115,-7.6481 0.2793,-1.0008 0.7651,-1.9141 1.1538,-2.8686 1.1841,-2.9082 3.6225,-5.4819 7.1142,-4.5228 9.4405,2.5935 7.8931,15.2957 -1.9565,15.0395 z"
         id="path82"
         style="fill:#ffde00;fill-opacity:1;fill-rule:nonzero;stroke:none"
         inkscape:connector-curvature="0" /><path
         d="m 4380.6083,1966.9486 c -0.1904,-0.8554 -0.4658,-1.6335 -0.4516,-2.5341 0.052,-3.3246 3.6308,-13.3071 7.8857,-7.3914 2.7906,3.8797 -2.7246,11.0419 -7.4341,9.9255 z m -27.6191,-17.8068 c -1.3594,-0.4586 -2.7612,-2.4309 -2.7612,-2.4309 -1.7564,-4.777 5.1914,-8.3389 8.5674,-4.1625 3.6577,4.5255 -2.5596,7.6886 -5.8062,6.5934 z m 19.8306,-4.7155 c 3.1958,-0.5817 6.4526,-0.8805 9.2529,-0.958 1.4751,-0.041 4.957,0.1505 6.4287,0 1.1094,-0.1135 2.2681,-0.3935 3.0928,-1.1971 1.6675,-1.6249 1.1401,-6.3904 1.0361,-8.5811 -0.053,-1.1109 -0.042,-1.8767 -0.6416,-2.8651 -2.5981,-4.2865 -22.0459,-0.4526 -26.123,1.0697 -2.7178,1.0148 -5.1538,2.5913 -7.7549,3.8511 -7.8486,-1.6987 -14.4522,3.5021 -13.2749,11.7439 0.313,2.193 1.3037,4.0776 2.6885,5.5011 -4.4644,14.1324 7.8515,30.6248 23.1987,26.2596 3.3267,-0.9461 5.7432,-2.216 8.1299,-4.7367 1.6157,-1.7056 2.0796,-3.6265 3.039,-5.6294 1.3013,-0.5457 2.502,-0.5622 3.7867,-1.3376 5.0185,-3.0278 7.2119,-10.4226 1.2607,-13.809 0.9854,-1.1147 2.9741,-4.0792 1.7886,-5.5831 -1.2832,-1.6279 -10.2857,-2.9925 -15.9082,-3.7283 z"
         id="path84"
         style="fill:#6c6bbb;fill-opacity:1;fill-rule:nonzero;stroke:none"
         inkscape:connector-curvature="0" /><path
         d="m 4388.8134,1878.7518 c 0.1192,0.1767 9.0816,17.2433 8.1182,19.7442 -0.1924,0.4988 -0.6206,0.949 -1.0361,1.2734 -1.0455,0.8154 -4.4112,1.4625 -5.7666,1.8288 -3.1914,0.8626 -13.6446,5.8455 -14.816,5.8296 -1.5908,-0.022 -2.8281,-1.1555 -3.6474,-2.427 -2.5322,-3.9294 -2.7197,-5.2103 -4.2725,-8.6299 -0.937,-2.0641 -2.6753,-4.8525 -2.2959,-5.3399 0.8169,-1.0485 3.6392,-2.227 4.6968,-2.7077 5.5913,-2.5416 10.3896,-4.5807 15.2832,-8.2806 0.9858,-0.7454 2.6938,-2.838 3.7363,-1.2909 z"
         id="path86"
         style="fill:#6c6bbb;fill-opacity:1;fill-rule:nonzero;stroke:none"
         inkscape:connector-curvature="0" /><path
         d="m 4370.2666,1909.6875 c 0.3608,0.4605 -0.9146,1.712 -0.9146,1.712 -2.2056,2.082 -6.8828,4.4571 -9.5942,5.5489 -16.4121,6.6093 -30.4595,-12.6777 -7.0396,-24.2923 1.7969,-0.891 6.0679,-2.876 7.8955,-1.5515 0.8599,0.623 1.5557,2.1899 2.0532,3.1125 0.5918,1.0977 5.5962,12.9148 7.5997,15.4704 z"
         id="path88"
         style="fill:#ffde00;fill-opacity:1;fill-rule:nonzero;stroke:none"
         inkscape:connector-curvature="0" /><path
         d="m 4351.7363,1923.0998 c 0.4634,-1.1837 1.9243,-2.6307 1.9243,-2.6307 0.4292,-0.3236 1.3726,-0.5174 1.9058,-0.6084 2.0664,-0.3532 4.4052,-0.6526 6.3955,-1.4146 1.6245,-0.6222 3.1865,-1.488 4.8896,-1.8819 1.1616,-0.2686 3.6856,0.5611 3.1426,2.4073 -0.4507,1.5319 -5.2813,2.8208 -6.7061,3.4128 -4.2363,1.7604 -13.1982,4.9185 -11.5517,0.7155 z"
         id="path90"
         style="fill:#ffde00;fill-opacity:1;fill-rule:nonzero;stroke:none"
         inkscape:connector-curvature="0" /><path
         d="m 4355.9033,1928.9858 c 1.3769,-2.3634 3.5644,-2.4041 6.3149,-3.0516 1.6421,-0.3865 8.5728,-2.5771 10.1431,-1.5174 3.853,2.6009 -4.5962,4.5864 -5.4258,4.9208 -4.4072,1.7766 -13.1997,3.3678 -11.0322,-0.3518 z"
         id="path92"
         style="fill:#ffde00;fill-opacity:1;fill-rule:nonzero;stroke:none"
         inkscape:connector-curvature="0" /><path
         d="m 4339.9404,1898.8006 c 3.706,-5.7402 7.2832,-7.5935 13.9546,-10.2831 1.9731,-0.7954 3.9531,-1.5041 5.9907,-2.13 1.0434,-0.3207 6.5474,-0.9275 6.7622,-4.0744 0.021,-0.3045 0.043,-1.7004 0.1987,-2.4346 0.1348,-0.637 0.1792,-2.916 0.2007,-4.771 -5.5366,4.4381 -14.6445,5.2522 -21.5693,5.2522 -8.815,0 -15.7539,-1.5267 -20.9912,-4.2529 0.095,4.0936 0.082,8.9298 1.624,13.9582 1.8559,6.0504 3.1582,9.7794 7.4839,14.3999 0.8852,0.9459 2.2846,2.8229 2.4009,2.2964 0,0 2.7485,-6.1084 3.9448,-7.9607 z"
         id="path94"
         style="fill:#6c6bbb;fill-opacity:1;fill-rule:nonzero;stroke:none"
         inkscape:connector-curvature="0" /><path
         d="m 4399.9135,1934.2974 c -0.5298,-0.3211 -1.6152,-1.6035 -2.021,-0.6598 -1.0385,2.4186 -0.5351,8.6683 -0.769,11.3301 -0.1104,1.2515 -0.1699,2.5292 -0.1426,3.7851 0.042,1.9393 0.3706,12.3918 1.2783,12.4311 0.5279,0.023 1.104,-0.6129 1.4156,-0.9807 0.623,0.1448 1.8984,0.4629 2.9707,0.6107 -0.1587,-1.8313 0.066,-3.7755 0.645,-5.5503 -1.9624,-0.4316 -3.6802,-1.7016 -4.5698,-3.9404 -1.7657,-4.4429 1.6962,-11.5164 6.5454,-16.0381 -1.9883,-0.1367 -3.8418,-0.147 -5.4175,-0.016 -5e-4,-0.4888 -0.01,-0.4902 0.065,-0.972 z"
         id="path96"
         style="fill:#6c6bbb;fill-opacity:1;fill-rule:evenodd;stroke:none"
         inkscape:connector-curvature="0" /><path
         d="m 4439.8579,1961.9011 c 1.6762,0.069 2.4233,-24.4667 0.9961,-27.653 -0.9429,-2.1051 -1.7896,0.016 -2.9673,0.237 -0.3125,0.059 -0.7686,0.082 -1.2759,0.1037 0.8169,2.3858 1.3398,5.3239 1.8032,8.7461 0.4365,3.2216 -0.2046,5.8646 -1.5483,7.9334 1.1909,1.3245 2.0044,3.2246 2.1738,5.7469 0.091,1.3587 0.037,2.6348 -0.165,3.7828 -0.011,0.7377 0.1294,1.0606 0.9834,1.1031 z"
         id="path98"
         style="fill:#6c6bbb;fill-opacity:1;fill-rule:evenodd;stroke:none"
         inkscape:connector-curvature="0" /><path
         d="m 4803.2128,1911.2569 c -2.9423,-0.4407 -5.8403,-1.1056 -8.7148,-1.8474 -1.6753,-0.4196 -3.6934,-0.6373 -5.0747,0.6317 -1.7832,1.7638 -2.3877,4.3184 -3.0093,6.6699 -0.7095,3.1606 -1.7085,6.2524 -2.8555,9.2823 -0.4213,1.3685 -0.9931,2.7672 -0.9062,4.2136 0.3481,1.3904 2.0024,1.78 3.2515,1.7646 0.2055,0.018 0.4145,0.021 0.623,0.01 0.8301,-1.3148 1.8731,-2.2863 3.0239,-2.9483 0.545,-1.7242 0.791,-3.5568 1.6651,-5.1696 0.9604,-2.018 1.4258,-4.2524 2.5366,-6.1966 1.1372,-1.0335 2.7651,-1.2693 4.2295,-1.5259 1.8935,-0.2565 3.7812,0.2814 5.6719,0.2486 0.5029,-0.054 0.4277,-4.7376 -0.441,-5.1293 z"
         id="path100"
         style="fill:#6c6bbb;fill-opacity:1;fill-rule:nonzero;stroke:none"
         inkscape:connector-curvature="0" /><path
         d="m 4820.2509,1955.2606 c -5.3618,0 -4.4414,-8.3213 0.2627,-8.6431 6.2422,-0.427 4.959,8.6431 -0.2627,8.6431 z m 37.752,2.0625 c -6.1279,-0.2292 -8.042,-7.9326 -1.2017,-9.3225 6.7847,-1.3787 8.2007,9.5841 1.2017,9.3225 z m 0.4922,-11.6455 c -0.1587,-2.4987 -1.0664,-7.8162 -3.6783,-8.8026 -2.9267,-1.1055 -7.9292,-1.5877 -11.1645,-2.1929 -4.4673,-0.836 -18.124,-1.7224 -21.7319,1.0079 -2.1968,1.6627 -3.0035,5.7841 -2.8365,8.3671 -1.2275,1.7905 -2.6499,1.6418 -3.7622,4.1549 -1.2441,2.8119 -1.2812,6.3874 1.8106,8.079 -0.794,3.0545 -0.7388,6.3292 -0.9253,9.4635 -0.2456,4.124 0.8135,8.4128 4.3305,10.9276 3.4605,2.4742 8.0875,1.9526 12.1231,2.0864 1.9219,0.064 3.8999,0.4735 5.8061,0.4155 4.0967,-0.1246 8.5259,-0.6273 12.587,-1.206 3.2675,-0.4657 8.3032,-2.4702 9.3686,-5.9655 0.8794,-2.884 0.033,-6.1727 0.3692,-9.0765 0.268,-2.3173 -0.605,-3.2771 1.5058,-4.506 5.4356,-3.1643 2.1006,-12.4517 -3.8022,-12.7524 z"
         id="path102"
         style="fill:#6c6bbb;fill-opacity:1;fill-rule:nonzero;stroke:none"
         inkscape:connector-curvature="0" /><path
         d="m 4842.8559,1932.2685 c 1.0259,-0.058 2.1211,0 3.0527,-0.4919 0.9732,-0.615 1.3531,-1.8285 1.4292,-2.9191 0.053,-1.3409 -0.3686,-2.829 -1.5224,-3.627 -1.1026,-0.8549 -2.5962,-0.8145 -3.9029,-0.591 -1.3769,0.216 -2.7661,0.3449 -4.143,0.5386 -1.1778,0.1169 -2.4658,0 -3.4741,0.75 -1.3423,0.9554 -1.7339,3.1064 -0.627,4.3889 0.3047,0.3871 2.6372,1.536 3.4683,1.629 1.1606,0.1171 2.3261,0.1935 3.4931,0.2581 0.7442,0.012 1.482,0.082 2.2261,0.064 z"
         id="path104"
         style="fill:#ffde00;fill-opacity:1;fill-rule:nonzero;stroke:none"
         inkscape:connector-curvature="0" /><path
         d="m 4849.2368,1922.0325 c 3.5625,0.023 7.5586,-1.137 9.3691,-4.4655 2.145,-4.089 2.5664,-8.8004 3.1411,-13.3125 0.5503,-6.2115 0.2578,-12.4514 0.6914,-18.6675 0.1206,-3.0331 -0.2817,-6.4164 -2.1108,-8.8873 -5.5308,3.0246 -13.1196,3.66 -19.1006,3.66 -7.6035,0 -13.811,-1.136 -18.7354,-3.198 -3.1665,3.5304 -4.6044,8.5579 -4.0288,13.2538 0.7681,6.7845 1.6289,13.6275 3.8208,20.1255 1.4473,3.2475 2.0684,7.2721 5.2378,9.3871 4.9395,2.661 10.6934,1.6529 16.0606,1.8284 1.8989,-0.123 3.7622,0.1635 5.6548,0.276 z"
         id="path106"
         style="fill:#6c6bbb;fill-opacity:1;fill-rule:nonzero;stroke:none"
         inkscape:connector-curvature="0" /><path
         d="m 4822.9042,1922.3363 c 0.3008,-0.1869 0.5074,-0.256 0.7452,-0.5185 0.9028,-0.9975 -0.7749,-2.7293 -0.9966,-3.3033 -1.2915,-3.3488 -2.8584,-5.9634 -3.501,-9.5919 -0.6792,-3.8363 -5.9331,-1.5599 -7.9253,-0.5296 -8.6514,4.4747 -1.2905,15.6654 5.7061,15.1557 1.7968,-0.1309 3.9531,0.042 5.9716,-1.2124 z"
         id="path108"
         style="fill:#ffde00;fill-opacity:1;fill-rule:nonzero;stroke:none"
         inkscape:connector-curvature="0" /><path
         d="m 4762.0805,1964.7924 0.5025,-0.5022 c -1.4761,-7.2357 6.6494,-14.9439 14.5678,-11.5202 0.9727,0.4203 1.7901,0.9511 2.4644,1.5656 2.2685,-0.9058 4.7505,-0.796 6.792,0.222 0.6255,-0.5662 1.3623,-1.0284 2.2178,-1.3568 6.1689,-2.3688 12.2666,3.941 12.248,10.3824 0.8135,0.1204 1.5083,-0.2537 1.6533,-0.9636 0.5806,-2.8401 0.053,-6.2696 0.053,-9.1758 0,-3.6401 0.1221,-7.2096 0.3218,-10.8376 0.083,-1.5137 0.2339,-3.3046 0.053,-4.8044 -0.075,-0.6176 -0.5107,-0.8316 -0.9629,-0.773 -0.044,0.3193 -0.1049,0.6451 -0.1845,0.9771 -2.1699,9.08 -14.9053,11.6038 -16.8794,2.5235 -0.1607,-0.7387 -0.23,-1.4967 -0.2212,-2.2548 -0.9326,-0.025 -2.0855,0.051 -2.7388,0.019 -1.6367,-0.079 -3.2431,-0.5239 -4.8906,-0.4048 -1.7197,0.1243 -3.4019,0.5828 -5.1348,0.5546 -0.6025,-0.01 -7.2695,-0.5796 -7.2841,-0.588 -0.4239,-0.7397 -1.2774,-1.251 -2.1397,-1.0501 -1.8086,0.4215 -1.7783,4.9461 -1.7646,6.3988 0.06,6.2083 -0.8716,12.3888 -0.7154,18.5928 0.017,0.6912 0.7202,4.2339 2.042,2.9952 z"
         id="path110"
         style="fill:#6c6bbb;fill-opacity:1;fill-rule:nonzero;stroke:none"
         inkscape:connector-curvature="0" /><path
         d="m 4859.7011,1921.452 c 0.4722,0.5661 0.9507,1.1203 1.7329,1.6084 0.6905,0.4306 1.3609,0.6493 1.9297,0.7931 9.5708,2.4193 14.2754,-9.6353 9.3931,-14.448 -1.1255,-1.1098 -3.2647,-1.9706 -4.752,-2.502 -1.0092,-0.3607 -2.5307,-0.5235 -3.5161,-0.012 -0.9609,0.499 -0.9204,1.6917 -0.9145,2.619 0.031,5.0569 -1.3902,7.7148 -3.8731,11.9414 z"
         id="path112"
         style="fill:#ffde00;fill-opacity:1;fill-rule:nonzero;stroke:none"
         inkscape:connector-curvature="0" /><path
         d="m 4864.9526,1877.3916 c 2.7685,1.0896 4.9795,2.6303 7.8398,3.4251 1.6607,0.4741 3.5171,1.2947 4.0786,3.0843 0.6626,2.419 -0.091,4.9337 -0.729,7.2808 -0.9653,3.092 -1.646,6.2691 -2.1679,9.4663 -0.3189,1.396 -0.523,2.8934 -1.3218,4.1023 -0.9966,1.0301 -2.624,0.5403 -3.6982,-0.097 -1.1036,-0.5122 -1.5528,-1.4083 -1.4278,-2.6924 0.2251,-2.3192 0.8677,-4.1323 1.3902,-6.7808 0.5415,-2.7416 1.3237,-4.8007 1.3339,-7.0397 -0.4682,-1.4638 -0.791,-1.2532 -1.9311,-2.2075 -1.5117,-1.1691 -0.5855,-0.3969 -2.2066,-1.3706 -0.4082,-0.298 -2.1079,-7.2653 -1.1601,-7.1704 z"
         id="path114"
         style="fill:#6c6bbb;fill-opacity:1;fill-rule:nonzero;stroke:none"
         inkscape:connector-curvature="0" /><path
         d="m 4661.6713,1752.0432 c -0.1816,0.1131 -0.4189,0.1696 -0.7138,0.1696 -0.1817,0 -0.3741,-0.045 -0.5777,-0.1358 -0.1816,-0.091 -0.352,-0.3285 -0.5107,-0.7139 -0.1582,-0.3855 -0.2944,-0.9748 -0.4077,-1.7681 -0.1133,-0.7705 -0.1699,-1.8588 -0.1699,-3.2638 0,-1.02 0.022,-1.8588 0.068,-2.5162 0.045,-0.6572 0.1133,-1.19 0.2041,-1.5979 0.1133,-0.3854 0.2491,-0.6572 0.4077,-0.816 0.1592,-0.1587 0.3516,-0.2382 0.5782,-0.2382 0.4536,0 0.8276,0.1137 1.122,0.3403 l 0,10.54 z m 0,9.4178 c 0,0.4082 0.045,0.7252 0.1363,0.9519 0.1128,0.2268 0.3061,0.3855 0.5776,0.4763 0.272,0.1131 0.6572,0.1811 1.1563,0.2039 0.499,0.023 1.1445,0.034 1.9379,0.034 l 0,-24.3098 c -0.5893,-0.2491 -1.2919,-0.4757 -2.1079,-0.6797 -0.7929,-0.2262 -1.7451,-0.3397 -2.8559,-0.3397 -0.7251,0 -1.417,0.079 -2.0742,0.238 -0.6573,0.1583 -1.2466,0.5209 -1.7681,1.0874 -0.4985,0.5665 -0.9067,1.3712 -1.2236,2.4141 -0.295,1.0655 -0.4424,2.5047 -0.4424,4.3178 0,1.7453 0.1133,3.2301 0.3398,4.454 0.2495,1.2244 0.5781,2.2101 0.9863,2.9581 0.4307,0.771 0.9292,1.3261 1.4957,1.6659 0.5673,0.3627 1.1787,0.5442 1.8364,0.5442 0.4531,0 0.8501,-0.057 1.1899,-0.1701 0.3399,-0.1131 0.6123,-0.2604 0.8159,-0.4421 l 0,6.5961 z"
         id="path116"
         style="fill:#000000;fill-opacity:1;fill-rule:evenodd;stroke:none"
         inkscape:connector-curvature="0" /><path
         d="m 4667.1796,1746.6711 c 0,3.0826 0.4873,5.3151 1.462,6.6981 0.9741,1.4049 2.3681,2.1079 4.1821,2.1079 0.9062,0 1.688,-0.1358 2.3457,-0.4083 0.6797,-0.249 1.2353,-0.7024 1.666,-1.3597 0.4307,-0.6574 0.748,-1.5414 0.9521,-2.6521 0.2266,-1.1108 0.3399,-2.5271 0.3399,-4.25 0,-1.6321 -0.1245,-3.0262 -0.374,-4.182 -0.2271,-1.1331 -0.5782,-2.0628 -1.0537,-2.7881 -0.4537,-0.7024 -1.0318,-1.2238 -1.7344,-1.5636 -0.7027,-0.3171 -1.5073,-0.4757 -2.4141,-0.4757 -0.9292,0 -1.7339,0.1135 -2.414,0.3397 -0.6573,0.204 -1.2124,0.6117 -1.6661,1.2239 -0.4301,0.6345 -0.7592,1.5299 -0.9858,2.6857 -0.2041,1.1788 -0.3057,2.7201 -0.3057,4.6242 z m 4.1817,0.034 c 0,-1.3374 0.022,-2.3916 0.068,-3.1621 0.068,-0.7481 0.1475,-1.3146 0.2373,-1.7001 0.1138,-0.3855 0.25,-0.6345 0.4087,-0.7481 0.1807,-0.091 0.3741,-0.1359 0.5777,-0.1359 0.1587,0 0.3178,0.045 0.476,0.1359 0.1587,0.1136 0.2945,0.3626 0.4082,0.7481 0.1128,0.4078 0.2037,0.9857 0.272,1.7339 0.09,0.7709 0.1358,1.8137 0.1358,3.1283 0,1.2238 -0.023,2.1987 -0.068,2.9239 -0.023,0.7254 -0.091,1.2804 -0.2041,1.6659 -0.091,0.3855 -0.2153,0.6345 -0.374,0.7481 -0.1587,0.1131 -0.3628,0.1696 -0.6123,0.1696 -0.1807,0 -0.3623,-0.068 -0.5435,-0.2038 -0.1587,-0.1132 -0.2949,-0.3627 -0.4082,-0.7482 -0.1133,-0.3849 -0.2041,-0.9405 -0.272,-1.6658 -0.068,-0.7253 -0.102,-1.6887 -0.102,-2.8897 z"
         id="path118"
         style="fill:#000000;fill-opacity:1;fill-rule:evenodd;stroke:none"
         inkscape:connector-curvature="0" /><path
         d="m 4688.1914,1753.7434 c 0,-0.2497 -0.023,-0.5557 -0.068,-0.9184 -0.046,-0.3398 -0.1362,-0.7138 -0.2725,-1.1222 -0.2719,0.1137 -0.6118,0.2154 -1.02,0.3062 -0.3852,0.091 -0.7588,0.1358 -1.1216,0.1358 -0.3174,0 -0.6235,-0.068 -0.9179,-0.2038 -0.272,-0.113 -0.5215,-0.374 -0.7486,-0.7819 -0.2265,-0.3853 -0.4077,-0.9633 -0.5434,-1.7342 -0.1358,-0.7705 -0.2046,-1.8019 -0.2046,-3.0937 0,-0.9748 0.034,-1.7908 0.1025,-2.4482 0.068,-0.6573 0.1812,-1.1901 0.3399,-1.5979 0.1811,-0.4083 0.4194,-0.703 0.7143,-0.884 0.2944,-0.1587 0.6685,-0.2382 1.1216,-0.2382 0.3623,0 0.748,0.046 1.1562,0.136 0.4078,0.091 0.7476,0.2043 1.0201,0.3403 0.1132,-0.4306 0.1923,-0.8047 0.2378,-1.1222 0.045,-0.2946 0.068,-0.5893 0.068,-0.884 0,-0.5665 -0.352,-1.0199 -1.0542,-1.3597 -0.6802,-0.3171 -1.5644,-0.4757 -2.6523,-0.4757 -0.8838,0 -1.6431,0.1135 -2.2779,0.3397 -0.6347,0.2262 -1.1557,0.646 -1.5639,1.2575 -0.4082,0.6122 -0.7144,1.4621 -0.918,2.5505 -0.1811,1.1102 -0.272,2.5499 -0.272,4.318 0,2.0399 0.1812,3.6606 0.544,4.8617 0.3623,1.2243 0.8271,2.1535 1.394,2.7879 0.5894,0.6574 1.2466,1.077 1.9717,1.2582 0.7251,0.2039 1.4399,0.306 2.1421,0.306 0.8389,0 1.5185,-0.1587 2.04,-0.4762 0.5215,-0.2947 0.7823,-0.7138 0.7823,-1.2575 z"
         id="path120"
         style="fill:#000000;fill-opacity:1;fill-rule:evenodd;stroke:none"
         inkscape:connector-curvature="0" /><path
         d="m 4699.6831,1739.0893 c -0.544,-0.3175 -1.2691,-0.6122 -2.1763,-0.884 -0.8838,-0.2719 -1.836,-0.4077 -2.856,-0.4077 -1.02,0 -1.8589,0.1135 -2.5161,0.3397 -0.6572,0.2262 -1.1894,0.5552 -1.5976,0.9857 -0.3858,0.4535 -0.6573,0.9972 -0.8164,1.6322 -0.1358,0.6345 -0.2037,1.3484 -0.2037,2.1421 l 0,11.5599 c 0,0.1587 0.011,0.2832 0.034,0.374 0.045,0.1131 0.1924,0.1811 0.4419,0.2039 0.249,0.045 0.6348,0.068 1.1558,0.068 0.5439,0.023 1.3149,0.034 2.312,0.034 l 0,-12.4782 c 0,-0.5213 0.068,-0.9182 0.2041,-1.19 0.1362,-0.2719 0.4419,-0.4079 0.918,-0.4079 0.2265,0 0.4536,0.022 0.6801,0.068 0.2266,0.068 0.4307,0.1925 0.6119,0.374 l 0,12.954 c 0,0.1587 0.011,0.2832 0.034,0.374 0.045,0.1131 0.1812,0.1811 0.4077,0.2039 0.2496,0.045 0.6236,0.068 1.1221,0.068 0.5215,0.023 1.2695,0.034 2.2442,0.034 l 0,-16.048 z"
         id="path122"
         style="fill:#000000;fill-opacity:1;fill-rule:evenodd;stroke:none"
         inkscape:connector-curvature="0" /><path
         d="m 4707.979,1750.8873 c 0,0.5665 -0.068,0.9292 -0.2046,1.088 -0.1128,0.1582 -0.3623,0.2375 -0.7476,0.2375 -0.2266,0 -0.4531,-0.045 -0.6802,-0.1358 -0.2265,-0.068 -0.4306,-0.1588 -0.6118,-0.2719 l 0,-12.9881 c 0,-0.1811 -0.022,-0.317 -0.068,-0.4079 -0.045,-0.091 -0.1924,-0.1587 -0.4419,-0.2038 -0.2491,-0.023 -0.6343,-0.046 -1.1558,-0.068 -0.4985,0 -1.2124,0 -2.1421,0 l 0,16.2176 c 0.6572,0.3175 1.4395,0.578 2.3457,0.7824 0.9072,0.2262 1.8706,0.3398 2.8906,0.3398 1.1787,0 2.1192,-0.2947 2.8218,-0.884 0.5894,0.2718 1.2349,0.4872 1.938,0.6459 0.7251,0.1588 1.4165,0.2381 2.0737,0.2381 0.8618,0 1.5415,-0.1021 2.0406,-0.306 0.5214,-0.204 0.9062,-0.51 1.1557,-0.9179 0.272,-0.3853 0.4419,-0.873 0.5098,-1.4619 0.091,-0.567 0.1362,-1.213 0.1362,-1.9382 l 0,-12.0361 c 0,-0.1811 -0.034,-0.317 -0.1025,-0.4079 -0.045,-0.091 -0.1924,-0.1587 -0.4419,-0.2038 -0.2261,-0.023 -0.6001,-0.046 -1.1216,-0.068 -0.5215,0 -1.2353,0 -2.1421,0 l 0,12.6136 c 0,0.5214 -0.068,0.8841 -0.2041,1.0884 -0.1357,0.2039 -0.3965,0.3055 -0.7822,0.3055 -0.4756,0 -0.895,-0.1016 -1.2573,-0.3055 l 0,-13.0223 c 0,-0.1811 -0.023,-0.317 -0.068,-0.4079 -0.023,-0.091 -0.1592,-0.1587 -0.4087,-0.2038 -0.2266,-0.023 -0.6006,-0.046 -1.1221,-0.068 -0.4985,0 -1.2353,0 -2.2094,0 l 0,12.75 z"
         id="path124"
         style="fill:#000000;fill-opacity:1;fill-rule:evenodd;stroke:none"
         inkscape:connector-curvature="0" /><path
         d="m 4725.5571,1755.4771 c 1.3594,0 2.4253,-0.4305 3.1958,-1.2923 0.77,-0.8612 1.1557,-2.2775 1.1557,-4.25 0,-0.8156 -0.034,-1.6658 -0.1015,-2.5498 -0.068,-0.8612 -0.1934,-1.6208 -0.374,-2.2781 -0.4087,-0.09 -0.8731,-0.1697 -1.3941,-0.2377 -0.4985,-0.046 -1.02,-0.091 -1.5644,-0.1363 -0.5215,-0.045 -1.0425,-0.079 -1.564,-0.1017 -0.4985,-0.023 -0.9522,-0.034 -1.3599,-0.034 0.045,-1.0879 0.2154,-1.8811 0.5098,-2.3798 0.3179,-0.4762 0.8843,-0.7139 1.7002,-0.7139 0.6118,0 1.2124,0.079 1.8018,0.2377 0.6123,0.1815 1.2128,0.4197 1.8022,0.7144 0.1133,-0.3404 0.1929,-0.7595 0.2378,-1.2581 0.045,-0.4763 0.068,-0.9068 0.068,-1.2923 0,-0.3399 -0.1246,-0.6459 -0.3736,-0.9178 -0.2495,-0.2495 -0.6006,-0.4648 -1.0542,-0.6458 -0.4306,-0.1817 -0.9404,-0.3171 -1.5298,-0.4079 -0.5893,-0.09 -1.2128,-0.1358 -1.8701,-0.1358 -0.7705,0 -1.4844,0.1135 -2.1416,0.3397 -0.6352,0.2262 -1.1904,0.6345 -1.6665,1.2239 -0.4531,0.6117 -0.8164,1.4392 -1.0879,2.4819 -0.249,1.0428 -0.374,2.3689 -0.374,3.9781 0,2.0623 0.1587,3.7172 0.4761,4.9639 0.3398,1.2695 0.7817,2.2438 1.3262,2.924 0.5434,0.7025 1.1787,1.1673 1.9038,1.394 0.7255,0.2495 1.4843,0.374 2.2783,0.374 z m -0.5103,-3.298 c -0.5215,0 -0.8955,-0.374 -1.122,-1.1221 -0.2266,-0.7481 -0.3628,-1.904 -0.4082,-3.4677 0.476,0 0.9516,0.022 1.4282,0.068 0.4756,0.045 0.8388,0.1245 1.0879,0.2375 0.068,0.2045 0.1137,0.4764 0.1357,0.8162 0.023,0.3626 0.034,0.6801 0.034,0.9519 0,0.5443 -0.023,0.9749 -0.068,1.2924 -0.045,0.3398 -0.1133,0.6002 -0.2036,0.7818 -0.091,0.1811 -0.2158,0.2947 -0.374,0.3399 -0.1367,0.068 -0.3062,0.1021 -0.5103,0.1021 z"
         id="path126"
         style="fill:#000000;fill-opacity:1;fill-rule:evenodd;stroke:none"
         inkscape:connector-curvature="0" /><path
         d="m 4731.7104,1754.3549 c 0.272,0.136 0.6123,0.261 1.02,0.3742 0.4307,0.1358 0.8838,0.2608 1.3604,0.374 0.4985,0.113 0.997,0.2039 1.4956,0.2719 0.4985,0.068 0.9634,0.1021 1.394,0.1021 0.8618,0 1.5977,-0.068 2.21,-0.2038 0.6123,-0.136 1.1108,-0.3741 1.4961,-0.7144 0.4077,-0.3398 0.7026,-0.7933 0.8843,-1.3599 0.2036,-0.5665 0.3056,-1.2694 0.3056,-2.1077 l 0,-12.2743 c 0,-0.1811 -0.022,-0.317 -0.068,-0.4079 -0.045,-0.091 -0.2037,-0.1587 -0.4756,-0.2038 -0.2495,-0.023 -0.646,-0.046 -1.19,-0.068 -0.5215,0 -1.2583,0 -2.2104,0 l 0,11.7638 c 0,0.884 -0.068,1.4848 -0.2036,1.8017 -0.1358,0.3404 -0.4419,0.51 -0.918,0.51 -0.499,0 -0.9297,-0.1358 -1.292,-0.4077 l 0,-12.9881 c 0,-0.1811 -0.023,-0.317 -0.068,-0.4079 -0.045,-0.091 -0.1923,-0.1587 -0.4418,-0.2038 -0.2266,-0.023 -0.6006,-0.046 -1.1221,-0.068 -0.521,0 -1.2461,0 -2.1758,0 l 0,16.2176 z"
         id="path128"
         style="fill:#000000;fill-opacity:1;fill-rule:evenodd;stroke:none"
         inkscape:connector-curvature="0" /><path
         d="m 4745.208,1751.9073 -2.0401,0 c 0,0.7252 0,1.3032 0,1.7338 0.023,0.4306 0.057,0.7481 0.1026,0.952 0.045,0.2267 0.1245,0.374 0.2378,0.442 0.1132,0.068 0.2607,0.1022 0.4418,0.1022 l 1.2579,0 0,4.9297 c 0,0.2946 0.057,0.5213 0.1699,0.6801 0.1137,0.1587 0.3061,0.2719 0.5781,0.3398 0.2949,0.091 0.6802,0.136 1.1563,0.136 0.4985,0.023 1.1333,0.034 1.9043,0.034 l 0,-6.1197 2.7875,0 c 0,-0.7257 -0.011,-1.3037 -0.034,-1.7343 0,-0.4306 -0.023,-0.759 -0.068,-0.9857 -0.045,-0.2268 -0.1245,-0.3741 -0.2378,-0.442 -0.091,-0.046 -0.227,-0.068 -0.4077,-0.068 l -2.04,0 0,-9.2482 c 0,-0.3853 0.034,-0.7595 0.1015,-1.122 0.068,-0.3399 0.3062,-0.5101 0.7139,-0.5101 0.5669,0 1.1562,0.1474 1.768,0.4421 0.046,-0.2495 0.091,-0.5214 0.1358,-0.8161 0.068,-0.2947 0.1025,-0.6345 0.1025,-1.02 0,-0.4077 -0.1025,-0.7367 -0.3061,-0.9857 -0.2041,-0.2267 -0.4644,-0.4083 -0.7818,-0.5437 -0.2949,-0.1359 -0.6235,-0.2153 -0.9863,-0.2382 -0.3628,-0.045 -0.7026,-0.068 -1.02,-0.068 -0.7481,0 -1.3599,0.1135 -1.8359,0.3397 -0.4537,0.204 -0.8047,0.51 -1.0538,0.9178 -0.2495,0.4077 -0.4199,0.9069 -0.5102,1.4962 -0.091,0.6116 -0.1362,1.2918 -0.1362,2.04 l 0,9.316 z"
         id="path130"
         style="fill:#000000;fill-opacity:1;fill-rule:evenodd;stroke:none"
         inkscape:connector-curvature="0" /><path
         d="m 4752.8583,1751.9753 c 0,0.7476 0,1.326 0,1.7338 0.023,0.4306 0.056,0.7481 0.1016,0.952 0.068,0.2038 0.1587,0.3288 0.2725,0.374 0.1357,0.068 0.3169,0.1022 0.5434,0.1022 l 1.1221,0 0,1.9377 c 0,1.3147 0.1816,2.3689 0.5444,3.1621 0.3628,0.8161 0.8272,1.4391 1.3941,1.8698 0.5664,0.4534 1.2011,0.748 1.9038,0.884 0.7026,0.1587 1.394,0.2382 2.0737,0.2382 1.0654,0 1.8926,-0.1474 2.4819,-0.442 0.6124,-0.2947 0.9185,-0.7367 0.9185,-1.3261 0,-0.317 -0.034,-0.6688 -0.1025,-1.0537 -0.068,-0.3627 -0.1587,-0.703 -0.2715,-1.02 -0.4307,0.204 -0.8501,0.3285 -1.2583,0.3735 -0.4077,0.046 -0.7588,0.068 -1.0537,0.068 -0.8618,0 -1.5528,-0.1582 -2.0742,-0.4757 -0.4986,-0.2947 -0.7481,-0.9183 -0.7481,-1.8702 l 0,-2.3456 2.4482,0 c 0,-0.7481 -0.011,-1.3374 -0.034,-1.7681 0,-0.4082 -0.034,-0.7143 -0.1016,-0.9182 -0.046,-0.2039 -0.1138,-0.3398 -0.2046,-0.4078 -0.09,-0.046 -0.2153,-0.068 -0.374,-0.068 l -1.7339,0 0,-13.1583 c -0.023,-0.136 -0.057,-0.2491 -0.102,-0.3399 -0.046,-0.091 -0.1133,-0.1701 -0.2041,-0.2381 -0.068,-0.068 -0.1924,-0.1017 -0.3741,-0.1017 l -3.1279,0 0,13.838 -2.0396,0 z"
         id="path132"
         style="fill:#000000;fill-opacity:1;fill-rule:evenodd;stroke:none"
         inkscape:connector-curvature="0" /><path
         d="m 4762.5478,1753.9472 c 0.5894,0.4077 1.2808,0.759 2.0742,1.0537 0.8159,0.3175 1.7002,0.4762 2.6519,0.4762 0.9292,0 1.5415,-0.1358 1.8359,-0.4083 0.2949,-0.2719 0.4424,-0.7024 0.4424,-1.2918 0,-0.2266 -0.023,-0.5441 -0.068,-0.952 -0.046,-0.4077 -0.1474,-0.8275 -0.3061,-1.258 -0.2495,0.1136 -0.4766,0.1815 -0.6802,0.2038 -0.2041,0.046 -0.397,0.069 -0.5781,0.069 -0.2036,0 -0.4419,-0.046 -0.7139,-0.1365 -0.2725,-0.09 -0.5215,-0.2267 -0.748,-0.4077 l -0.034,-12.4781 c 0,-0.1811 -0.022,-0.317 -0.068,-0.4079 -0.045,-0.091 -0.1929,-0.1587 -0.4424,-0.2038 -0.2265,-0.023 -0.6006,-0.046 -1.1216,-0.068 -0.5214,0 -1.2695,0 -2.2441,0 l 0,15.8099 z"
         id="path134"
         style="fill:#000000;fill-opacity:1;fill-rule:evenodd;stroke:none"
         inkscape:connector-curvature="0" /><path
         d="m 4776.624,1755.4771 c 1.3593,0 2.4253,-0.4305 3.1958,-1.2923 0.77,-0.8612 1.1557,-2.2775 1.1557,-4.25 0,-0.8156 -0.034,-1.6658 -0.1015,-2.5498 -0.068,-0.8612 -0.1934,-1.6208 -0.374,-2.2781 -0.4087,-0.09 -0.8731,-0.1697 -1.3941,-0.2377 -0.4985,-0.046 -1.02,-0.091 -1.5644,-0.1363 -0.5215,-0.045 -1.0425,-0.079 -1.564,-0.1017 -0.4985,-0.023 -0.9522,-0.034 -1.3599,-0.034 0.045,-1.0879 0.2154,-1.8811 0.5098,-2.3798 0.3179,-0.4762 0.8843,-0.7139 1.7002,-0.7139 0.6118,0 1.2124,0.079 1.8017,0.2377 0.6123,0.1815 1.2129,0.4197 1.8023,0.7144 0.1133,-0.3404 0.1929,-0.7595 0.2378,-1.2581 0.046,-0.4763 0.068,-0.9068 0.068,-1.2923 0,-0.3399 -0.1246,-0.6459 -0.3736,-0.9178 -0.2495,-0.2495 -0.6006,-0.4648 -1.0542,-0.6458 -0.4306,-0.1817 -0.9404,-0.3171 -1.5298,-0.4079 -0.5893,-0.09 -1.2129,-0.1358 -1.8701,-0.1358 -0.7705,0 -1.4844,0.1135 -2.1416,0.3397 -0.6352,0.2262 -1.1904,0.6345 -1.6665,1.2239 -0.4531,0.6117 -0.8159,1.4392 -1.0879,2.4819 -0.249,1.0428 -0.374,2.3689 -0.374,3.9781 0,2.0623 0.1587,3.7172 0.4761,4.9639 0.3398,1.2695 0.7817,2.2438 1.3261,2.924 0.5435,0.7025 1.1788,1.1673 1.9039,1.394 0.7255,0.2495 1.4843,0.374 2.2783,0.374 z m -0.5103,-3.298 c -0.5215,0 -0.8955,-0.374 -1.1221,-1.1221 -0.2265,-0.7481 -0.3627,-1.904 -0.4082,-3.4677 0.4761,0 0.9522,0.022 1.4283,0.068 0.4756,0.045 0.8388,0.1245 1.0879,0.2375 0.068,0.2045 0.1137,0.4764 0.1357,0.8162 0.023,0.3626 0.034,0.6801 0.034,0.9519 0,0.5443 -0.023,0.9749 -0.068,1.2924 -0.045,0.3398 -0.1133,0.6002 -0.2036,0.7818 -0.091,0.1811 -0.2158,0.2947 -0.374,0.3399 -0.1367,0.068 -0.3062,0.1021 -0.5103,0.1021 z"
         id="path136"
         style="fill:#000000;fill-opacity:1;fill-rule:evenodd;stroke:none"
         inkscape:connector-curvature="0" /><path
         d="m 4788.3876,1755.4771 c 1.3599,0 2.4253,-0.4305 3.1958,-1.2923 0.7706,-0.8612 1.1558,-2.2775 1.1558,-4.25 0,-0.8156 -0.034,-1.6658 -0.1016,-2.5498 -0.068,-0.8612 -0.1928,-1.6208 -0.374,-2.2781 -0.4082,-0.09 -0.8725,-0.1697 -1.394,-0.2377 -0.4986,-0.046 -1.02,-0.091 -1.5645,-0.1363 -0.521,-0.045 -1.0425,-0.079 -1.5639,-0.1017 -0.4986,-0.023 -0.9522,-0.034 -1.3599,-0.034 0.045,-1.0879 0.2153,-1.8811 0.5103,-2.3798 0.3173,-0.4762 0.8837,-0.7139 1.6997,-0.7139 0.6118,0 1.2124,0.079 1.8017,0.2377 0.6123,0.1815 1.2134,0.4197 1.8028,0.7144 0.1127,-0.3404 0.1923,-0.7595 0.2373,-1.2581 0.046,-0.4763 0.068,-0.9068 0.068,-1.2923 0,-0.3399 -0.1245,-0.6459 -0.3735,-0.9178 -0.2495,-0.2495 -0.6006,-0.4648 -1.0542,-0.6458 -0.4302,-0.1817 -0.9404,-0.3171 -1.5298,-0.4079 -0.5893,-0.09 -1.2129,-0.1358 -1.8701,-0.1358 -0.7705,0 -1.4844,0.1135 -2.1416,0.3397 -0.6353,0.2262 -1.1904,0.6345 -1.6665,1.2239 -0.4531,0.6117 -0.8159,1.4392 -1.0879,2.4819 -0.249,1.0428 -0.374,2.3689 -0.374,3.9781 0,2.0623 0.1587,3.7172 0.476,4.9639 0.3399,1.2695 0.7818,2.2438 1.3262,2.924 0.544,0.7025 1.1787,1.1673 1.9038,1.394 0.7256,0.2495 1.4844,0.374 2.2783,0.374 z m -0.5102,-3.298 c -0.521,0 -0.895,-0.374 -1.1221,-1.1221 -0.2265,-0.7481 -0.3623,-1.904 -0.4082,-3.4677 0.4761,0 0.9522,0.022 1.4282,0.068 0.4756,0.045 0.8389,0.1245 1.0879,0.2375 0.068,0.2045 0.1138,0.4764 0.1363,0.8162 0.022,0.3626 0.034,0.6801 0.034,0.9519 0,0.5443 -0.023,0.9749 -0.068,1.2924 -0.045,0.3398 -0.1133,0.6002 -0.2036,0.7818 -0.091,0.1811 -0.2159,0.2947 -0.3741,0.3399 -0.1367,0.068 -0.3061,0.1021 -0.5102,0.1021 z"
         id="path138"
         style="fill:#000000;fill-opacity:1;fill-rule:evenodd;stroke:none"
         inkscape:connector-curvature="0" /><path
         d="m 4800.8652,1752.0432 c -0.1817,0.1131 -0.419,0.1696 -0.7139,0.1696 -0.1816,0 -0.374,-0.045 -0.5781,-0.1358 -0.1812,-0.091 -0.3516,-0.3285 -0.5103,-0.7139 -0.1582,-0.3855 -0.2949,-0.9748 -0.4077,-1.7681 -0.1133,-0.7705 -0.1704,-1.8588 -0.1704,-3.2638 0,-1.02 0.023,-1.8588 0.068,-2.5162 0.046,-0.6572 0.1138,-1.19 0.2046,-1.5979 0.1133,-0.3854 0.249,-0.6572 0.4077,-0.816 0.1587,-0.1587 0.3516,-0.2382 0.5781,-0.2382 0.4531,0 0.8277,0.1137 1.1221,0.3403 l 0,10.54 z m 0,9.4178 c 0,0.4082 0.045,0.7252 0.1357,0.9519 0.1133,0.2268 0.3062,0.3855 0.5782,0.4763 0.2719,0.1131 0.6572,0.1811 1.1557,0.2039 0.499,0.023 1.145,0.034 1.9385,0.034 l 0,-24.3098 c -0.5894,-0.2491 -1.292,-0.4757 -2.1079,-0.6797 -0.7935,-0.2262 -1.7451,-0.3397 -2.856,-0.3397 -0.7256,0 -1.417,0.079 -2.0742,0.238 -0.6572,0.1583 -1.2466,0.5209 -1.7681,1.0874 -0.4985,0.5665 -0.9067,1.3712 -1.2241,2.4141 -0.2944,1.0655 -0.4419,2.5047 -0.4419,4.3178 0,1.7453 0.1133,3.2301 0.3399,4.454 0.2495,1.2244 0.5781,2.2101 0.9863,2.9581 0.4307,0.771 0.9292,1.3261 1.4956,1.6659 0.5669,0.3627 1.1787,0.5442 1.8359,0.5442 0.4537,0 0.8506,-0.057 1.1905,-0.1701 0.3398,-0.1131 0.6118,-0.2604 0.8159,-0.4421 l 0,6.5961 z"
         id="path140"
         style="fill:#000000;fill-opacity:1;fill-rule:evenodd;stroke:none"
         inkscape:connector-curvature="0" /><path
         d="m 4806.3735,1746.6711 c 0,3.0826 0.4868,5.3151 1.4619,6.6981 0.9741,1.4049 2.3682,2.1079 4.1821,2.1079 0.9063,0 1.688,-0.1358 2.3457,-0.4083 0.6797,-0.249 1.2354,-0.7024 1.666,-1.3597 0.4307,-0.6574 0.7481,-1.5414 0.9522,-2.6521 0.2266,-1.1108 0.3394,-2.5271 0.3394,-4.25 0,-1.6321 -0.1246,-3.0262 -0.3741,-4.182 -0.2265,-1.1331 -0.5776,-2.0628 -1.0537,-2.7881 -0.4531,-0.7024 -1.0312,-1.2238 -1.7339,-1.5636 -0.7026,-0.3171 -1.5073,-0.4757 -2.414,-0.4757 -0.9292,0 -1.7339,0.1135 -2.4141,0.3397 -0.6572,0.204 -1.2124,0.6117 -1.666,1.2239 -0.4307,0.6345 -0.7593,1.5299 -0.9863,2.6857 -0.2037,1.1788 -0.3052,2.7201 -0.3052,4.6242 z m 4.1811,0.034 c 0,-1.3374 0.023,-2.3916 0.069,-3.1621 0.068,-0.7481 0.147,-1.3146 0.2373,-1.7001 0.1138,-0.3855 0.2495,-0.6345 0.4082,-0.7481 0.1811,-0.091 0.374,-0.1359 0.5781,-0.1359 0.1587,0 0.3174,0.045 0.4756,0.1359 0.1587,0.1136 0.2949,0.3626 0.4087,0.7481 0.1128,0.4078 0.2036,0.9857 0.2715,1.7339 0.091,0.7709 0.1362,1.8137 0.1362,3.1283 0,1.2238 -0.023,2.1987 -0.068,2.9239 -0.023,0.7254 -0.09,1.2804 -0.2037,1.6659 -0.091,0.3855 -0.2153,0.6345 -0.374,0.7481 -0.1587,0.1131 -0.3628,0.1696 -0.6123,0.1696 -0.1811,0 -0.3628,-0.068 -0.5434,-0.2038 -0.1592,-0.1132 -0.295,-0.3627 -0.4087,-0.7482 -0.1128,-0.3849 -0.2037,-0.9405 -0.2715,-1.6658 -0.068,-0.7253 -0.1026,-1.6887 -0.1026,-2.8897 z"
         id="path142"
         style="fill:#000000;fill-opacity:1;fill-rule:evenodd;stroke:none"
         inkscape:connector-curvature="0" /><path
         d="m 4824.9711,1750.8873 c 0,0.5665 -0.068,0.9292 -0.2045,1.088 -0.1128,0.1582 -0.3624,0.2375 -0.7476,0.2375 -0.2266,0 -0.4531,-0.045 -0.6802,-0.1358 -0.2265,-0.068 -0.4302,-0.1588 -0.6118,-0.2719 l 0,-12.9881 c 0,-0.1811 -0.023,-0.317 -0.068,-0.4079 -0.045,-0.091 -0.1928,-0.1587 -0.4424,-0.2038 -0.249,-0.023 -0.6342,-0.046 -1.1557,-0.068 -0.4985,0 -1.2124,0 -2.1421,0 l 0,16.2176 c 0.6572,0.3175 1.4394,0.578 2.3462,0.7824 0.9067,0.2262 1.8701,0.3398 2.8901,0.3398 1.1787,0 2.1192,-0.2947 2.8218,-0.884 0.5894,0.2718 1.2354,0.4872 1.938,0.6459 0.7256,0.1588 1.4165,0.2381 2.0737,0.2381 0.8618,0 1.5415,-0.1021 2.0405,-0.306 0.5215,-0.204 0.9063,-0.51 1.1558,-0.9179 0.272,-0.3853 0.4419,-0.873 0.5103,-1.4619 0.09,-0.567 0.1357,-1.213 0.1357,-1.9382 l 0,-12.0361 c 0,-0.1811 -0.034,-0.317 -0.102,-0.4079 -0.046,-0.091 -0.1929,-0.1587 -0.4424,-0.2038 -0.2261,-0.023 -0.6001,-0.046 -1.1216,-0.068 -0.5215,0 -1.2354,0 -2.1421,0 l 0,12.6136 c 0,0.5214 -0.068,0.8841 -0.2036,1.0884 -0.1362,0.2039 -0.397,0.3055 -0.7827,0.3055 -0.4756,0 -0.8946,-0.1016 -1.2574,-0.3055 l 0,-13.0223 c 0,-0.1811 -0.023,-0.317 -0.068,-0.4079 -0.023,-0.091 -0.1587,-0.1587 -0.4087,-0.2038 -0.2266,-0.023 -0.6006,-0.046 -1.1221,-0.068 -0.4985,0 -1.2353,0 -2.2095,0 l 0,12.75 z"
         id="path144"
         style="fill:#000000;fill-opacity:1;fill-rule:evenodd;stroke:none"
         inkscape:connector-curvature="0" /><path
         d="m 4836.5991,1740.3132 c 0,0.6573 0.2036,1.2352 0.6118,1.7337 0.4311,0.4987 1.0312,0.7482 1.8022,0.7482 0.9292,0 1.564,-0.2267 1.9038,-0.6802 0.3399,-0.4533 0.5103,-1.0537 0.5103,-1.8017 0,-0.6574 -0.2153,-1.2239 -0.646,-1.7001 -0.4082,-0.4758 -0.9976,-0.7134 -1.7681,-0.7134 -0.9521,0 -1.5981,0.2039 -1.9384,0.6111 -0.3169,0.4312 -0.4756,1.0314 -0.4756,1.8024 z"
         id="path146"
         style="fill:#000000;fill-opacity:1;fill-rule:evenodd;stroke:none"
         inkscape:connector-curvature="0" /><path
         d="m 4842.7187,1746.6711 c 0,3.0826 0.4873,5.3151 1.4619,6.6981 0.9746,1.4049 2.3687,2.1079 4.1821,2.1079 0.9063,0 1.688,-0.1358 2.3462,-0.4083 0.6797,-0.249 1.2354,-0.7024 1.6656,-1.3597 0.4306,-0.6574 0.7485,-1.5414 0.9521,-2.6521 0.2266,-1.1108 0.3399,-2.5271 0.3399,-4.25 0,-1.6321 -0.1246,-3.0262 -0.3741,-4.182 -0.2265,-1.1331 -0.5781,-2.0628 -1.0537,-2.7881 -0.4536,-0.7024 -1.0312,-1.2238 -1.7344,-1.5636 -0.7026,-0.3171 -1.5068,-0.4757 -2.414,-0.4757 -0.9292,0 -1.7339,0.1135 -2.4141,0.3397 -0.6572,0.204 -1.2124,0.6117 -1.6655,1.2239 -0.4307,0.6345 -0.7598,1.5299 -0.9863,2.6857 -0.2041,1.1788 -0.3057,2.7201 -0.3057,4.6242 z m 4.1816,0.034 c 0,-1.3374 0.023,-2.3916 0.068,-3.1621 0.068,-0.7481 0.1475,-1.3146 0.2378,-1.7001 0.1133,-0.3855 0.2495,-0.6345 0.4082,-0.7481 0.1811,-0.091 0.374,-0.1359 0.5781,-0.1359 0.1587,0 0.3174,0.045 0.4756,0.1359 0.1587,0.1136 0.2944,0.3626 0.4082,0.7481 0.1133,0.4078 0.2041,0.9857 0.272,1.7339 0.091,0.7709 0.1357,1.8137 0.1357,3.1283 0,1.2238 -0.022,2.1987 -0.068,2.9239 -0.023,0.7254 -0.091,1.2804 -0.2041,1.6659 -0.09,0.3855 -0.2149,0.6345 -0.3741,0.7481 -0.1587,0.1131 -0.3623,0.1696 -0.6118,0.1696 -0.1811,0 -0.3628,-0.068 -0.5439,-0.2038 -0.1587,-0.1132 -0.2945,-0.3627 -0.4082,-0.7482 -0.1133,-0.3849 -0.2041,-0.9405 -0.272,-1.6658 -0.068,-0.7253 -0.1021,-1.6887 -0.1021,-2.8897 z"
         id="path148"
         style="fill:#000000;fill-opacity:1;fill-rule:evenodd;stroke:none"
         inkscape:connector-curvature="0" /><path
         d="m 4855.2646,1753.9472 c 0.5894,0.4077 1.2808,0.759 2.0737,1.0537 0.8164,0.3175 1.7002,0.4762 2.6524,0.4762 0.9292,0 1.5415,-0.1358 1.8359,-0.4083 0.2949,-0.2719 0.4419,-0.7024 0.4419,-1.2918 0,-0.2266 -0.023,-0.5441 -0.068,-0.952 -0.045,-0.4077 -0.1474,-0.8275 -0.3061,-1.258 -0.2495,0.1136 -0.4761,0.1815 -0.6802,0.2038 -0.2036,0.046 -0.3965,0.069 -0.5776,0.069 -0.2041,0 -0.4424,-0.046 -0.7139,-0.1365 -0.2725,-0.09 -0.5215,-0.2267 -0.748,-0.4077 l -0.035,-12.4781 c 0,-0.1811 -0.022,-0.317 -0.068,-0.4079 -0.045,-0.091 -0.1924,-0.1587 -0.4419,-0.2038 -0.2265,-0.023 -0.6006,-0.046 -1.1216,-0.068 -0.5214,0 -1.2695,0 -2.2441,0 l 0,15.8099 z"
         id="path150"
         style="fill:#000000;fill-opacity:1;fill-rule:evenodd;stroke:none"
         inkscape:connector-curvature="0" /><path
         d="m 4869.2724,1755.4771 c 0.544,0 1.1104,-0.1021 1.6997,-0.306 l 4.0459,0 c 0.1138,-0.204 0.2041,-0.4649 0.272,-0.7819 0.091,-0.2946 0.1362,-0.6573 0.1362,-1.0879 0,-0.4991 -0.1133,-0.8618 -0.3403,-1.0885 -0.2266,-0.2038 -0.5098,-0.3055 -0.8496,-0.3055 -0.1138,0 -0.2266,0 -0.3404,0 -0.1132,0.022 -0.2377,0.045 -0.3735,0.068 0.249,-0.3855 0.4419,-0.8275 0.5781,-1.3261 0.1587,-0.4986 0.2373,-1.077 0.2373,-1.7343 0,-1.8361 -0.4306,-3.2187 -1.2915,-4.1479 -0.8388,-0.9292 -2.2441,-1.394 -4.2158,-1.394 -0.1816,0 -0.3403,0 -0.4765,0 -0.1358,0 -0.2832,0.011 -0.4419,0.034 -0.272,-0.3855 -0.4078,-0.703 -0.4078,-0.952 0,-0.2724 0.2832,-0.4312 0.8497,-0.4762 0.5668,-0.023 1.2583,-0.1023 2.0742,-0.2382 1.4507,-0.249 2.5615,-0.6797 3.332,-1.2919 0.771,-0.6121 1.1563,-1.5864 1.1563,-2.9233 0,-0.839 -0.125,-1.6207 -0.3741,-2.3461 -0.2265,-0.748 -0.6006,-1.394 -1.122,-1.9382 -0.5215,-0.5437 -1.1905,-0.9742 -2.0064,-1.2917 -0.8159,-0.3175 -1.8017,-0.4764 -2.9575,-0.4764 -1.1567,0 -2.0972,0.125 -2.8223,0.3741 -0.7256,0.2268 -1.292,0.5214 -1.7002,0.884 -0.3847,0.3627 -0.646,0.771 -0.7817,1.2244 -0.1362,0.453 -0.2041,0.895 -0.2041,1.3255 0,0.7938 0.2041,1.5191 0.6123,2.1764 0.4307,0.6345 0.9858,1.1896 1.666,1.6653 -0.5893,0.1816 -1.0542,0.4307 -1.394,0.7482 -0.3179,0.3175 -0.4536,0.7138 -0.4082,1.19 0.022,0.4759 0.1928,0.9744 0.5097,1.4958 0.3404,0.5213 0.8726,1.0765 1.5987,1.6659 -0.7261,0.499 -1.2471,1.1678 -1.5645,2.0062 -0.2944,0.8612 -0.4419,1.8359 -0.4419,2.9239 0,1.2016 0.1245,2.2101 0.374,3.0261 0.272,0.8161 0.6573,1.462 1.1558,1.9378 0.4985,0.499 1.0996,0.8502 1.8022,1.0542 0.7256,0.2039 1.5303,0.306 2.4141,0.306 z m -0.1699,-2.6858 c -0.4536,0 -0.8276,-0.2495 -1.1226,-0.7481 -0.2715,-0.4762 -0.4077,-1.3826 -0.4077,-2.72 0,-1.2015 0.1021,-2.0286 0.3062,-2.4819 0.2041,-0.4307 0.5781,-0.646 1.1216,-0.646 0.2495,0 0.4648,0.045 0.6459,0.1359 0.2046,0.1131 0.3633,0.3056 0.4761,0.5779 0.1363,0.2719 0.2271,0.646 0.272,1.1217 0.068,0.4991 0.1025,1.1336 0.1025,1.904 0,1.0885 -0.1025,1.836 -0.3061,2.2443 -0.2041,0.4078 -0.5669,0.6122 -1.0879,0.6122 z m 1.9375,-15.8099 c 0,0.2725 -0.034,0.4987 -0.1016,0.6802 -0.046,0.1816 -0.1704,0.3398 -0.374,0.4757 -0.1816,0.136 -0.4648,0.249 -0.8501,0.3398 -0.3628,0.091 -0.873,0.1702 -1.5303,0.2382 -0.3847,-0.2947 -0.7026,-0.6459 -0.9521,-1.0537 -0.2266,-0.4306 -0.3399,-0.8954 -0.3399,-1.3941 0,-0.4305 0.1363,-0.7595 0.4078,-0.9862 0.2724,-0.2262 0.7939,-0.3398 1.5644,-0.3398 0.4082,0 0.7481,0.068 1.02,0.204 0.2945,0.1358 0.5215,0.306 0.6802,0.5098 0.1812,0.2045 0.3062,0.4307 0.374,0.6802 0.068,0.2267 0.1016,0.442 0.1016,0.6459 z"
         id="path152"
         style="fill:#000000;fill-opacity:1;fill-rule:evenodd;stroke:none"
         inkscape:connector-curvature="0" /><path
         d="m 4841.227,1875.2574 c -21.5688,0 -28.7051,-9.3918 -28.7051,-21.5697 0,-5.0425 2.27,-12.0013 8.3594,-18.4434 l 15.1265,-16.0113 c 3.4795,-3.9953 3.8335,-7.2981 3.8335,-9.7311 0,-4.3492 -2.7862,-7.3119 -8.875,-7.3119 -4.8663,0 -10.2618,1.223 -15.128,3.8325 -2.269,-4.1865 -3.1391,-8.1817 -3.1391,-10.9687 0,-7.8288 9.2285,-10.2608 20.3598,-10.2608 17.7364,0 29.2217,9.3909 29.2217,25.0481 0,8.6986 -1.7397,13.7411 -8.6987,21.7464 l -12.8711,13.0477 c -4.5259,4.7033 -5.0425,6.7822 -5.0425,8.6985 0,3.3027 2.6099,5.2191 8.168,5.2191 5.3965,0 10.2754,-1.0465 14.9648,-3.656 2.2696,2.6095 3.8325,6.443 3.8325,9.4056 0,4.3493 -1.916,10.955 -21.4067,10.955 z"
         id="path154"
         style="fill:#c1e638;fill-opacity:1;fill-rule:nonzero;stroke:none"
         inkscape:connector-curvature="0" /><path
         d="m 4345.478,1875.2574 c -21.5698,0 -28.7051,-9.3918 -28.7051,-21.5697 0,-5.0425 2.2695,-12.0013 8.3584,-18.4434 l 15.1274,-16.0113 c 3.4795,-3.9953 3.8326,-7.2981 3.8326,-9.7311 0,-4.3492 -2.7862,-7.3119 -8.875,-7.3119 -4.8658,0 -10.2618,1.223 -15.1265,3.8325 -2.2705,-4.1865 -3.1401,-8.1817 -3.1401,-10.9687 0,-7.8288 9.229,-10.2608 20.3593,-10.2608 17.7373,0 29.2217,9.3909 29.2217,25.0481 0,8.6986 -1.7397,13.7411 -8.6982,21.7464 l -12.8711,13.0477 c -4.5259,4.7033 -5.0425,6.7822 -5.0425,8.6985 0,3.3027 2.6094,5.2191 8.1685,5.2191 5.3959,0 10.2758,-1.0465 14.9643,-3.656 2.27,2.6095 3.8325,6.443 3.8325,9.4056 0,4.3493 -1.9165,10.955 -21.4062,10.955 z"
         id="path156"
         style="fill:#c1e638;fill-opacity:1;fill-rule:nonzero;stroke:none"
         inkscape:connector-curvature="0" /><path
         d="m 4771.6713,1966.4532 c -6.4057,-0.452 -4.8178,-9.0857 1.3272,-9.3367 6.8306,-0.279 4.1206,9.7211 -1.3272,9.3367 z"
         id="path158"
         style="fill:#ffde00;fill-opacity:1;fill-rule:nonzero;stroke:none"
         inkscape:connector-curvature="0" /><path
         d="m 4780.7187,1969.3939 c -4.0269,1.0766 -3.1372,-10.3033 1.729,-10.5462 4.5083,-0.2251 3.439,5.6531 1.5029,8.3238 -0.8979,1.2384 -1.7539,1.8272 -3.2319,2.2224 z"
         id="path160"
         style="fill:#ffde00;fill-opacity:1;fill-rule:nonzero;stroke:none"
         inkscape:connector-curvature="0" /><path
         d="m 4791.7597,1968.8066 c -3.7705,-0.8821 -4.6113,-12.3803 0.2578,-10.8248 3.3438,1.0682 5.0938,5.9007 2.5376,8.6314 -0.249,0.2658 -1.0503,1.1603 -1.8813,1.692 -0.3428,0.2189 -0.625,0.569 -0.9141,0.5014 z"
         id="path162"
         style="fill:#ffde00;fill-opacity:1;fill-rule:nonzero;stroke:none"
         inkscape:connector-curvature="0" /><path
         d="m 4791.2158,1941.0546 c -1.4566,-0.3723 -1.6065,-2.5247 -1.2271,-4.1815 0.5811,-2.5368 2.3584,-5.1015 5.8565,-3.1996 2.1699,1.1797 0.8989,5.0315 -1.2119,6.536 -1.1177,0.7969 -3.0284,0.9445 -3.4175,0.8451 z"
         id="path164"
         style="fill:#ffde00;fill-opacity:1;fill-rule:nonzero;stroke:none"
         inkscape:connector-curvature="0" /><path
         d="m 4408.6499,1948.2972 c -1.0533,0.8894 -2.5752,2.317 -4.0557,2.0326 -4.6553,-0.8947 4.5327,-14.7866 9.5112,-14.2412 2.5449,0.2789 -0.5664,3.9874 -0.812,4.539 -1.835,4.122 0.1094,2.6263 -3.5644,5.2716 -0.3736,0.2691 -0.587,2.404 -1.0791,2.398 z"
         id="path166"
         style="fill:#ffde00;fill-opacity:1;fill-rule:nonzero;stroke:none"
         inkscape:connector-curvature="0" /><path
         d="m 4416.7358,1937.4288 c 0,0 1.314,-2.6925 2.31,-3.3069 1.5484,-0.9553 10.3106,-2.6566 11.7671,-0.2472 1.2325,2.0385 1.4483,4.7661 1.9493,7.1038 0.3657,1.7053 1.0556,4.3617 0.5009,6.1308 -2.8271,9.0105 -16.6089,3.7156 -17.7138,-1.026 -0.6846,-2.9349 0.4077,-5.8399 1.1865,-8.6545 z"
         id="path168"
         style="fill:#ffde00;fill-opacity:1;fill-rule:nonzero;stroke:none"
         inkscape:connector-curvature="0" /><path
         d="m 4426.7622,1963.3723 c -0.8716,-1.5588 -0.042,-4.5793 -0.042,-4.5793 0.4458,-4.7323 6.833,-7.3317 7.2285,-1.4365 0.4541,6.7724 -5.4024,9.2058 -7.1865,6.0158 z"
         id="path170"
         style="fill:#ffde00;fill-opacity:1;fill-rule:nonzero;stroke:none"
         inkscape:connector-curvature="0" /><path
         d="m 4424.1152,1955.923 c 1.7231,1.8781 0.1924,5.9441 -0.021,6.535 -1.5762,4.3663 -6.9658,4.768 -7.2412,-0.2113 -0.3916,-7.0751 4.7236,-9.091 7.2622,-6.3237 z"
         id="path172"
         style="fill:#ffde00;fill-opacity:1;fill-rule:nonzero;stroke:none"
         inkscape:connector-curvature="0" /><path
         d="m 4407.6645,1958.4555 c 0.1763,-1.4143 3.3252,-9.9953 7.5615,-7.1051 3.1499,2.1489 -2.3393,13.6286 -6.6045,11.4931 -1.0654,-0.5335 -1.0688,-3.4884 -0.957,-4.388 z"
         id="path174"
         style="fill:#ffde00;fill-opacity:1;fill-rule:nonzero;stroke:none"
         inkscape:connector-curvature="0" /></g></g></svg>